%TF.GenerationSoftware,Novarm,DipTrace,3.0.0.2*%
%TF.CreationDate,2017-03-30T15:48:06-08:00*%
%FSLAX26Y26*%
%MOIN*%
%TF.FileFunction,Copper,L1,Top*%
%TF.Part,Single*%
%AMOUTLINE0*5,1,8,0,0,0.059054,-157.500605*%
%AMOUTLINE3*5,1,8,0,0,0.059054,22.499395*%
%AMOUTLINE6*5,1,8,0,0,0.063779,-157.500206*%
%AMOUTLINE9*5,1,8,0,0,0.059054,-247.500605*%
%AMOUTLINE12*5,1,8,0,0,0.059054,-67.500605*%
%TA.AperFunction,Conductor*%
%ADD14C,0.03*%
%ADD15C,0.025591*%
%ADD16C,0.023622*%
%ADD17C,0.01*%
%ADD19R,0.023622X0.07874*%
%TA.AperFunction,ComponentPad*%
%ADD20C,0.047244*%
%TA.AperFunction,ViaPad*%
%ADD21C,0.07874*%
%TA.AperFunction,ComponentPad*%
%ADD22C,0.08*%
%ADD23R,0.05456X0.05456*%
%ADD24R,0.03937X0.043307*%
%ADD25R,0.043307X0.03937*%
%ADD27R,0.023622X0.043307*%
%ADD29R,0.043307X0.023622*%
%ADD31R,0.086614X0.023622*%
%ADD32R,0.094488X0.122047*%
%ADD34R,0.041339X0.025591*%
%ADD36R,0.025591X0.041339*%
%TA.AperFunction,ComponentPad*%
%ADD37R,0.058924X0.058924*%
%ADD38R,0.059055X0.059055*%
%ADD39R,0.070866X0.062992*%
%ADD40R,0.062992X0.070866*%
%TA.AperFunction,ComponentPad*%
%ADD42C,0.058*%
%ADD43C,0.059055*%
%ADD45R,0.023622X0.086614*%
%TA.AperFunction,ViaPad*%
%ADD46C,0.04*%
%TA.AperFunction,ComponentPad*%
%ADD104OUTLINE0*%
%ADD107OUTLINE3*%
%ADD110OUTLINE6*%
%ADD113OUTLINE9*%
%ADD116OUTLINE12*%
%ADD119C,0.07874*%
G75*
G01*
%LPD*%
X1462751Y2625249D2*
D14*
X1562751D1*
X1281500Y1027071D2*
X1331500D1*
Y1181500D1*
X1356697Y1206697D1*
Y1219000D1*
Y1187946D1*
X2494000Y1219000D2*
X2606500Y1331500D1*
X2602071D1*
X2254283Y3564965D2*
X2245787D1*
D15*
X2269000Y3588177D1*
Y3640949D1*
X2265949Y3644000D1*
X1310929Y3119000D2*
D14*
X1319000D1*
X1356500Y3156500D1*
Y3206500D1*
X1444000D2*
Y3318803D1*
X1419222Y3343581D1*
D15*
X1344222D1*
X1231500Y3456303D1*
X1562751Y2625249D2*
D14*
X1550251D1*
X1506500Y2669000D1*
Y2712749D1*
X1656500Y2862749D1*
Y3181500D1*
X1606500Y3231500D1*
X1469000D1*
X1444000Y3206500D1*
X2602071Y1331500D2*
Y1298429D1*
X2644000Y1256500D1*
X2756500D1*
X2779168Y1233832D1*
D15*
X2798823Y1214177D1*
X2265949Y3644000D2*
X2240727Y3669222D1*
D14*
X2222198Y3687751D1*
X2225249D1*
X1225249Y3612751D2*
X1231500Y3606500D1*
Y3484098D1*
D15*
Y3456303D1*
X3037751Y1869000D2*
D14*
Y1875249D1*
X3044000D1*
X2944000D2*
X3044000D1*
X1462751Y1894000D2*
X1562751D1*
X1575299Y1769197D2*
Y1781451D1*
X1462751Y1894000D1*
X844000Y2544000D2*
Y2531500D1*
X1056500Y2744000D1*
X1206500D1*
X1306697Y2894000D2*
D16*
Y2862504D1*
X1469000Y2919000D2*
D14*
Y2912749D1*
X1631500Y1481500D2*
Y1381500D1*
X1556500Y1306500D1*
X1406500D1*
X1294000Y1419000D1*
X1019000D1*
X781500Y1656500D1*
Y1931500D1*
X769000Y1944000D1*
X2443803Y1531500D2*
D16*
X2456500D1*
D14*
X2556500Y1431500D1*
X2681500D1*
X2769000Y1344000D1*
X2894000D1*
X2931500Y1381500D1*
Y1406500D1*
X2944000Y1875249D2*
X2912751D1*
X2831500Y1956500D1*
Y2369000D1*
X2700249Y2500251D1*
Y2687749D1*
X2850249D1*
X2868803Y2706303D1*
D16*
Y2744000D1*
X2994000Y2731500D2*
D14*
X2981500Y2744000D1*
X2895614D1*
D16*
X2868803D1*
X2781500Y2931500D2*
D14*
Y2881500D1*
D16*
X2794000Y2869000D1*
Y2850299D1*
X2768082Y2824381D1*
D14*
X2689660Y2745959D1*
X2642039D1*
X2700249Y2687749D1*
X2331500Y1750249D2*
Y1681720D1*
X2312665Y1662886D1*
Y1631190D1*
Y1587146D1*
Y1556625D1*
X2642039Y2745959D2*
X2619000D1*
Y2831500D1*
X1206500Y2744000D2*
X1219000Y2731500D1*
X1318563D1*
X1343814Y2756751D1*
Y2785497D1*
Y2825508D1*
X1306697Y2862625D1*
X1343814Y2785497D2*
D16*
X1381500Y2787701D1*
X1343814Y2825508D2*
D14*
X1335552Y2833769D1*
X1389579D1*
X1469000Y2913190D1*
X1631500Y1481500D2*
X1693850Y1543850D1*
Y1619131D1*
X1681349Y1631633D1*
X1638025D1*
X1600091D1*
X1584819Y1616361D1*
X1569197Y1600739D1*
Y1594197D1*
X1531500D1*
X1638025Y1631633D2*
X1637799Y1642189D1*
D16*
Y1669000D1*
X1575299Y1769197D2*
D14*
Y1731499D1*
X1584819Y1721979D1*
Y1616361D1*
X2331500Y1750249D2*
Y1769000D1*
X1737799D1*
X1684159Y1715360D1*
X1591438D1*
X1584819Y1721979D1*
X2312665Y1631190D2*
X2319275Y1637799D1*
X2362671D1*
D16*
X2369000D1*
X2443803Y1531500D2*
X2443929Y1531626D1*
D14*
Y1575377D1*
X2432160Y1587146D1*
X2312665D1*
X1937751Y969000D2*
X1869000Y1037751D1*
Y1187751D1*
X1777465Y1552465D2*
X1835535D1*
X1869000Y1519000D1*
Y1494000D1*
Y1469000D1*
X1819000Y1419000D1*
Y1338266D1*
Y1281500D1*
X1869000Y1231500D1*
Y1187751D1*
X1864669Y1639669D2*
D16*
X1845711Y1620711D1*
D14*
X1777465Y1552465D1*
X2919000Y994000D2*
X2931500D1*
Y869000D1*
X2881500Y819000D1*
X2556500D1*
X2477465Y898035D1*
X2402465D1*
X2400175Y1212839D2*
Y1237825D1*
X2294000Y1344000D1*
X1969000Y1494000D2*
X1869000D1*
X2106500Y3306500D2*
D16*
Y3356500D1*
D14*
X2087749Y3375251D1*
X1800249D1*
X1744000Y3431500D1*
X2344000Y3169000D2*
Y3162751D1*
X2300249D1*
X2156500Y3306500D1*
D16*
X2106500D1*
X1169000Y919000D2*
D14*
X1456500D1*
Y1169000D1*
X1706500Y1194000D2*
Y1269000D1*
X1775766Y1338266D1*
X1819000D1*
X2400175Y1212839D2*
Y900325D1*
X2402465Y898035D1*
X1964669Y1348331D2*
D17*
Y1389669D1*
X2025364Y1450364D1*
X2231407D1*
X2275161Y1494118D1*
Y1706640D1*
X2262660Y1719142D1*
X1864669Y1348331D2*
Y1279581D1*
X1906500Y1237751D1*
Y1081500D1*
X1937751Y1050249D1*
X1437749Y554678D2*
X1483322Y600251D1*
X1675251D1*
X1700249Y625249D1*
Y750249D1*
X1700251Y1050251D2*
X1737751D1*
X1750249Y1062749D1*
Y1237749D1*
X1775251Y1262751D1*
X2069000Y1250249D2*
Y1352661D1*
X2064669Y1348331D1*
X1356500Y548429D2*
X1350251Y554678D1*
Y662751D1*
X1362751Y675251D1*
X1637751D1*
X1650251Y687751D1*
Y769001D1*
X1700251Y819001D1*
Y1050251D1*
X1987749Y1031501D2*
Y1281500D1*
X1975249Y1294000D1*
X1944000D1*
X1906500Y1331500D1*
Y1340161D1*
X1914669Y1348331D1*
X2275252Y517178D2*
X2194000Y598430D1*
Y750249D1*
Y1050251D2*
X2200249D1*
Y1250251D1*
X2181500Y1269000D1*
X2031500Y1281500D2*
Y1294000D1*
X2019000Y1306500D1*
Y1352661D1*
X2014669Y1348331D1*
X2356500Y523429D2*
X2244000Y635929D1*
Y900249D1*
X2194000Y950249D1*
Y1050251D1*
X1744000Y2869000D2*
X1719000Y2894000D1*
X1700251D1*
X1694000Y2900251D1*
Y3275251D1*
X1650251Y3319000D1*
X1581500D1*
X1619000Y2756500D2*
X1731500D1*
X1744000Y2769000D1*
X2394000Y3219000D2*
Y3144000D1*
X2369000Y3119000D1*
X2319000D1*
X2294000Y3094000D1*
Y2956500D1*
X2337749Y2912751D1*
Y2869000D1*
X2344000D1*
X3069000Y1794000D2*
X3044000Y1819000D1*
X2906500D1*
X2756500Y1969000D1*
Y1994000D1*
X2506500Y2212751D2*
Y2219000D1*
X2194000D1*
X2144000Y2269000D1*
X969000Y1031500D2*
X962749D1*
Y1056500D1*
X887749Y1131500D1*
Y1431500D1*
X893999Y1425251D1*
X1231500Y2131500D2*
X1569000D1*
X1694000D2*
Y2119000D1*
X1894000D1*
X2044000Y2269000D1*
X944000Y3419018D2*
Y3194000D1*
X969000Y3169000D1*
X1131500D1*
X1281500Y3019000D1*
X1319000D1*
X1456500Y3156500D1*
X1594000D1*
X1606500Y3169000D1*
Y3156500D1*
X1381500Y2894000D2*
Y2906500D1*
X1419000Y2944000D1*
X1444000Y3056500D2*
X1544000D1*
Y3060929D1*
X1552071D1*
X1594000Y3019000D1*
Y2969000D1*
X1456500Y2831500D1*
X1581500Y2719000D2*
X1762749D1*
X1825249Y2656500D1*
X1906500D1*
X1969000Y2719000D1*
X2194000D1*
X2244000Y2769000D1*
X2144000Y2569000D2*
X2087749Y2625251D1*
Y2675251D1*
X2062749Y2762749D2*
X2169000Y2869000D1*
Y3212749D1*
X2212751Y3369001D2*
X2231407Y3387657D1*
Y3431822D1*
X2243585Y3444000D1*
X2400251D1*
X2419000Y3425251D1*
X2437751D1*
X2450251Y3437751D1*
X2512749D1*
X2519000Y3431500D1*
X2525251D1*
X2794000Y2744000D2*
X2756500D1*
X2719000Y2856500D2*
X2731500Y2869000D1*
Y2914571D1*
X2369000Y1531500D2*
Y1479740D1*
Y1435929D1*
X2364571Y1431500D1*
X2369000Y1479740D2*
X2364510D1*
X2369000Y1475251D1*
X2212751Y1494000D2*
X2250249Y1531499D1*
Y1675297D1*
X2206404Y1719142D1*
X2194000Y1921413D2*
Y2012749D1*
X2144000Y2062749D1*
Y2069000D1*
X819000Y1150249D2*
Y1519000D1*
X1194000Y2256500D2*
Y2006500D1*
X1231500Y1969000D1*
X1581500D1*
X1656500Y1956500D2*
X1694000Y1919000D1*
X1994000D1*
X2044000Y1969000D1*
X1452071Y1369000D2*
X1425251D1*
X1494000Y1719000D2*
Y1706500D1*
X1531500Y1669000D1*
X2694000Y3444000D2*
X2644000Y3494000D1*
X2581500D1*
X2556500Y3469000D1*
X2425251D1*
X2394000Y3281500D2*
X2431500Y3244000D1*
Y3137751D1*
X2412749Y3119000D1*
Y3075251D1*
X2444000Y2969000D2*
Y2575249D1*
X2487749Y2531500D1*
Y2450249D1*
X2406500Y2369000D1*
X2344000D1*
X2856500Y1819000D2*
X2750249Y1925251D1*
X2569000Y2019000D2*
Y2100249D1*
X2550249Y2119000D1*
X2300251D1*
X2219000Y2037749D1*
X2231501D1*
X919000Y931500D2*
Y1044000D1*
X856500Y1106500D1*
Y1469000D1*
X869000Y1481500D1*
X881500D1*
X1281500Y2281500D2*
X1569000D1*
X1619000Y2431500D2*
Y2406500D1*
X1706500Y2319000D1*
X1994000D1*
X2044000Y2369000D1*
X1294000Y3181500D2*
X1281500D1*
Y3194000D1*
X1256500Y3219000D1*
X1206500D1*
X1144000Y3281500D1*
Y3294000D1*
X1744000Y1969000D2*
X1706500D1*
X1656500Y2019000D1*
Y2269000D1*
X1669000Y2281500D1*
X1681500D1*
X1244000Y3306500D2*
Y3294000D1*
X1144000D1*
X2268996Y3406500D2*
Y3389575D1*
X2310535Y3348035D1*
X2256500Y3294000D1*
X2212749Y3175249D2*
X2194000Y3156500D1*
Y2844000D1*
X2219000Y2819000D1*
X2256500D1*
X2294000Y2781500D1*
Y2413139D1*
X2469000Y1131500D2*
X2456500D1*
X2556500Y1231500D1*
X2581500D1*
X1206500Y1344000D2*
X1169000D1*
X1156500Y1356500D1*
X1206500Y1344000D2*
X1319000D1*
X1394000Y1269000D1*
X1569000D1*
X1731500Y1431500D1*
Y1631500D1*
X1744000Y1644000D1*
X1231500Y3381500D2*
X1256500D1*
X1339352Y3298648D1*
X1394000Y3244000D1*
Y3131500D1*
X1319000Y3056500D1*
X1294000D1*
X1244000Y3106500D1*
Y3119000D1*
X1231500Y3394000D2*
Y3381500D1*
X1234551Y3256598D2*
X1297302D1*
X1339352Y3298648D1*
X2306398Y3497051D2*
Y3550150D1*
X2321213Y3564965D1*
Y3616787D1*
X2306500Y3631500D1*
Y3678252D1*
X2265949Y3718803D1*
X2672051Y1194098D2*
X2706402D1*
X2731500Y1169000D1*
X2819000D1*
X2869000Y1219000D1*
Y1214177D1*
X2873626D1*
X2669000Y1331500D2*
X2706500D1*
X2669000Y1144000D2*
Y1197150D1*
X2672051Y1194098D1*
X1281500Y1094000D2*
Y1306598D1*
X1297051D1*
X1431500Y1219000D2*
X1412749D1*
X1325151Y1306598D1*
X1297051D1*
X794000Y3319018D2*
D14*
Y3507073D1*
X843761Y3556835D1*
X1025030D1*
X1062534Y3594339D1*
X1100038D1*
X1150043Y3544333D1*
Y3418902D1*
X1140949D1*
X2356500Y3681402D2*
X2369367D1*
X2481433Y3569336D1*
X2581164D1*
X2594000Y3556500D1*
X2694000D1*
X2744000Y3506500D1*
Y3344000D1*
X2719000Y994000D2*
Y1006402D1*
X2816570Y1103971D1*
D15*
X2836224Y1123626D1*
X1394098Y1128449D2*
Y1106402D1*
D14*
X1406500Y1094000D1*
Y1019000D1*
X1362751Y975251D1*
X1206499D1*
X2106500Y462749D2*
X2006500D1*
X2625249Y1875249D2*
X2525249D1*
X2535929Y1131500D2*
X2544000D1*
D15*
X2569197Y1156697D1*
X2581500D1*
X1587749Y1225251D2*
D14*
Y1237749D1*
X1769000Y1419000D1*
Y1494000D1*
X1777465Y1485535D1*
X2114669Y1348331D2*
D16*
Y1293961D1*
D14*
Y1220919D1*
X2094000Y1200249D1*
Y1181500D1*
X2037749Y1125249D1*
Y893999D1*
X1962751Y819000D1*
X1587749Y1225251D2*
X1562751D1*
X1506500Y1169000D1*
Y906500D1*
X1450251Y850251D1*
X1450249D1*
X2006500Y462749D2*
Y481500D1*
X1944000Y544000D1*
X1919000D1*
Y806500D1*
X1931500Y819000D1*
X1962751D1*
X1531500Y1631598D2*
D16*
X1493902D1*
D14*
X1425299Y1700201D1*
Y1744197D1*
X1450299Y1769197D1*
X1508370D1*
X1144000Y1894000D2*
X1044000D1*
X1045231Y2794000D2*
D16*
X994000D1*
D14*
X938913Y2849087D1*
X932081Y2855919D1*
Y2869079D1*
X819000Y2844000D2*
D16*
X902307D1*
D14*
X907003D1*
X932081Y2869079D1*
Y2730507D1*
X745575Y2544000D1*
X960929Y3044000D2*
Y2897927D1*
X932081Y2869079D1*
X1744000Y3498429D2*
X1772198D1*
X1806500Y3532731D1*
X1581500Y3619000D2*
X1720231D1*
D16*
X1806500Y3532731D1*
X1044000Y2625249D2*
D14*
X1144000D1*
X1044000D2*
Y1894000D1*
X1089571Y1781500D2*
Y1848429D1*
X1044000Y1894000D1*
X2525249Y2606499D2*
X2625249D1*
Y1875249D1*
X2520575Y2831500D2*
Y2711173D1*
X2625249Y2606499D1*
X2406402Y1531500D2*
D16*
Y1500349D1*
D14*
X2431500Y1475251D1*
Y1431500D1*
X1450299Y1769197D2*
X1281303D1*
X1156500Y1894000D1*
X1144000D1*
X960929Y3044000D2*
X1019000D1*
X1044000Y3019000D1*
X1344098Y2894000D2*
D16*
Y2944098D1*
D14*
X1406500Y3006500D1*
X1448429D1*
X1469000Y2985929D1*
X1535929D1*
X1544000Y2994000D1*
X1144000Y3219197D2*
X1181697Y3181500D1*
X1227071D1*
X2214669Y1348331D2*
D16*
X2223331D1*
D14*
X2300249Y1425249D1*
X2625249Y1775249D2*
D16*
X2605269Y1755269D1*
Y1731500D1*
X1144000Y3219197D2*
D14*
X1050033Y3313164D1*
Y3425571D1*
X987526Y3488077D1*
X887516D1*
X844000Y3444562D1*
Y3419018D1*
X1737751Y3800251D2*
Y3819001D1*
X1769000Y3850251D1*
X1894000D1*
Y3800251D1*
X1881500D1*
X1894000Y3850251D2*
X2020285D1*
Y3795285D1*
X2019000Y3794000D1*
X2020285Y3850251D2*
X2106499D1*
X2162749Y3794000D1*
X2156500D1*
X1581500Y3619000D2*
X1594000D1*
X1719000Y3744000D1*
Y3794001D1*
X1725249Y3800251D1*
X1737751D1*
X1450249Y850251D2*
Y844000D1*
X1425251D1*
X1344000Y762749D1*
X1282356D1*
X1181500D1*
X1158906Y785344D1*
X1031500D1*
X1072844D1*
X1119000Y831500D1*
Y1181697D1*
X1206500Y1269197D1*
X1031500Y785344D2*
X965156D1*
X819000Y931500D1*
X1231500Y1544000D2*
X1232081D1*
X1089571Y1781500D2*
X1094000D1*
Y1744000D1*
X1152071Y1685929D1*
Y1694000D1*
X1345231Y1469000D2*
D16*
X1294000D1*
D14*
X1218921Y1544079D1*
X1232081D1*
X1119000Y1519000D2*
D16*
X1177307D1*
D14*
X1207003D1*
X1232081Y1544079D1*
X867425Y1944000D2*
X994000D1*
X1044000Y1894000D1*
X1519000Y1369000D2*
Y1381500D1*
X1481500Y1419000D1*
X1395231D1*
D16*
X1345231Y1469000D1*
X1519000Y1369000D2*
D14*
D3*
X1119000Y1519000D2*
D3*
X1156500Y1289571D2*
Y1219197D1*
D15*
X1206500Y1269197D1*
X867425Y1944000D2*
D14*
Y1970575D1*
X831500Y2006500D1*
X719000D1*
X694000Y1981500D1*
Y1031500D1*
X769000Y956500D1*
X794000D1*
X819000Y931500D1*
X2419000Y1356500D2*
Y1365966D1*
X2403466Y1381500D1*
X2331500D1*
X2312665Y1400335D1*
Y1489696D1*
X2831500Y1681500D2*
D16*
X2710693D1*
D14*
Y1664147D1*
X2718419Y1656421D1*
X2431500Y1431500D2*
Y1356500D1*
X2419000D1*
X2544000Y1369000D2*
Y1331500D1*
X2494000Y1281500D1*
X2431500D1*
X2419000Y1294000D1*
Y1356500D1*
X2669000Y894000D2*
Y906500D1*
X2631500Y944000D1*
X2587751D1*
X2544000Y987751D1*
Y1123429D1*
X2535929Y1131500D1*
X2677071Y1531500D2*
Y1615073D1*
X2718419Y1656421D1*
X2605269Y1731500D2*
D16*
X2669000D1*
D14*
X2744079Y1656421D1*
X2718419D1*
X2343799Y3406500D2*
D15*
X2344238D1*
D14*
X2400175Y3350563D1*
X2379992D1*
X2377465Y3348035D1*
X844000Y3419018D2*
Y3119000D1*
X744000Y3019000D1*
X644000D1*
X594000Y2969000D1*
Y2695575D1*
X745575Y2544000D1*
X1344098Y2894000D2*
Y2944000D1*
X2848429Y2931500D2*
X2831402Y2914472D1*
Y2780654D1*
D16*
Y2744000D1*
X2614571Y3019000D2*
D14*
X2569000D1*
X2731500Y2981500D2*
X2719000Y2969000D1*
X2644000D1*
X2614571Y2998429D1*
Y3019000D1*
X2731500Y2981500D2*
X2831500D1*
X2848429Y2964571D1*
Y2931500D1*
X2755919Y3156421D2*
X2781579D1*
X2706500Y3231500D1*
D16*
X2642769D1*
X2755919Y3156421D2*
D14*
X2780997Y3181500D1*
X2810693D1*
D16*
X2869000D1*
X2755919Y3156421D2*
D14*
Y3230919D1*
X2794000Y3269000D1*
Y3444000D1*
X2462749Y3400249D2*
X2410535Y3348035D1*
X2377465D1*
X2344000Y3069000D2*
Y3062749D1*
X2387749Y3019000D1*
X2462749D1*
Y3312751D1*
X2427465Y3348035D1*
X2377465D1*
X2755919Y3131500D2*
Y3156421D1*
X2462749Y3019000D2*
X2569000D1*
X2520575Y2831500D2*
X2569000Y2879925D1*
Y3019000D1*
X2719000Y1644000D2*
X2712750Y1650250D1*
X2718419Y1655919D1*
Y1656421D1*
X931500Y2869000D2*
X938913Y2849087D1*
X1356500Y481500D2*
X1362749Y487749D1*
X1437749D1*
X1450249Y475249D1*
X1543823D1*
X1612573Y544000D1*
X1919000D1*
X2275252Y450249D2*
X2281503Y456500D1*
X2356500D1*
X2275252Y450249D2*
X2262752Y462749D1*
X2106500D1*
X1356500Y481500D2*
X1356488Y481512D1*
X1306310D1*
X1282356Y505466D1*
Y762749D1*
X2114669Y1348331D2*
D16*
X2112644Y1350356D1*
D14*
Y1400358D1*
X2131396Y1419110D1*
X2193903D1*
X2214669Y1398344D1*
D16*
Y1348331D1*
X1045231Y2894000D2*
D17*
X1119000D1*
X1131500Y2881500D1*
Y2844000D1*
X1619000Y2681500D2*
X1731500D1*
X1744000Y2669000D1*
X1794000Y2819000D2*
Y3194000D1*
X1725249Y3262751D1*
Y3356500D1*
X1700249Y3381500D1*
Y3569000D1*
X2106500D2*
Y3532731D1*
X2642769Y3131500D2*
Y3137749D1*
X2556500D1*
X2344000Y2769000D2*
X2294000Y2819000D1*
Y2912751D1*
X2244000Y2962751D1*
Y2969000D1*
X2131500Y3037751D2*
Y3175249D1*
X2156500Y3375249D2*
X2100249Y3431500D1*
Y3425251D1*
X1956500Y3444000D2*
Y3532731D1*
X2605269Y1631500D2*
Y1625382D1*
X2531438D1*
X1944000Y1969000D2*
X1844000D1*
X1744000Y2069000D1*
X1906500Y3306500D2*
X1900249Y3300249D1*
Y3125251D1*
X1981500Y2856500D2*
X1994000Y2844000D1*
Y2769000D1*
X2019000Y2669000D2*
X1856500Y2506500D1*
Y2381500D1*
Y2269000D2*
X1819000Y2231500D1*
Y2156500D1*
X1345231Y1569000D2*
X1419000D1*
X1631500Y2537749D2*
X1675251D1*
X1744000Y2469000D1*
X2056500Y3294000D2*
Y3306500D1*
X1744000Y2469000D2*
X1856500Y2581500D1*
Y2700251D2*
X1869000D1*
Y2987749D1*
X2056500Y3175249D1*
Y3306500D1*
X1045231Y2844000D2*
X1081500D1*
X1131500Y2794000D1*
X1306500Y2531500D2*
X1406500D1*
X1431500Y2506500D1*
X1556500D1*
X1619000Y2587749D2*
X1725251D1*
X1744000Y2569000D1*
X2056500Y3532731D2*
Y3531500D1*
X1819000Y3225249D2*
Y2881500D1*
X1831500Y2869000D1*
Y2769000D1*
X1800249Y2612749D2*
X1756500Y2569000D1*
X1744000D1*
X2642769Y3181500D2*
X2630269Y3194000D1*
X2556500D1*
X1900249Y3487751D2*
Y3532731D1*
X1906500D1*
X1856500Y3306500D2*
Y3081500D1*
X1931500Y2856500D2*
X1944000Y2844000D1*
Y2769000D1*
X2500249Y2075251D2*
Y1943999D1*
X2469000Y1912749D1*
Y1850251D1*
X2543940Y1775311D1*
Y1712810D1*
X2575249Y1681500D1*
X2605269D1*
X1345231Y1519000D2*
X1406500D1*
X1419000Y1506500D1*
X1744000Y2169000D2*
X1787749Y2212749D1*
Y2237749D1*
X1806500Y2256500D1*
Y2281500D1*
X1906500Y2731500D2*
X1894000D1*
Y2962749D1*
X2094000Y3162749D1*
Y3212749D1*
X2006500Y3237749D2*
Y3306500D1*
X2114669Y1639669D2*
X2106394Y1631394D1*
Y1719142D1*
X2175251Y1819000D2*
X2262751D1*
X2293913Y1850163D1*
Y1975419D1*
X2275161Y1994171D1*
X2344000Y2069000D2*
X2337749Y2075251D1*
X2400249D1*
X2431500Y2044000D1*
Y2000249D1*
X2419000Y1987749D1*
Y1812749D1*
X2156399Y1700390D2*
Y1639669D1*
X2164669D1*
X2214669D2*
D3*
X2531438Y1675387D2*
X2506436Y1700390D1*
Y1775398D1*
X2444000Y1837833D1*
Y1919000D1*
X2462749Y1937749D1*
Y1975251D1*
X2569000Y3085929D2*
X2573429Y3081500D1*
X2642769D1*
X2605269Y1581500D2*
X2612697D1*
Y1531622D1*
X2481500Y1431612D2*
X2506500D1*
Y1377071D1*
X2485929Y1356500D1*
X1345231Y1619000D2*
X1344000D1*
X1319000Y1644000D1*
X1219000Y1756500D2*
X1181500D1*
X1156500Y1781500D1*
X1110929Y3019000D2*
Y3009698D1*
X1045231Y2944000D1*
X1894000Y3631500D2*
X1944000D1*
X2006500Y3569000D1*
Y3532731D1*
X1894000Y3698429D2*
Y3710930D1*
X1804680Y3800251D1*
X1948429D2*
X1937749D1*
Y3744000D1*
X1769000D2*
X1814571Y3698429D1*
X1806500D1*
X2085929Y3794000D2*
Y3777070D1*
X2075249Y3787749D1*
X1998429Y3710929D1*
X1994000D1*
X1450249Y783322D2*
X1567177D1*
X1600249Y750249D1*
X1962751Y752071D2*
X2092178D1*
X2094000Y750249D1*
X2160929Y1181500D2*
Y1117180D1*
X2094000Y1050251D1*
X1654678Y1225251D2*
Y1104678D1*
X1600251Y1050251D1*
X2223429Y3794000D2*
Y3735929D1*
X2219000Y3731500D1*
X2089571D1*
X2069000Y3710929D1*
X1806500Y3631500D2*
X1856500Y3581500D1*
Y3532731D1*
X1806500Y3306500D2*
Y3294000D1*
Y3444000D2*
X1812749D1*
X1850249Y3406500D1*
X2019001D1*
X2075251Y3462749D1*
X2119000D1*
X2156500Y3500249D1*
Y3606500D2*
X2031500D1*
X1994000Y3644000D1*
X2069000D2*
X2168999D1*
X2206500Y3606499D1*
Y3450249D1*
X2187749Y3431499D1*
Y3425251D1*
X1944000Y3237749D2*
Y3250249D1*
X1956500Y3262749D1*
Y3306500D1*
X681500Y2894000D2*
D14*
X769000D1*
D16*
X819000D1*
X2994000Y2969000D2*
D14*
Y2956500D1*
X2937749Y3012751D1*
Y3100251D1*
D16*
X2906500Y3131500D1*
X2869000D1*
X2831500Y1631500D2*
X2956500D1*
D14*
D3*
X1119000Y1569000D2*
D16*
X1069000D1*
D14*
X1019000Y1619000D1*
Y1669000D1*
X969000Y1719000D1*
X931500D1*
X819000Y2794000D2*
D16*
X760693D1*
D14*
X681500D1*
X2869000Y3231500D2*
X2981500D1*
X2994000Y3219000D1*
Y3069000D1*
X2831500Y1731500D2*
D16*
X2919000D1*
D14*
X2956500D1*
X1119000Y1469000D2*
D16*
X1069000D1*
D14*
X919000Y1619000D1*
X931500D1*
X1937751Y902071D2*
Y887751D1*
X1800249Y750249D1*
X1802071Y1187751D2*
Y1052071D1*
X1800251Y1050251D1*
X2335535Y898035D2*
Y791785D1*
X2294000Y750249D1*
X2333245Y1212839D2*
Y1089496D1*
X2294000Y1050251D1*
X1506500Y2781500D2*
D17*
X1406500Y2681500D1*
Y2581500D1*
X1431500Y2556500D1*
X1556500D1*
X1744000Y2369000D1*
X2594000Y3444000D2*
X2581500Y3431500D1*
X2575251D1*
X2494000Y3350249D1*
Y3112751D1*
X2512751Y3094000D1*
X2394000Y2912749D2*
Y2519000D1*
X2344000Y2469000D1*
X2869000Y894000D2*
Y1056500D1*
X2944000Y1131500D1*
Y1319000D1*
X3031500Y1406500D1*
Y1744000D1*
X2994000Y1781500D1*
X2831500D1*
X2706500Y1906500D1*
Y2119000D1*
X2681500Y2144000D1*
X2500249Y2319000D2*
X2250249D1*
Y2144000D2*
X2169000D1*
X2144000Y2169000D1*
X1019000Y931500D2*
Y1069000D1*
X969000Y1119000D1*
Y1262751D1*
X1087749Y1381500D1*
Y1369000D1*
X1294000Y2219000D2*
X1569000D1*
X1581500Y2206500D1*
X894000Y3319018D2*
Y3200314D1*
X956273Y3138041D1*
X1131291D1*
X1287832Y2981500D1*
X1319001D1*
X1450251Y3112749D1*
X1562751D1*
X1619000Y3056500D1*
Y2944000D1*
X1269000Y2594000D1*
Y2494000D1*
X1331500Y2431500D1*
X1556500D1*
X1619000Y2369000D1*
Y1800243D1*
X1643845Y1775398D1*
X1756500Y1706500D2*
X1881500D1*
X1919000Y1669000D1*
Y1644000D1*
X1914669Y1639669D1*
X1964669D2*
X1962751Y1637751D1*
Y1575255D1*
X2031386Y1506619D1*
X2143898D1*
X2175249Y1537971D1*
Y1550249D1*
X2194000Y1569000D1*
X2206501D1*
X2394000Y1687965D2*
Y1781572D1*
X2381423Y1794150D1*
Y1825403D1*
X2394000Y1837980D1*
Y2019000D1*
Y2431500D2*
X2450249Y2487749D1*
Y2519000D1*
X2756500Y2556500D2*
X2794000D1*
X2919000Y2681500D1*
X3069000D1*
X2275161Y1156583D2*
Y1262839D1*
X2256500Y1281500D1*
X2087642Y1544123D2*
X2081391Y1537873D1*
X2019000Y1600264D1*
Y1639669D1*
X2014669D1*
X1012749Y1137751D2*
Y1218999D1*
X1100251Y1306500D1*
X1950251Y1131500D2*
Y1256500D1*
X2031386Y1719142D2*
X2068890Y1681638D1*
Y1639669D1*
X2064669D1*
X819000Y2944000D2*
D16*
Y3019000D1*
D14*
X844000Y3044000D1*
X894000D1*
X1206500Y2854236D2*
X1233370D1*
D16*
X1299906Y2787701D1*
X1306697D1*
X1206500Y2854236D2*
D14*
Y3006500D1*
X1119000Y3094000D1*
X919000D1*
X894000Y3069000D1*
Y3044000D1*
X2994000Y2841736D2*
X2985437Y2850299D1*
X2895614D1*
D16*
X2868803D1*
X2681500Y3019000D2*
D14*
X2694000Y3031500D1*
X2856500D1*
X2866449Y3041449D1*
X2869000Y3044000D1*
Y3054689D1*
D16*
Y3081500D1*
X2866449Y3041449D2*
D14*
X2895614Y3012283D1*
Y2850299D1*
X2443803Y1637799D2*
Y1748182D1*
X2441736Y1750249D1*
X2744000Y1531500D2*
X2756500D1*
X2787542Y1562542D1*
D16*
X2812542D1*
X2831500Y1581500D1*
X2744000Y1531500D2*
D14*
Y1519000D1*
X2706500Y1481500D1*
X2569000D1*
X2494000Y1556500D1*
Y1594063D1*
X2456500Y1631563D1*
D16*
Y1625102D1*
X2443803Y1637799D1*
X1219000Y1694000D2*
X1231500D1*
X1156500Y1619000D1*
X1119000D1*
X1521264Y1481500D2*
D14*
X1506500D1*
X1469000Y1519000D1*
Y1594000D1*
X1369000Y1694000D1*
X1219000D1*
X1521264Y1481500D2*
Y1521264D1*
X1544000Y1544000D1*
X1587602D1*
X1618841Y1575239D1*
D16*
X1637799Y1594197D1*
D46*
X1356697Y1187946D3*
X2494000Y1219000D3*
X1356697Y1187946D3*
X1356500Y3206500D3*
X1444000D3*
D3*
X2225249Y3687751D3*
X1225249Y3612751D3*
X2294000Y1344000D3*
X1969000Y1494000D3*
X1169000Y919000D3*
X1456500Y1169000D3*
X1706500Y1194000D3*
X2262660Y1719142D3*
X1937751Y1050249D3*
X1775251Y1262751D3*
X2069000Y1250249D3*
X1987749Y1031501D3*
X2181500Y1269000D3*
X2031500Y1281500D3*
X1619000Y2756500D3*
X2394000Y3219000D3*
X3069000Y1794000D3*
X2756500Y1994000D3*
X2506500Y2212751D3*
X893999Y1425251D3*
X1231500Y2131500D3*
X1569000D3*
X1694000D3*
X1606500Y3156500D3*
X1419000Y2944000D3*
X1444000Y3056500D3*
X1456500Y2831500D3*
X1581500Y2719000D3*
X2087749Y2675251D3*
X2062749Y2762749D3*
X2169000Y3212749D3*
X2212751Y3369001D3*
X2525251Y3431500D3*
X2756500Y2744000D3*
X2719000Y2856500D3*
X2369000Y1475251D3*
X2212751Y1494000D3*
X2206404Y1719142D3*
X2194000Y1921413D3*
X819000Y1150249D3*
Y1519000D3*
X1194000Y2256500D3*
X1581500Y1969000D3*
X1656500Y1956500D3*
X1425251Y1369000D3*
X1494000Y1719000D3*
X2425251Y3469000D3*
X2394000Y3281500D3*
X2412749Y3075251D3*
X2444000Y2969000D3*
X2856500Y1819000D3*
X2750249Y1925251D3*
X2569000Y2019000D3*
X2231501Y2037749D3*
X881500Y1481500D3*
X1281500Y2281500D3*
X1569000D3*
X1619000Y2431500D3*
X1681500Y2281500D3*
X1244000Y3306500D3*
X2256500Y3294000D3*
X2212749Y3175249D3*
X2294000Y2413139D3*
X2581500Y1231500D3*
X1744000Y1644000D3*
X2706500Y1331500D3*
X2669000Y1144000D3*
X1206499Y975251D3*
X2625249Y1775249D3*
X1519000Y1369000D3*
X1119000Y1519000D3*
X2544000Y1369000D3*
X1344098Y2944000D3*
X2462749Y3400249D3*
D21*
X2755919Y3131500D3*
D46*
X2831500Y2981500D3*
X1131500Y2844000D3*
X1619000Y2681500D3*
X1794000Y2819000D3*
X1700249Y3569000D3*
X2106500D3*
X2556500Y3137749D3*
X2244000Y2969000D3*
X2131500Y3037751D3*
Y3175249D3*
X2156500Y3375249D3*
X2100249Y3425251D3*
X1956500Y3444000D3*
X2531438Y1625382D3*
X1944000Y1969000D3*
X1900249Y3125251D3*
X1981500Y2856500D3*
X1994000Y2769000D3*
X2019000Y2669000D3*
X1856500Y2381500D3*
Y2269000D3*
X1819000Y2156500D3*
X1419000Y1569000D3*
X1631500Y2537749D3*
X1856500Y2581500D3*
Y2700251D3*
X1131500Y2794000D3*
X1306500Y2531500D3*
X1556500Y2506500D3*
X1619000Y2587749D3*
X2056500Y3531500D3*
X1819000Y3225249D3*
X1831500Y2769000D3*
X1800249Y2612749D3*
X2556500Y3194000D3*
X1900249Y3487751D3*
X2556500Y3194000D3*
X1856500Y3081500D3*
X1931500Y2856500D3*
X1944000Y2769000D3*
X2500249Y2075251D3*
X1419000Y1506500D3*
X1806500Y2281500D3*
X1906500Y2731500D3*
X2094000Y3212749D3*
X2006500Y3237749D3*
X2106394Y1719142D3*
X2175251Y1819000D3*
X2275161Y1994171D3*
X2419000Y1812749D3*
X2156399Y1700390D3*
X2214669Y1639669D3*
X2531438Y1675387D3*
X2462749Y1975251D3*
X2612697Y1531622D3*
X2481500Y1431612D3*
X1319000Y1644000D3*
X1219000Y1756500D3*
X1937749Y3744000D3*
X1769000D3*
X1806500Y3294000D3*
Y3444000D3*
X2156500Y3500249D3*
Y3606500D3*
X2187749Y3425251D3*
X1944000Y3237749D3*
X1506500Y2781500D3*
X2512751Y3094000D3*
X2394000Y2912749D3*
X2681500Y2144000D3*
X2500249Y2319000D3*
X2250249D3*
Y2144000D3*
X1087749Y1369000D3*
X1294000Y2219000D3*
X1581500Y2206500D3*
X1643845Y1775398D3*
X1756500Y1706500D3*
X2206501Y1569000D3*
X2394000Y1687965D3*
Y2019000D3*
Y2431500D3*
X2450249Y2519000D3*
X2756500Y2556500D3*
X3069000Y2681500D3*
X2275161Y1156583D3*
X2256500Y1281500D3*
X2087642Y1544123D3*
X1012749Y1137751D3*
X1100251Y1306500D3*
X1950251Y1131500D3*
Y1256500D3*
X2031386Y1719142D3*
D21*
X1231500Y1544000D3*
X2719000Y1644000D3*
X931500Y2869000D3*
D19*
X1864669Y1348331D3*
X1914669D3*
X1964669D3*
X2014669D3*
X2064669D3*
X2114669D3*
X2164669D3*
X2214669D3*
Y1639669D3*
X2164669D3*
X2114669D3*
X2064669D3*
X2014669D3*
X1964669D3*
X1914669D3*
X1864669D3*
D20*
X944000Y3419018D3*
X894000Y3319018D3*
X844000Y3419018D3*
X794000Y3319018D3*
X744000Y3419018D3*
X694000Y3319018D3*
X644000Y3419018D3*
X594000Y3319018D3*
D119*
X1079039Y3515869D3*
X458961D3*
X1079039Y3791459D3*
X458961D3*
D20*
X2894000Y3444000D3*
X2844000Y3344000D3*
X2794000Y3444000D3*
X2744000Y3344000D3*
X2694000Y3444000D3*
X2644000Y3344000D3*
X2594000Y3444000D3*
X2544000Y3344000D3*
D119*
X3029039Y3540850D3*
X2408961D3*
X3029039Y3816441D3*
X2408961D3*
D20*
X2569000Y894000D3*
X2619000Y994000D3*
X2669000Y894000D3*
X2719000Y994000D3*
X2769000Y894000D3*
X2819000Y994000D3*
X2869000Y894000D3*
X2919000Y994000D3*
D119*
X2433961Y797150D3*
X3054039D3*
X2433961Y521559D3*
X3054039D3*
D20*
X719000Y931500D3*
X769000Y1031500D3*
X819000Y931500D3*
X869000Y1031500D3*
X919000Y931500D3*
X969000Y1031500D3*
X1019000Y931500D3*
X1069000Y1031500D3*
D119*
X583961Y834650D3*
X1204039D3*
X583961Y559059D3*
X1204039D3*
D22*
X2525249Y1875249D3*
X2625249D3*
X2944000D3*
X3044000D3*
Y2606499D3*
X2944000D3*
X2625249D3*
X2525249D3*
X1044000Y1894000D3*
X1144000D3*
X1462751D3*
X1562751D3*
Y2625249D3*
X1462751D3*
X1144000D3*
X1044000D3*
D23*
X844000Y2544000D3*
D104*
X745575D3*
D23*
X2619000Y2831500D3*
D104*
X2520575D3*
D23*
X2931500Y1406500D3*
D104*
X2833075D3*
D23*
X769000Y1944000D3*
D107*
X867425D3*
D24*
X1744000Y3431500D3*
Y3498429D3*
X1777465Y1552465D3*
Y1485535D3*
D25*
X894000Y3044000D3*
X960929D3*
D24*
X1469000Y2919000D3*
Y2985929D3*
D25*
X2681500Y3019000D3*
X2614571D3*
X2781500Y2931500D3*
X2848429D3*
X2744000Y1531500D3*
X2677071D3*
D24*
X2312665Y1556625D3*
Y1489696D3*
D25*
X1219000Y1694000D3*
X1152071D3*
X1575299Y1769197D3*
X1508370D3*
D27*
X1381500Y2894000D3*
X1344098D3*
X1306697D3*
Y2787701D3*
X1381500D3*
X2794000Y2744000D3*
X2831402D3*
X2868803D3*
Y2850299D3*
X2794000D3*
X2369000Y1531500D3*
X2406402D3*
X2443803D3*
Y1637799D3*
X2369000D3*
D29*
X1531500Y1669000D3*
Y1631598D3*
Y1594197D3*
X1637799D3*
Y1669000D3*
D31*
X819000Y2794000D3*
Y2844000D3*
Y2894000D3*
Y2944000D3*
X1045231Y2794000D3*
Y2844000D3*
Y2894000D3*
Y2944000D3*
D32*
X932081Y2869079D3*
D31*
X2869000Y3231500D3*
Y3181500D3*
Y3131500D3*
Y3081500D3*
X2642769Y3231500D3*
Y3181500D3*
Y3131500D3*
Y3081500D3*
D32*
X2755919Y3156421D3*
D31*
X2831500Y1731500D3*
Y1681500D3*
Y1631500D3*
Y1581500D3*
X2605269Y1731500D3*
Y1681500D3*
Y1631500D3*
Y1581500D3*
D32*
X2718419Y1656421D3*
D31*
X1119000Y1469000D3*
Y1519000D3*
Y1569000D3*
Y1619000D3*
X1345231Y1469000D3*
Y1519000D3*
Y1569000D3*
Y1619000D3*
D32*
X1232081Y1544079D3*
D34*
X1144000Y3294000D3*
Y3219197D3*
X1234551Y3256598D3*
D36*
X2268996Y3406500D3*
X2343799D3*
X2306398Y3497051D3*
D34*
X2581500Y1231500D3*
Y1156697D3*
X2672051Y1194098D3*
X1206500Y1344000D3*
Y1269197D3*
X1297051Y1306598D3*
X1231500Y3381500D3*
Y3456303D3*
X1140949Y3418902D3*
X2265949Y3718803D3*
Y3644000D3*
X2356500Y3681402D3*
D36*
X2873626Y1214177D3*
X2798823D3*
X2836224Y1123626D3*
X1431500Y1219000D3*
X1356697D3*
X1394098Y1128449D3*
D104*
X1700249Y750249D3*
D37*
X1800249D3*
D110*
X1600249D3*
D104*
X1700251Y1050251D3*
D37*
X1800251D3*
D110*
X1600251D3*
D104*
X2194000Y750249D3*
D37*
X2294000D3*
D110*
X2094000D3*
D104*
X2194000Y1050251D3*
D37*
X2294000D3*
D110*
X2094000D3*
D38*
X2106500Y462749D3*
D110*
X2006500D3*
X1806500D3*
X1906500D3*
D24*
X1937751Y969000D3*
Y902071D3*
D25*
X1869000Y1187751D3*
X1802071D3*
X2402465Y898035D3*
X2335535D3*
X2400175Y1212839D3*
X2333245D3*
D24*
X1894000Y3631500D3*
Y3698429D3*
X1806500Y3631500D3*
Y3698429D3*
X1994000Y3644000D3*
Y3710929D3*
X2069000Y3644000D3*
Y3710929D3*
D25*
X1044000Y3019000D3*
X1110929D3*
X1294000Y3181500D3*
X1227071D3*
X2310535Y3348035D3*
X2377465D3*
X2469000Y1131500D3*
X2535929D3*
X1244000Y3119000D3*
X1310929D3*
X2321213Y3564965D3*
X2254283D3*
X2669000Y1331500D3*
X2602071D3*
D24*
X1281500Y1094000D3*
Y1027071D3*
X1450249Y850251D3*
Y783322D3*
D25*
X1587749Y1225251D3*
X1654678D3*
D24*
X1962751Y819000D3*
Y752071D3*
D25*
X2094000Y1181500D3*
X2160929D3*
D24*
X1156500Y1356500D3*
Y1289571D3*
X2569000Y3019000D3*
Y3085929D3*
D25*
X2419000Y1356500D3*
X2485929D3*
X1089571Y1781500D3*
X1156500D3*
D24*
X1437749Y487749D3*
Y554678D3*
X1356500Y481500D3*
Y548429D3*
X2275252Y517178D3*
Y450249D3*
X2356500Y523429D3*
Y456500D3*
X1544000Y2994000D3*
Y3060929D3*
X2731500Y2981500D3*
Y2914571D3*
D25*
X2431500Y1431500D3*
X2364571D3*
X1519000Y1369000D3*
X1452071D3*
D39*
X1206500Y2744000D3*
Y2854236D3*
X2994000Y2731500D3*
Y2841736D3*
D40*
X2331500Y1750249D3*
X2441736D3*
X1631500Y1481500D3*
X1521264D3*
D25*
X1737751Y3800251D3*
X1804680D3*
X1881500D3*
X1948429D3*
X2019000Y3794000D3*
X2085929D3*
X2156500D3*
X2223429D3*
D42*
X1744000Y3069000D3*
Y2969000D3*
Y2869000D3*
Y2769000D3*
X2344000Y2969000D3*
X1944000Y1869000D3*
X2144000Y2469000D3*
X1744000Y2669000D3*
Y2569000D3*
Y2469000D3*
Y2369000D3*
Y2269000D3*
Y2169000D3*
Y2069000D3*
Y1969000D3*
Y1869000D3*
X2344000D3*
Y1969000D3*
Y2069000D3*
Y2169000D3*
Y2269000D3*
Y2369000D3*
Y2469000D3*
Y2569000D3*
Y2669000D3*
Y2769000D3*
Y2869000D3*
X2044000Y2369000D3*
Y2269000D3*
Y2169000D3*
Y2069000D3*
Y1969000D3*
X2144000D3*
Y2069000D3*
Y2169000D3*
Y2269000D3*
Y2369000D3*
X2244000Y2769000D3*
Y2669000D3*
X2044000Y2569000D3*
X2144000D3*
X2344000Y3069000D3*
X2244000Y2869000D3*
X1744000Y3169000D3*
X2044000Y1869000D3*
Y2469000D3*
X2144000Y1869000D3*
X2244000D3*
X1844000D3*
X2344000Y3169000D3*
X2244000Y3069000D3*
D43*
X1581500Y3819000D3*
Y3719000D3*
Y3619000D3*
Y3519000D3*
Y3419000D3*
Y3319000D3*
D45*
X2106500Y3306500D3*
X2056500D3*
X2006500D3*
X1956500D3*
X2106500Y3532731D3*
X2056500D3*
X2006500D3*
X1956500D3*
X1906500Y3306500D3*
X1856500D3*
X1806500D3*
X1906500Y3532731D3*
X1856500D3*
X1806500D3*
D113*
X681500Y2894000D3*
D37*
Y2794000D3*
D116*
X2994000Y2969000D3*
D37*
Y3069000D3*
D116*
X2956500Y1631500D3*
D37*
Y1731500D3*
D113*
X931500Y1719000D3*
D37*
Y1619000D3*
M02*
