%TF.GenerationSoftware,Novarm,DipTrace,3.0.0.2*%
%TF.CreationDate,2017-04-01T16:45:00-08:00*%
%FSLAX26Y26*%
%MOIN*%
%TF.FileFunction,Drawing,Bot*%
%TF.Part,Single*%
%ADD51C,0.004632*%
G75*
G01*
%LPD*%
X847259Y1182083D2*
D51*
X834326D1*
X830048Y1183509D1*
X828589Y1184968D1*
X827163Y1187820D1*
Y1192131D1*
X828589Y1194983D1*
X830048Y1196442D1*
X834326Y1197868D1*
X847259D1*
Y1167724D1*
X810736Y1187820D2*
X813588Y1186394D1*
X816473Y1183509D1*
X817899Y1179198D1*
Y1176346D1*
X816473Y1172035D1*
X813588Y1169183D1*
X810736Y1167724D1*
X806425D1*
X803540Y1169183D1*
X800688Y1172035D1*
X799229Y1176346D1*
Y1179198D1*
X800688Y1183509D1*
X803540Y1186394D1*
X806425Y1187820D1*
X810736D1*
X789966D2*
X784229Y1167724D1*
X778492Y1187820D1*
X772755Y1167724D1*
X767018Y1187820D1*
X757754Y1179198D2*
X740543D1*
Y1182083D1*
X741969Y1184968D1*
X743395Y1186394D1*
X746280Y1187820D1*
X750591D1*
X753443Y1186394D1*
X756328Y1183509D1*
X757754Y1179198D1*
Y1176346D1*
X756328Y1172035D1*
X753443Y1169183D1*
X750591Y1167724D1*
X746280D1*
X743395Y1169183D1*
X740543Y1172035D1*
X731280Y1187820D2*
Y1167724D1*
Y1179198D2*
X729821Y1183509D1*
X726969Y1186394D1*
X724084Y1187820D1*
X719773D1*
M02*
