%TF.GenerationSoftware,Novarm,DipTrace,3.0.0.2*%
%TF.CreationDate,2017-04-01T16:45:04-08:00*%
%FSLAX26Y26*%
%MOIN*%
%TF.FileFunction,NonPlated,1,2,NPTH,Drill*%
%TF.Part,Single*%
%TA.AperFunction,MechanicalDrill*%
%ADD27C,0.11811*%
G75*
G01*
D27*
X544000Y1544000D3*
X1544000D3*
X544000Y544000D3*
X1544000D3*
M02*
