%TF.GenerationSoftware,Novarm,DipTrace,3.0.0.2*%
%TF.CreationDate,2017-04-01T16:44:56-08:00*%
%FSLAX26Y26*%
%MOIN*%
%TF.FileFunction,Legend,Top*%
%TF.Part,Single*%
%ADD10C,0.009843*%
%ADD12C,0.003*%
%ADD51C,0.004632*%
G75*
G01*
%LPD*%
X1142426Y1106984D2*
D10*
X945574D1*
X1142426Y981016D2*
X945574D1*
Y1106984D2*
Y981016D1*
X1142426Y1106984D2*
Y1063688D1*
Y1024312D2*
Y981016D1*
Y1063688D2*
G03X1142426Y1024312I3J-19688D01*
G01*
X1029500Y1563000D2*
D12*
X1062500D1*
X1029386Y1560000D2*
X1062512D1*
X1029001Y1557000D2*
X1062617D1*
X1028282Y1554000D2*
X1063000D1*
X969500Y1551000D2*
X975500D1*
X1027513D2*
X1063718D1*
X1116500D2*
X1122500D1*
X962726Y1548000D2*
X978036D1*
X1026978D2*
X1064487D1*
X1113614D2*
X1129274D1*
X956837Y1545000D2*
X980293D1*
X1026594D2*
X1065022D1*
X1110999D2*
X1135163D1*
X952037Y1542000D2*
X982516D1*
X1026061D2*
X1065429D1*
X1108718D2*
X1139963D1*
X949911Y1539000D2*
X984979D1*
X1025021D2*
X1065903D1*
X1106499D2*
X1142089D1*
X949168Y1536000D2*
X987586D1*
X1023481D2*
X1067597D1*
X1104136D2*
X1142730D1*
X948885Y1533000D2*
X989994D1*
X1018700D2*
X1072742D1*
X1101879D2*
X1142733D1*
X949101Y1530000D2*
X991915D1*
X1011379D2*
X1080368D1*
X1100037D2*
X1142181D1*
X949754Y1527000D2*
X993500D1*
X1002500D2*
X1089500D1*
X1098500D2*
X1141477D1*
X950500Y1524000D2*
X1140965D1*
X951026Y1521000D2*
X1140590D1*
X951416Y1518000D2*
X1140083D1*
X952006Y1515000D2*
X1139337D1*
X953086Y1512000D2*
X1138770D1*
X954500Y1509000D2*
X1138672D1*
X900500Y1506000D2*
X906500D1*
X951386D2*
X1140779D1*
X1185500D2*
X1191500D1*
X897500Y1503000D2*
X911474D1*
X947999D2*
X1143878D1*
X1180526D2*
X1194500D1*
X894500Y1500000D2*
X916573D1*
X944255D2*
X1147626D1*
X1175427D2*
X1197500D1*
X891512Y1497000D2*
X921958D1*
X940362D2*
X1151578D1*
X1170042D2*
X1200488D1*
X888629Y1494000D2*
X927500D1*
X936500D2*
X1155500D1*
X1164500D2*
X1203371D1*
X886140Y1491000D2*
X1025155D1*
X1067899D2*
X1205860D1*
X884111Y1488000D2*
X1013495D1*
X1078536D2*
X1207889D1*
X883539Y1485000D2*
X1003668D1*
X1088041D2*
X1208508D1*
X884470Y1482000D2*
X995160D1*
X1096310D2*
X1207897D1*
X885941Y1479000D2*
X987680D1*
X1103522D2*
X1206774D1*
X887656Y1476000D2*
X981217D1*
X1109979D2*
X1205100D1*
X889544Y1473000D2*
X975729D1*
X1115734D2*
X1202874D1*
X891544Y1470000D2*
X971000D1*
X1120716D2*
X1200352D1*
X893500Y1467000D2*
X966724D1*
X1125147D2*
X1197908D1*
X895463Y1464000D2*
X962579D1*
X1129368D2*
X1195809D1*
X897278Y1461000D2*
X958627D1*
X1133352D2*
X1194114D1*
X898730Y1458000D2*
X955031D1*
X1136961D2*
X1192712D1*
X898510Y1455000D2*
X951726D1*
X1140271D2*
X1192387D1*
X897713Y1452000D2*
X948589D1*
X1143398D2*
X1193401D1*
X896530Y1449000D2*
X945533D1*
X1146341D2*
X1194911D1*
X895083Y1446000D2*
X942512D1*
X1148899D2*
X1196629D1*
X893385Y1443000D2*
X939504D1*
X1150881D2*
X1198497D1*
X891500Y1440000D2*
X936500D1*
X1152500D2*
X1200500D1*
X633500Y1410000D2*
X1458500D1*
X633500Y1407000D2*
X1458500D1*
X633500Y1404000D2*
X1458500D1*
X633500Y1401000D2*
X1458500D1*
X633500Y1398000D2*
X1458500D1*
X633500Y1395000D2*
X831500D1*
X1263500D2*
X1458500D1*
X633500Y1392000D2*
X831500D1*
X1263500D2*
X1458500D1*
X633500Y1389000D2*
X831500D1*
X1263500D2*
X1458500D1*
X633500Y1386000D2*
X831500D1*
X1263500D2*
X1458500D1*
X633500Y1383000D2*
X831500D1*
X1263500D2*
X1458500D1*
X633500Y1380000D2*
X831500D1*
X1263500D2*
X1458500D1*
X633500Y1377000D2*
X831500D1*
X1263500D2*
X1458500D1*
X633500Y1374000D2*
X831500D1*
X1263500D2*
X1458500D1*
X633500Y1371000D2*
X831500D1*
X1263500D2*
X1458500D1*
X633500Y1368000D2*
X1458500D1*
X633500Y1365000D2*
X1458500D1*
X633500Y1362000D2*
X1458500D1*
X633500Y1359000D2*
X828500D1*
X1263500D2*
X1458500D1*
X633500Y1356000D2*
X828500D1*
X1263500D2*
X1458500D1*
X633500Y1353000D2*
X828500D1*
X873500D2*
X936500D1*
X1014500D2*
X1077500D1*
X1155500D2*
X1218500D1*
X1263500D2*
X1458500D1*
X633500Y1350000D2*
X828500D1*
X873500D2*
X936500D1*
X1014500D2*
X1077500D1*
X1155500D2*
X1218500D1*
X1263500D2*
X1458500D1*
X633500Y1347000D2*
X828500D1*
X873500D2*
X936500D1*
X1014500D2*
X1077500D1*
X1155500D2*
X1218500D1*
X1263500D2*
X1458500D1*
X633500Y1344000D2*
X828500D1*
X873500D2*
X936500D1*
X1014500D2*
X1077500D1*
X1155500D2*
X1218500D1*
X1263500D2*
X1458500D1*
X633500Y1341000D2*
X828500D1*
X873500D2*
X936500D1*
X1014500D2*
X1077500D1*
X1155500D2*
X1218500D1*
X1263500D2*
X1458500D1*
X633500Y1338000D2*
X828500D1*
X873500D2*
X936500D1*
X1014500D2*
X1077500D1*
X1155500D2*
X1218500D1*
X1263500D2*
X1458500D1*
X633500Y1335000D2*
X828500D1*
X873500D2*
X936500D1*
X1014500D2*
X1077500D1*
X1155500D2*
X1218500D1*
X1263500D2*
X1458500D1*
X633500Y1332000D2*
X828500D1*
X873500D2*
X936500D1*
X1014500D2*
X1077500D1*
X1155500D2*
X1218500D1*
X1263500D2*
X1458500D1*
X633500Y1329000D2*
X828500D1*
X873500D2*
X936500D1*
X1014500D2*
X1077500D1*
X1155500D2*
X1218500D1*
X1263500D2*
X1458500D1*
X633500Y1326000D2*
X828500D1*
X873500D2*
X936500D1*
X1014500D2*
X1077500D1*
X1155500D2*
X1218500D1*
X1263500D2*
X1458500D1*
X633500Y1323000D2*
X828500D1*
X873500D2*
X936500D1*
X1014500D2*
X1077500D1*
X1155500D2*
X1218500D1*
X1263500D2*
X1458500D1*
X633500Y1320000D2*
X828500D1*
X873500D2*
X936500D1*
X1014500D2*
X1077500D1*
X1155500D2*
X1218500D1*
X1263500D2*
X1458500D1*
X633500Y1317000D2*
X828500D1*
X873500D2*
X936500D1*
X1014500D2*
X1077500D1*
X1155500D2*
X1218500D1*
X1263500D2*
X1458500D1*
X633500Y1314000D2*
X828500D1*
X873500D2*
X936500D1*
X1014500D2*
X1077500D1*
X1155500D2*
X1218500D1*
X1263500D2*
X1458500D1*
X633500Y1311000D2*
X828500D1*
X873500D2*
X936500D1*
X1014500D2*
X1077500D1*
X1155500D2*
X1218500D1*
X1263500D2*
X1458500D1*
X633500Y1308000D2*
X828500D1*
X873500D2*
X936500D1*
X1014500D2*
X1077500D1*
X1155500D2*
X1218500D1*
X1263500D2*
X1458500D1*
X633500Y1305000D2*
X828500D1*
X873500D2*
X936500D1*
X1014500D2*
X1077500D1*
X1155500D2*
X1218500D1*
X1263500D2*
X1458500D1*
X633500Y1302000D2*
X828500D1*
X873500D2*
X936500D1*
X1014500D2*
X1077500D1*
X1155500D2*
X1218500D1*
X1263500D2*
X1458500D1*
X633500Y1299000D2*
X828500D1*
X873500D2*
X936500D1*
X1014500D2*
X1077500D1*
X1155500D2*
X1218500D1*
X1263500D2*
X1458500D1*
X633500Y1296000D2*
X828500D1*
X873500D2*
X936500D1*
X1014500D2*
X1077500D1*
X1155500D2*
X1218500D1*
X1263500D2*
X1458500D1*
X633500Y1293000D2*
X828500D1*
X873500D2*
X936500D1*
X1014500D2*
X1077500D1*
X1155500D2*
X1218500D1*
X1263500D2*
X1458500D1*
X633500Y1290000D2*
X828500D1*
X873500D2*
X936500D1*
X1014500D2*
X1077500D1*
X1155500D2*
X1218500D1*
X1263500D2*
X1458500D1*
X633500Y1287000D2*
X828500D1*
X873500D2*
X936500D1*
X1014500D2*
X1077500D1*
X1155500D2*
X1218500D1*
X1263500D2*
X1458500D1*
X633500Y1284000D2*
X828500D1*
X873500D2*
X936500D1*
X1014500D2*
X1077500D1*
X1155500D2*
X1218500D1*
X1263500D2*
X1458500D1*
X633500Y1281000D2*
X828500D1*
X873500D2*
X936500D1*
X1014500D2*
X1077500D1*
X1155500D2*
X1218500D1*
X1263500D2*
X1458500D1*
X633500Y1278000D2*
X828500D1*
X873500D2*
X936500D1*
X1014500D2*
X1077500D1*
X1155500D2*
X1218500D1*
X1263500D2*
X1458500D1*
X633500Y1275000D2*
X828500D1*
X873500D2*
X936500D1*
X1014500D2*
X1077500D1*
X1155500D2*
X1218500D1*
X1263500D2*
X1458500D1*
X633500Y1272000D2*
X828500D1*
X873500D2*
X936500D1*
X1014500D2*
X1077500D1*
X1155500D2*
X1218500D1*
X1263500D2*
X1458500D1*
X633500Y1269000D2*
X828500D1*
X873500D2*
X936500D1*
X1014500D2*
X1077500D1*
X1155500D2*
X1218500D1*
X1263500D2*
X1458500D1*
X633500Y1266000D2*
X828500D1*
X873500D2*
X936500D1*
X1014500D2*
X1077500D1*
X1155500D2*
X1218500D1*
X1263500D2*
X1458500D1*
X633500Y1263000D2*
X828500D1*
X873500D2*
X936500D1*
X1014500D2*
X1077500D1*
X1155500D2*
X1218500D1*
X1263500D2*
X1458500D1*
X633500Y1260000D2*
X828500D1*
X873500D2*
X936500D1*
X1014500D2*
X1077500D1*
X1155500D2*
X1218500D1*
X1263500D2*
X1458500D1*
X633500Y1257000D2*
X828500D1*
X873500D2*
X936500D1*
X1014500D2*
X1077500D1*
X1155500D2*
X1218500D1*
X1263500D2*
X1458500D1*
X633500Y1254000D2*
X828500D1*
X873500D2*
X936500D1*
X1014500D2*
X1077500D1*
X1155500D2*
X1218500D1*
X1263500D2*
X1458500D1*
X633500Y1251000D2*
X828500D1*
X873500D2*
X936500D1*
X1014500D2*
X1077500D1*
X1155500D2*
X1218500D1*
X1263500D2*
X1458500D1*
X633500Y1248000D2*
X828500D1*
X873500D2*
X936500D1*
X1014500D2*
X1077500D1*
X1155500D2*
X1218500D1*
X1263500D2*
X1458500D1*
X633500Y1245000D2*
X828500D1*
X873500D2*
X936500D1*
X1014500D2*
X1077500D1*
X1155500D2*
X1218500D1*
X1263500D2*
X1458500D1*
X633500Y1242000D2*
X828500D1*
X873500D2*
X936500D1*
X1014500D2*
X1077500D1*
X1155500D2*
X1218500D1*
X1263500D2*
X1458500D1*
X633500Y1239000D2*
X828500D1*
X873500D2*
X936500D1*
X1014500D2*
X1077500D1*
X1155500D2*
X1218500D1*
X1263500D2*
X1458500D1*
X633500Y1236000D2*
X828500D1*
X873500D2*
X936500D1*
X1014500D2*
X1077500D1*
X1155500D2*
X1218500D1*
X1263500D2*
X1458500D1*
X633500Y1233000D2*
X828500D1*
X873500D2*
X936500D1*
X1014500D2*
X1077500D1*
X1155500D2*
X1218500D1*
X1263500D2*
X1458500D1*
X633500Y1230000D2*
X828500D1*
X873500D2*
X936500D1*
X1014500D2*
X1077500D1*
X1155500D2*
X1218500D1*
X1263500D2*
X1458500D1*
X633500Y1227000D2*
X828500D1*
X873500D2*
X936500D1*
X1014500D2*
X1077500D1*
X1155500D2*
X1218500D1*
X1263500D2*
X1458500D1*
X633500Y1224000D2*
X828500D1*
X873500D2*
X936500D1*
X1014500D2*
X1077500D1*
X1155500D2*
X1218500D1*
X1263500D2*
X1458500D1*
X633500Y1221000D2*
X828500D1*
X873500D2*
X936500D1*
X1014500D2*
X1077500D1*
X1155500D2*
X1218500D1*
X1263500D2*
X1458500D1*
X633500Y1218000D2*
X642500D1*
X675500D2*
X681500D1*
X900500D2*
X912500D1*
X1041500D2*
X1053500D1*
X1182500D2*
X1194500D1*
X1410500D2*
X1416500D1*
X1449500D2*
X1458500D1*
X633500Y1215000D2*
X642500D1*
X675500D2*
X681500D1*
X900500D2*
X912500D1*
X1041500D2*
X1053500D1*
X1182500D2*
X1194500D1*
X1410500D2*
X1416500D1*
X1449500D2*
X1458500D1*
X633500Y1212000D2*
X642500D1*
X675500D2*
X681500D1*
X900500D2*
X912500D1*
X1041500D2*
X1053500D1*
X1182500D2*
X1194500D1*
X1410500D2*
X1416500D1*
X1449500D2*
X1458500D1*
X633500Y1209000D2*
X642500D1*
X675500D2*
X681500D1*
X900500D2*
X912500D1*
X1041500D2*
X1053500D1*
X1182500D2*
X1194500D1*
X1410500D2*
X1416500D1*
X1449500D2*
X1458500D1*
X633500Y1206000D2*
X642500D1*
X675500D2*
X681500D1*
X900500D2*
X912500D1*
X1041500D2*
X1053500D1*
X1182500D2*
X1194500D1*
X1410500D2*
X1416500D1*
X1449500D2*
X1458500D1*
X633500Y1203000D2*
X642500D1*
X675500D2*
X681500D1*
X900500D2*
X912500D1*
X1041500D2*
X1053500D1*
X1182500D2*
X1194500D1*
X1410500D2*
X1416500D1*
X1449500D2*
X1458500D1*
X633500Y1200000D2*
X642500D1*
X675500D2*
X681500D1*
X900500D2*
X912500D1*
X1041500D2*
X1053500D1*
X1182500D2*
X1194500D1*
X1410500D2*
X1416500D1*
X1449500D2*
X1458500D1*
X633500Y1197000D2*
X642500D1*
X675500D2*
X681500D1*
X900500D2*
X912500D1*
X1041500D2*
X1053500D1*
X1182500D2*
X1194500D1*
X1410500D2*
X1416500D1*
X1449500D2*
X1458500D1*
X633500Y1194000D2*
X642500D1*
X675500D2*
X681500D1*
X900500D2*
X975500D1*
X1041500D2*
X1053500D1*
X1119500D2*
X1194500D1*
X1410500D2*
X1416500D1*
X1449500D2*
X1458500D1*
X633500Y1191000D2*
X642500D1*
X675500D2*
X681500D1*
X900500D2*
X975500D1*
X1041500D2*
X1053500D1*
X1119500D2*
X1194500D1*
X1410500D2*
X1416500D1*
X1449500D2*
X1458500D1*
X633500Y1188000D2*
X642500D1*
X675500D2*
X681500D1*
X900500D2*
X975500D1*
X1041500D2*
X1053500D1*
X1119500D2*
X1194500D1*
X1410500D2*
X1416500D1*
X1449500D2*
X1458500D1*
X633500Y1185000D2*
X642500D1*
X675500D2*
X681500D1*
X900500D2*
X975500D1*
X1041500D2*
X1053500D1*
X1119500D2*
X1194500D1*
X1410500D2*
X1416500D1*
X1449500D2*
X1458500D1*
X633500Y1182000D2*
X642500D1*
X675500D2*
X681500D1*
X900500D2*
X975500D1*
X1041500D2*
X1053500D1*
X1119500D2*
X1194500D1*
X1410500D2*
X1416500D1*
X1449500D2*
X1458500D1*
X633500Y1179000D2*
X642500D1*
X675500D2*
X681500D1*
X963500D2*
X975500D1*
X1041500D2*
X1053500D1*
X1119500D2*
X1131500D1*
X1410500D2*
X1416500D1*
X1449500D2*
X1458500D1*
X633500Y1176000D2*
X642500D1*
X675500D2*
X681500D1*
X690500D2*
X825500D1*
X963500D2*
X975500D1*
X1041500D2*
X1053500D1*
X1119500D2*
X1131500D1*
X1410500D2*
X1416500D1*
X1449500D2*
X1458500D1*
X633500Y1173000D2*
X642500D1*
X675500D2*
X681500D1*
X690500D2*
X825500D1*
X963500D2*
X975500D1*
X1041500D2*
X1053500D1*
X1119500D2*
X1131500D1*
X1410500D2*
X1416500D1*
X1449500D2*
X1458500D1*
X633500Y1170000D2*
X642500D1*
X675500D2*
X681500D1*
X690500D2*
X825500D1*
X963500D2*
X975500D1*
X1041500D2*
X1053500D1*
X1119500D2*
X1131500D1*
X1410500D2*
X1416500D1*
X1449500D2*
X1458500D1*
X1542500D2*
X1545500D1*
X543500Y1167000D2*
X546500D1*
X633500D2*
X642500D1*
X675500D2*
X681500D1*
X690500D2*
X825500D1*
X963500D2*
X975500D1*
X1041500D2*
X1053500D1*
X1119500D2*
X1131500D1*
X1263500D2*
X1398500D1*
X1410500D2*
X1416500D1*
X1449500D2*
X1458500D1*
X1538463D2*
X1549526D1*
X539115Y1164000D2*
X550537D1*
X633500D2*
X642500D1*
X675500D2*
X681500D1*
X690500D2*
X825500D1*
X963500D2*
X975500D1*
X1041500D2*
X1053500D1*
X1119500D2*
X1131500D1*
X1263500D2*
X1398500D1*
X1410500D2*
X1416500D1*
X1449500D2*
X1458500D1*
X1534464D2*
X1553418D1*
X535254Y1161000D2*
X554545D1*
X633500D2*
X642500D1*
X675500D2*
X681500D1*
X690500D2*
X825500D1*
X963500D2*
X975500D1*
X1041500D2*
X1053500D1*
X1119500D2*
X1131500D1*
X1263500D2*
X1398500D1*
X1410500D2*
X1416500D1*
X1449500D2*
X1458500D1*
X1530511D2*
X1556975D1*
X531829Y1158000D2*
X558579D1*
X591500D2*
D3*
X633500D2*
X642500D1*
X675500D2*
X681500D1*
X690500D2*
X825500D1*
X963500D2*
X975500D1*
X1041500D2*
X1053500D1*
X1119500D2*
X1131500D1*
X1263500D2*
X1398500D1*
X1410500D2*
X1416500D1*
X1449500D2*
X1458500D1*
X1526473D2*
X1560152D1*
X528753Y1155000D2*
X562914D1*
X585500D2*
X591500D1*
X633500D2*
X642500D1*
X675500D2*
X681500D1*
X690500D2*
X825500D1*
X963500D2*
X975500D1*
X1041500D2*
X1053500D1*
X1119500D2*
X1131500D1*
X1263500D2*
X1398500D1*
X1410500D2*
X1416500D1*
X1449500D2*
X1458500D1*
X1503500D2*
X1506500D1*
X1522442D2*
X1562773D1*
X526186Y1152000D2*
X567500D1*
X579500D2*
X591500D1*
X633500D2*
X642500D1*
X675500D2*
X681500D1*
X690500D2*
X867500D1*
X963500D2*
X975500D1*
X1041500D2*
X1053500D1*
X1119500D2*
X1131500D1*
X1263500D2*
X1398500D1*
X1410500D2*
X1416500D1*
X1449500D2*
X1458500D1*
X1503500D2*
X1512500D1*
X1518500D2*
X1564870D1*
X524120Y1149000D2*
X591500D1*
X633500D2*
X642500D1*
X675500D2*
X681500D1*
X690500D2*
X867500D1*
X963500D2*
X975500D1*
X1041500D2*
X1053500D1*
X1119500D2*
X1131500D1*
X1263500D2*
X1398500D1*
X1410500D2*
X1416500D1*
X1449500D2*
X1458500D1*
X1503500D2*
X1565502D1*
X523494Y1146000D2*
X591500D1*
X633500D2*
X642500D1*
X675500D2*
X681500D1*
X690500D2*
X867500D1*
X963500D2*
X975500D1*
X1041500D2*
X1053500D1*
X1119500D2*
X1131500D1*
X1263500D2*
X1398500D1*
X1410500D2*
X1416500D1*
X1449500D2*
X1458500D1*
X1503500D2*
X1564895D1*
X524104Y1143000D2*
X591500D1*
X633500D2*
X642500D1*
X675500D2*
X681500D1*
X690500D2*
X867500D1*
X963500D2*
X975500D1*
X1041500D2*
X1053500D1*
X1119500D2*
X1131500D1*
X1224500D2*
X1398500D1*
X1410500D2*
X1416500D1*
X1449500D2*
X1458500D1*
X1503500D2*
X1563785D1*
X525215Y1140000D2*
X591500D1*
X633500D2*
X642500D1*
X675500D2*
X681500D1*
X690500D2*
X867500D1*
X963500D2*
X975500D1*
X1041500D2*
X1053500D1*
X1119500D2*
X1131500D1*
X1224500D2*
X1398500D1*
X1410500D2*
X1416500D1*
X1449500D2*
X1458500D1*
X1503500D2*
X1562217D1*
X526783Y1137000D2*
X591500D1*
X633500D2*
X642500D1*
X675500D2*
X681500D1*
X690500D2*
X825500D1*
X855500D2*
X867500D1*
X963500D2*
X975500D1*
X1041500D2*
X1053500D1*
X1119500D2*
X1131500D1*
X1224500D2*
X1398500D1*
X1410500D2*
X1416500D1*
X1449500D2*
X1458500D1*
X1503500D2*
X1560373D1*
X528627Y1134000D2*
X591500D1*
X633500D2*
X642500D1*
X675500D2*
X681500D1*
X690500D2*
X825500D1*
X855500D2*
X867500D1*
X963500D2*
X975500D1*
X1041500D2*
X1053500D1*
X1119500D2*
X1131500D1*
X1224500D2*
X1398500D1*
X1410500D2*
X1416500D1*
X1449500D2*
X1458500D1*
X1503500D2*
X1558570D1*
X530430Y1131000D2*
X591500D1*
X633500D2*
X642500D1*
X675500D2*
X681500D1*
X690500D2*
X825500D1*
X855500D2*
X867500D1*
X963500D2*
X975500D1*
X1041500D2*
X1053500D1*
X1119500D2*
X1131500D1*
X1224500D2*
X1236500D1*
X1263500D2*
X1398500D1*
X1410500D2*
X1416500D1*
X1449500D2*
X1458500D1*
X1503500D2*
X1556895D1*
X532114Y1128000D2*
X591500D1*
X633500D2*
X642500D1*
X675500D2*
X681500D1*
X690500D2*
X825500D1*
X855500D2*
X867500D1*
X921500D2*
X1167500D1*
X1224500D2*
X1236500D1*
X1263500D2*
X1398500D1*
X1410500D2*
X1416500D1*
X1449500D2*
X1458500D1*
X1503500D2*
X1555331D1*
X533780Y1125000D2*
X591500D1*
X633500D2*
X642500D1*
X675500D2*
X681500D1*
X690500D2*
X825500D1*
X855500D2*
X867500D1*
X921500D2*
X1167500D1*
X1224500D2*
X1236500D1*
X1263500D2*
X1398500D1*
X1410500D2*
X1416500D1*
X1449500D2*
X1458500D1*
X1503500D2*
X1554020D1*
X535568Y1122000D2*
X591488D1*
X633500D2*
X642500D1*
X675500D2*
X681500D1*
X690500D2*
X825500D1*
X855500D2*
X867500D1*
X921500D2*
X1167500D1*
X1224500D2*
X1236500D1*
X1263500D2*
X1398500D1*
X1410500D2*
X1416500D1*
X1449500D2*
X1458500D1*
X1503500D2*
X1553022D1*
X537500Y1119000D2*
X591359D1*
X633500D2*
X642500D1*
X675500D2*
X681500D1*
X690500D2*
X825500D1*
X855500D2*
X867500D1*
X921500D2*
X1167500D1*
X1224500D2*
X1236500D1*
X1263500D2*
X1398500D1*
X1410500D2*
X1416500D1*
X1449500D2*
X1458500D1*
X1503523D2*
X1553728D1*
X535526Y1116000D2*
X591043D1*
X633500D2*
X642500D1*
X675500D2*
X681500D1*
X690500D2*
X825500D1*
X855500D2*
X867500D1*
X921500D2*
X1167500D1*
X1224500D2*
X1236500D1*
X1263500D2*
X1398500D1*
X1410500D2*
X1416500D1*
X1449500D2*
X1458500D1*
X1503734D2*
X1555060D1*
X533430Y1113000D2*
X589226D1*
X633500D2*
X642500D1*
X675500D2*
X681500D1*
X855500D2*
X867500D1*
X921500D2*
X1167500D1*
X1224500D2*
X1236500D1*
X1263500D2*
X1398500D1*
X1410500D2*
X1416500D1*
X1449500D2*
X1458500D1*
X1504227D2*
X1556718D1*
X531113Y1110000D2*
X586466D1*
X633500D2*
X642500D1*
X675500D2*
X681500D1*
X855500D2*
X867500D1*
X921500D2*
X1167500D1*
X1224500D2*
X1236500D1*
X1263500D2*
X1398500D1*
X1410500D2*
X1416500D1*
X1449500D2*
X1458500D1*
X1506006D2*
X1558680D1*
X528871Y1107000D2*
X583173D1*
X633500D2*
X642500D1*
X675500D2*
X681500D1*
X855500D2*
X867500D1*
X921500D2*
X1167500D1*
X1224500D2*
X1236500D1*
X1410500D2*
X1416500D1*
X1449500D2*
X1458500D1*
X1508202D2*
X1561048D1*
X486500Y1104000D2*
X489500D1*
X527035D2*
X579858D1*
X633500D2*
X642500D1*
X675500D2*
X681500D1*
X855500D2*
X867500D1*
X921500D2*
X1167500D1*
X1224500D2*
X1236500D1*
X1410500D2*
X1416500D1*
X1449500D2*
X1458500D1*
X1510851D2*
X1563714D1*
X1587500D2*
X1602500D1*
X485011Y1101000D2*
X504500D1*
X525500D2*
X576663D1*
X633500D2*
X642500D1*
X675500D2*
X681500D1*
X855500D2*
X867500D1*
X921500D2*
X1167500D1*
X1224500D2*
X1236500D1*
X1410500D2*
X1416500D1*
X1449500D2*
X1458500D1*
X1514011D2*
X1566500D1*
X1572500D2*
X1604360D1*
X483362Y1098000D2*
X573567D1*
X633500D2*
X642500D1*
X675500D2*
X681500D1*
X855500D2*
X867500D1*
X921500D2*
X1167500D1*
X1224500D2*
X1236500D1*
X1410500D2*
X1416500D1*
X1449500D2*
X1458500D1*
X1517163D2*
X1606071D1*
X481912Y1095000D2*
X570537D1*
X633500D2*
X642500D1*
X675500D2*
X681500D1*
X855500D2*
X867500D1*
X921500D2*
X1167500D1*
X1224500D2*
X1236500D1*
X1410500D2*
X1416500D1*
X1449500D2*
X1458500D1*
X1519862D2*
X1607666D1*
X480698Y1092000D2*
X567627D1*
X633500D2*
X642500D1*
X675500D2*
X681500D1*
X855500D2*
X1167500D1*
X1224500D2*
X1236500D1*
X1410500D2*
X1416500D1*
X1449500D2*
X1458500D1*
X1522327D2*
X1609115D1*
X479463Y1089000D2*
X565003D1*
X633500D2*
X642500D1*
X675500D2*
X681500D1*
X855500D2*
X1167500D1*
X1224500D2*
X1236500D1*
X1410500D2*
X1416500D1*
X1449500D2*
X1458500D1*
X1524903D2*
X1610347D1*
X478141Y1086000D2*
X562719D1*
X633500D2*
X642500D1*
X675500D2*
X681500D1*
X855500D2*
X1167500D1*
X1224500D2*
X1236500D1*
X1410500D2*
X1416500D1*
X1449500D2*
X1458500D1*
X1527566D2*
X1611386D1*
X476943Y1083000D2*
X560499D1*
X633500D2*
X642500D1*
X675500D2*
X681500D1*
X855500D2*
X1236500D1*
X1410500D2*
X1416500D1*
X1449500D2*
X1458500D1*
X1530074D2*
X1612223D1*
X476005Y1080000D2*
X558128D1*
X633500D2*
X642500D1*
X675500D2*
X681500D1*
X855500D2*
X1236500D1*
X1410500D2*
X1416500D1*
X1449500D2*
X1458500D1*
X1532298D2*
X1612730D1*
X476564Y1077000D2*
X555800D1*
X633500D2*
X642500D1*
X675500D2*
X681500D1*
X921500D2*
X1236500D1*
X1410500D2*
X1416500D1*
X1449500D2*
X1458500D1*
X1534406D2*
X1611317D1*
X478958Y1074000D2*
X553751D1*
X633500D2*
X642500D1*
X675500D2*
X681500D1*
X921500D2*
X1236500D1*
X1410500D2*
X1416500D1*
X1449500D2*
X1458500D1*
X1536482D2*
X1608075D1*
X482140Y1071000D2*
X551967D1*
X633500D2*
X642500D1*
X675500D2*
X681500D1*
X921500D2*
X1236500D1*
X1410500D2*
X1416500D1*
X1449500D2*
X1458500D1*
X1538366D2*
X1604255D1*
X485765Y1068000D2*
X550334D1*
X633500D2*
X642500D1*
X675500D2*
X681500D1*
X921500D2*
X1167500D1*
X1410500D2*
X1416500D1*
X1449500D2*
X1458500D1*
X1539981D2*
X1600079D1*
X489557Y1065000D2*
X548783D1*
X633500D2*
X642500D1*
X675500D2*
X681500D1*
X921500D2*
X1167500D1*
X1410500D2*
X1416500D1*
X1449500D2*
X1458500D1*
X1541292D2*
X1595926D1*
X493399Y1062000D2*
X547260D1*
X633500D2*
X642500D1*
X675500D2*
X681500D1*
X921500D2*
X1167500D1*
X1410500D2*
X1416500D1*
X1449500D2*
X1458500D1*
X1542400D2*
X1592364D1*
X496782Y1059000D2*
X545755D1*
X633500D2*
X642500D1*
X675500D2*
X681500D1*
X921500D2*
X1167500D1*
X1410500D2*
X1416500D1*
X1449500D2*
X1458500D1*
X1543579D2*
X1589518D1*
X499521Y1056000D2*
X544262D1*
X633500D2*
X642500D1*
X675500D2*
X681500D1*
X921500D2*
X1167500D1*
X1410500D2*
X1416500D1*
X1449500D2*
X1458500D1*
X1544887D2*
X1588476D1*
X500529Y1053000D2*
X542857D1*
X633500D2*
X642500D1*
X675500D2*
X681500D1*
X921500D2*
X1167500D1*
X1410500D2*
X1416500D1*
X1449500D2*
X1458500D1*
X1546203D2*
X1587926D1*
X500975Y1050000D2*
X541643D1*
X633500D2*
X642500D1*
X675500D2*
X681500D1*
X921500D2*
X1167500D1*
X1410500D2*
X1416500D1*
X1449500D2*
X1458500D1*
X1547380D2*
X1587779D1*
X500841Y1047000D2*
X540587D1*
X633500D2*
X642500D1*
X675500D2*
X681500D1*
X921500D2*
X1167500D1*
X1410500D2*
X1416500D1*
X1449500D2*
X1458500D1*
X1548421D2*
X1588059D1*
X500223Y1044000D2*
X539529D1*
X633500D2*
X642500D1*
X675500D2*
X681500D1*
X921500D2*
X1167500D1*
X1410500D2*
X1416500D1*
X1449500D2*
X1458500D1*
X1549474D2*
X1588762D1*
X499457Y1041000D2*
X538598D1*
X633500D2*
X642500D1*
X675500D2*
X681500D1*
X693500D2*
X828500D1*
X921500D2*
X1167500D1*
X1410500D2*
X1416500D1*
X1449500D2*
X1458500D1*
X1550403D2*
X1589787D1*
X498561Y1038000D2*
X537908D1*
X633500D2*
X642500D1*
X675500D2*
X681500D1*
X692115D2*
X828500D1*
X921500D2*
X1167500D1*
X1410500D2*
X1416500D1*
X1449500D2*
X1458500D1*
X1551092D2*
X1591065D1*
X497279Y1035000D2*
X537225D1*
X633500D2*
X642500D1*
X675500D2*
X681500D1*
X691254D2*
X828500D1*
X921500D2*
X1167500D1*
X1410500D2*
X1416500D1*
X1449500D2*
X1458500D1*
X1551776D2*
X1595661D1*
X491782Y1032000D2*
X536370D1*
X633500D2*
X642500D1*
X675500D2*
X681500D1*
X690818D2*
X828500D1*
X921500D2*
X1167500D1*
X1263500D2*
X1398500D1*
X1410500D2*
X1416500D1*
X1449500D2*
X1458500D1*
X1552630D2*
X1602941D1*
X483813Y1029000D2*
X535546D1*
X633500D2*
X642500D1*
X675500D2*
X681500D1*
X690624D2*
X828500D1*
X921500D2*
X1167500D1*
X1263500D2*
X1398500D1*
X1410500D2*
X1416500D1*
X1449500D2*
X1458500D1*
X1553454D2*
X1611506D1*
X475415Y1026000D2*
X535001D1*
X633500D2*
X642500D1*
X675500D2*
X681500D1*
X690546D2*
X828500D1*
X921500D2*
X1167500D1*
X1263500D2*
X1398500D1*
X1410500D2*
X1416500D1*
X1449500D2*
X1458500D1*
X1553999D2*
X1618552D1*
X468146Y1023000D2*
X534715D1*
X633500D2*
X642500D1*
X675500D2*
X681500D1*
X690516D2*
X828500D1*
X921500D2*
X1167500D1*
X1263500D2*
X1398500D1*
X1410500D2*
X1416500D1*
X1449500D2*
X1458500D1*
X1554285D2*
X1623649D1*
X464760Y1020000D2*
X534585D1*
X633500D2*
X642500D1*
X675500D2*
X681500D1*
X690506D2*
X828500D1*
X921500D2*
X1167500D1*
X1263500D2*
X1398500D1*
X1410500D2*
X1416500D1*
X1449500D2*
X1458500D1*
X1554415D2*
X1625165D1*
X463551Y1017000D2*
X534532D1*
X633500D2*
X642500D1*
X675500D2*
X681500D1*
X690502D2*
X1167500D1*
X1263500D2*
X1398500D1*
X1410500D2*
X1416500D1*
X1449500D2*
X1458500D1*
X1554468D2*
X1625951D1*
X462930Y1014000D2*
X534511D1*
X633500D2*
X642500D1*
X675500D2*
X681500D1*
X690501D2*
X1167500D1*
X1263500D2*
X1398500D1*
X1410500D2*
X1416500D1*
X1449500D2*
X1458500D1*
X1554489D2*
X1626291D1*
X462662Y1011000D2*
X534504D1*
X633500D2*
X642500D1*
X675500D2*
X681500D1*
X690500D2*
X1167500D1*
X1263500D2*
X1398500D1*
X1410500D2*
X1416500D1*
X1449500D2*
X1458500D1*
X1554496D2*
X1626425D1*
X462558Y1008000D2*
X534501D1*
X633500D2*
X642500D1*
X675500D2*
X681500D1*
X690500D2*
X1398500D1*
X1410500D2*
X1416500D1*
X1449500D2*
X1458500D1*
X1554499D2*
X1626474D1*
X462520Y1005000D2*
X534500D1*
X633500D2*
X642500D1*
X675500D2*
X681500D1*
X690500D2*
X1398500D1*
X1410500D2*
X1416500D1*
X1449500D2*
X1458500D1*
X1554500D2*
X1626456D1*
X462542Y1002000D2*
X534500D1*
X633500D2*
X642500D1*
X675500D2*
X681500D1*
X690500D2*
X828500D1*
X921500D2*
X1398500D1*
X1410500D2*
X1416500D1*
X1449500D2*
X1458500D1*
X1554488D2*
X1626358D1*
X462641Y999000D2*
X534500D1*
X633500D2*
X642500D1*
X675500D2*
X681500D1*
X690500D2*
X828500D1*
X921500D2*
X1398500D1*
X1410500D2*
X1416500D1*
X1449500D2*
X1458500D1*
X1554383D2*
X1625222D1*
X463824Y996000D2*
X534512D1*
X633500D2*
X642500D1*
X675500D2*
X681500D1*
X690500D2*
X828500D1*
X921500D2*
X1398500D1*
X1410500D2*
X1416500D1*
X1449500D2*
X1458500D1*
X1554000D2*
X1620449D1*
X468919Y993000D2*
X534617D1*
X633500D2*
X642500D1*
X675500D2*
X681500D1*
X690500D2*
X828500D1*
X921500D2*
X1167500D1*
X1263500D2*
X1398500D1*
X1410500D2*
X1416500D1*
X1449500D2*
X1458500D1*
X1553282D2*
X1613216D1*
X476499Y990000D2*
X535000D1*
X633500D2*
X642500D1*
X675500D2*
X681500D1*
X690500D2*
X828500D1*
X921500D2*
X1167500D1*
X1263500D2*
X1398500D1*
X1410500D2*
X1416500D1*
X1449500D2*
X1458500D1*
X1552501D2*
X1604942D1*
X484827Y987000D2*
X535718D1*
X633500D2*
X642500D1*
X675500D2*
X681500D1*
X690500D2*
X828500D1*
X921500D2*
X1167500D1*
X1263500D2*
X1398500D1*
X1410500D2*
X1416500D1*
X1449500D2*
X1458500D1*
X1551872D2*
X1598148D1*
X491364Y984000D2*
X536499D1*
X633500D2*
X642500D1*
X675500D2*
X681500D1*
X690500D2*
X828500D1*
X921500D2*
X1167500D1*
X1263500D2*
X1398500D1*
X1410500D2*
X1416500D1*
X1449500D2*
X1458500D1*
X1551212D2*
X1593204D1*
X495995Y981000D2*
X537128D1*
X633500D2*
X642500D1*
X675500D2*
X681500D1*
X690500D2*
X828500D1*
X921500D2*
X1167500D1*
X1263500D2*
X1398500D1*
X1410500D2*
X1416500D1*
X1449500D2*
X1458500D1*
X1550366D2*
X1591307D1*
X497444Y978000D2*
X537788D1*
X633500D2*
X642500D1*
X675500D2*
X681500D1*
X921500D2*
X1167500D1*
X1263500D2*
X1398500D1*
X1410500D2*
X1416500D1*
X1449500D2*
X1458500D1*
X1549533D2*
X1589817D1*
X498519Y975000D2*
X538646D1*
X633500D2*
X642500D1*
X675500D2*
X681500D1*
X921500D2*
X1167500D1*
X1263500D2*
X1398500D1*
X1410500D2*
X1416500D1*
X1449500D2*
X1458500D1*
X1548884D2*
X1588704D1*
X499536Y972000D2*
X539573D1*
X633500D2*
X642500D1*
X675500D2*
X681500D1*
X921500D2*
X1167500D1*
X1263500D2*
X1398500D1*
X1410500D2*
X1416500D1*
X1449500D2*
X1458500D1*
X1548204D2*
X1587936D1*
X500410Y969000D2*
X540510D1*
X633500D2*
X642500D1*
X675500D2*
X681500D1*
X921500D2*
X1167500D1*
X1410500D2*
X1416500D1*
X1449500D2*
X1458500D1*
X1547250D2*
X1587146D1*
X500859Y966000D2*
X541620D1*
X633500D2*
X642500D1*
X675500D2*
X681500D1*
X921500D2*
X1167500D1*
X1410500D2*
X1416500D1*
X1449500D2*
X1458500D1*
X1546033D2*
X1585971D1*
X500935Y963000D2*
X542913D1*
X633500D2*
X642500D1*
X675500D2*
X681500D1*
X921500D2*
X1167500D1*
X1410500D2*
X1416500D1*
X1449500D2*
X1458500D1*
X1544666D2*
X1584500D1*
X499523Y960000D2*
X544314D1*
X633500D2*
X642500D1*
X675500D2*
X681500D1*
X921500D2*
X1167500D1*
X1410500D2*
X1416500D1*
X1449500D2*
X1458500D1*
X1543217D2*
X1588999D1*
X497141Y957000D2*
X545776D1*
X633500D2*
X642500D1*
X675500D2*
X681500D1*
X921500D2*
X1167500D1*
X1410500D2*
X1416500D1*
X1449500D2*
X1458500D1*
X1541740D2*
X1593257D1*
X493814Y954000D2*
X547258D1*
X633500D2*
X642500D1*
X675500D2*
X681500D1*
X921500D2*
X1167500D1*
X1410500D2*
X1416500D1*
X1449500D2*
X1458500D1*
X1540245D2*
X1597517D1*
X489878Y951000D2*
X548754D1*
X633500D2*
X642500D1*
X675500D2*
X681500D1*
X921500D2*
X1167500D1*
X1410500D2*
X1416500D1*
X1449500D2*
X1458500D1*
X1538738D2*
X1601851D1*
X485734Y948000D2*
X550262D1*
X633500D2*
X642500D1*
X675500D2*
X681500D1*
X921500D2*
X1167500D1*
X1410500D2*
X1416500D1*
X1449500D2*
X1458500D1*
X1537131D2*
X1606042D1*
X481847Y945000D2*
X551869D1*
X633500D2*
X642500D1*
X675500D2*
X681500D1*
X921500D2*
X1167500D1*
X1410500D2*
X1416500D1*
X1449500D2*
X1458500D1*
X1535252D2*
X1609514D1*
X478813Y942000D2*
X553748D1*
X633500D2*
X642500D1*
X675500D2*
X681500D1*
X855500D2*
X1167500D1*
X1410500D2*
X1416500D1*
X1449500D2*
X1458500D1*
X1533031D2*
X1612119D1*
X476596Y939000D2*
X555969D1*
X633500D2*
X642500D1*
X675500D2*
X681500D1*
X855500D2*
X1167500D1*
X1410500D2*
X1416500D1*
X1449500D2*
X1458500D1*
X1530752D2*
X1612500D1*
X476389Y936000D2*
X558248D1*
X633500D2*
X642500D1*
X675500D2*
X681500D1*
X855500D2*
X1167500D1*
X1410500D2*
X1416500D1*
X1449500D2*
X1458500D1*
X1528621D2*
X1611677D1*
X477272Y933000D2*
X560379D1*
X633500D2*
X642500D1*
X675500D2*
X681500D1*
X855500D2*
X1236500D1*
X1410500D2*
X1416500D1*
X1449500D2*
X1458500D1*
X1526451D2*
X1610617D1*
X478362Y930000D2*
X562549D1*
X633500D2*
X642500D1*
X675500D2*
X681500D1*
X855500D2*
X1236500D1*
X1410500D2*
X1416500D1*
X1449500D2*
X1458500D1*
X1523998D2*
X1609541D1*
X479452Y927000D2*
X565002D1*
X633500D2*
X642500D1*
X675500D2*
X681500D1*
X855500D2*
X867500D1*
X921500D2*
X1236500D1*
X1410500D2*
X1416500D1*
X1449500D2*
X1458500D1*
X1521284D2*
X1608437D1*
X480560Y924000D2*
X567716D1*
X633500D2*
X642500D1*
X675500D2*
X681500D1*
X855500D2*
X867500D1*
X921500D2*
X1236500D1*
X1410500D2*
X1416500D1*
X1449500D2*
X1458500D1*
X1518414D2*
X1607016D1*
X481983Y921000D2*
X570586D1*
X633500D2*
X642500D1*
X675500D2*
X681500D1*
X855500D2*
X867500D1*
X921500D2*
X1236500D1*
X1410500D2*
X1416500D1*
X1449500D2*
X1458500D1*
X1515468D2*
X1605352D1*
X483648Y918000D2*
X573544D1*
X633500D2*
X642500D1*
X675500D2*
X681500D1*
X855500D2*
X867500D1*
X921500D2*
X1167500D1*
X1224500D2*
X1236500D1*
X1410500D2*
X1416500D1*
X1449500D2*
X1458500D1*
X1512500D2*
X1562910D1*
X1581500D2*
X1603830D1*
X485170Y915000D2*
X507500D1*
X526090D2*
X576629D1*
X633500D2*
X642500D1*
X675500D2*
X681500D1*
X855500D2*
X867500D1*
X921500D2*
X1167500D1*
X1224500D2*
X1236500D1*
X1410500D2*
X1416500D1*
X1449500D2*
X1458500D1*
X1509625D2*
X1561677D1*
X1593500D2*
X1602500D1*
X486500Y912000D2*
X492500D1*
X527323D2*
X579992D1*
X633500D2*
X642500D1*
X675500D2*
X681500D1*
X855500D2*
X867500D1*
X921500D2*
X1167500D1*
X1224500D2*
X1236500D1*
X1410500D2*
X1416500D1*
X1449500D2*
X1458500D1*
X1507127D2*
X1559787D1*
X529213Y909000D2*
X583590D1*
X633500D2*
X642500D1*
X675500D2*
X681500D1*
X855500D2*
X867500D1*
X921500D2*
X1167500D1*
X1224500D2*
X1236500D1*
X1410500D2*
X1416500D1*
X1449500D2*
X1458500D1*
X1505346D2*
X1557668D1*
X531341Y906000D2*
X586859D1*
X633500D2*
X642500D1*
X675500D2*
X681500D1*
X855500D2*
X867500D1*
X921500D2*
X1167500D1*
X1224500D2*
X1236500D1*
X1410500D2*
X1416500D1*
X1449500D2*
X1458500D1*
X1504333D2*
X1555726D1*
X533387Y903000D2*
X589538D1*
X633500D2*
X642500D1*
X675500D2*
X681500D1*
X693500D2*
X828500D1*
X855500D2*
X867500D1*
X921500D2*
X1167500D1*
X1224500D2*
X1236500D1*
X1410500D2*
X1416500D1*
X1449500D2*
X1458500D1*
X1503844D2*
X1554184D1*
X535407Y900000D2*
X590549D1*
X633500D2*
X642500D1*
X675500D2*
X681500D1*
X693500D2*
X828500D1*
X855500D2*
X867500D1*
X921500D2*
X1167500D1*
X1224500D2*
X1236500D1*
X1410500D2*
X1416500D1*
X1449500D2*
X1458500D1*
X1503633D2*
X1553022D1*
X537500Y897000D2*
X591095D1*
X633500D2*
X642500D1*
X675500D2*
X681500D1*
X693500D2*
X828500D1*
X855500D2*
X867500D1*
X921500D2*
X1167500D1*
X1224500D2*
X1236500D1*
X1410500D2*
X1416500D1*
X1449500D2*
X1458500D1*
X1503549D2*
X1553381D1*
X535640Y894000D2*
X591342D1*
X633500D2*
X642500D1*
X675500D2*
X681500D1*
X693500D2*
X828500D1*
X855500D2*
X867500D1*
X921500D2*
X1167500D1*
X1224500D2*
X1236500D1*
X1266500D2*
X1401500D1*
X1410500D2*
X1416500D1*
X1449500D2*
X1458500D1*
X1503517D2*
X1554341D1*
X533917Y891000D2*
X591442D1*
X633500D2*
X642500D1*
X675500D2*
X681500D1*
X693500D2*
X828500D1*
X855500D2*
X867500D1*
X921500D2*
X1167500D1*
X1224500D2*
X1236500D1*
X1266500D2*
X1401500D1*
X1410500D2*
X1416500D1*
X1449500D2*
X1458500D1*
X1503506D2*
X1555835D1*
X532217Y888000D2*
X591479D1*
X633500D2*
X642500D1*
X675500D2*
X681500D1*
X693500D2*
X828500D1*
X855500D2*
X867500D1*
X963500D2*
X975500D1*
X1041500D2*
X1053500D1*
X1119500D2*
X1131500D1*
X1224500D2*
X1236500D1*
X1266500D2*
X1401500D1*
X1410500D2*
X1416500D1*
X1449500D2*
X1458500D1*
X1503502D2*
X1557647D1*
X530385Y885000D2*
X591493D1*
X633500D2*
X642500D1*
X675500D2*
X681500D1*
X693500D2*
X828500D1*
X855500D2*
X867500D1*
X963500D2*
X975500D1*
X1041500D2*
X1053500D1*
X1119500D2*
X1131500D1*
X1224500D2*
X1236500D1*
X1266500D2*
X1401500D1*
X1410500D2*
X1416500D1*
X1449500D2*
X1458500D1*
X1503501D2*
X1559437D1*
X528435Y882000D2*
X591498D1*
X633500D2*
X642500D1*
X675500D2*
X681500D1*
X693500D2*
X828500D1*
X855500D2*
X867500D1*
X963500D2*
X975500D1*
X1041500D2*
X1053500D1*
X1119500D2*
X1131500D1*
X1224500D2*
X1236500D1*
X1266500D2*
X1401500D1*
X1410500D2*
X1416500D1*
X1449500D2*
X1458500D1*
X1503500D2*
X1561107D1*
X526603Y879000D2*
X591499D1*
X633500D2*
X642500D1*
X675500D2*
X681500D1*
X693500D2*
X867500D1*
X963500D2*
X975500D1*
X1041500D2*
X1053500D1*
X1119500D2*
X1131500D1*
X1224500D2*
X1236500D1*
X1266500D2*
X1401500D1*
X1410500D2*
X1416500D1*
X1449500D2*
X1458500D1*
X1503500D2*
X1562670D1*
X525032Y876000D2*
X591500D1*
X633500D2*
X642500D1*
X675500D2*
X681500D1*
X693500D2*
X867500D1*
X963500D2*
X975500D1*
X1041500D2*
X1053500D1*
X1119500D2*
X1131500D1*
X1224500D2*
X1236500D1*
X1266500D2*
X1401500D1*
X1410500D2*
X1416500D1*
X1449500D2*
X1458500D1*
X1503500D2*
X1563992D1*
X523950Y873000D2*
X591500D1*
X633500D2*
X642500D1*
X675500D2*
X681500D1*
X693500D2*
X867500D1*
X963500D2*
X975500D1*
X1041500D2*
X1053500D1*
X1119500D2*
X1131500D1*
X1224500D2*
X1401500D1*
X1410500D2*
X1416500D1*
X1449500D2*
X1458500D1*
X1503500D2*
X1565025D1*
X523381Y870000D2*
X591500D1*
X633500D2*
X642500D1*
X675500D2*
X681500D1*
X693500D2*
X867500D1*
X963500D2*
X975500D1*
X1041500D2*
X1053500D1*
X1119500D2*
X1131500D1*
X1224500D2*
X1401500D1*
X1410500D2*
X1416500D1*
X1449500D2*
X1458500D1*
X1503500D2*
X1564793D1*
X524513Y867000D2*
X570386D1*
X577089D2*
X591500D1*
X633500D2*
X642500D1*
X675500D2*
X681500D1*
X693500D2*
X867500D1*
X963500D2*
X975500D1*
X1041500D2*
X1053500D1*
X1119500D2*
X1131500D1*
X1224500D2*
X1401500D1*
X1410500D2*
X1416500D1*
X1449500D2*
X1458500D1*
X1503500D2*
X1509500D1*
X1521614D2*
X1563223D1*
X526411Y864000D2*
X566990D1*
X581324D2*
X591500D1*
X633500D2*
X642500D1*
X675500D2*
X681500D1*
X693500D2*
X828500D1*
X963500D2*
X975500D1*
X1041500D2*
X1053500D1*
X1119500D2*
X1131500D1*
X1224500D2*
X1401500D1*
X1410500D2*
X1416500D1*
X1449500D2*
X1458500D1*
X1503500D2*
X1506500D1*
X1524999D2*
X1560850D1*
X528875Y861000D2*
X563165D1*
X586250D2*
X591500D1*
X633500D2*
X642500D1*
X675500D2*
X681500D1*
X693500D2*
X828500D1*
X963500D2*
X975500D1*
X1041500D2*
X1053500D1*
X1119500D2*
X1131500D1*
X1224500D2*
X1401500D1*
X1410500D2*
X1416500D1*
X1449500D2*
X1458500D1*
X1528718D2*
X1557860D1*
X531644Y858000D2*
X559011D1*
X591500D2*
D3*
X633500D2*
X642500D1*
X675500D2*
X681500D1*
X693500D2*
X828500D1*
X963500D2*
X975500D1*
X1041500D2*
X1053500D1*
X1119500D2*
X1131500D1*
X1266500D2*
X1401500D1*
X1410500D2*
X1416500D1*
X1449500D2*
X1458500D1*
X1532495D2*
X1554717D1*
X534553Y855000D2*
X554742D1*
X633500D2*
X642500D1*
X675500D2*
X681500D1*
X693500D2*
X828500D1*
X963500D2*
X975500D1*
X1041500D2*
X1053500D1*
X1119500D2*
X1131500D1*
X1266500D2*
X1401500D1*
X1410500D2*
X1416500D1*
X1449500D2*
X1458500D1*
X1536064D2*
X1551595D1*
X537518Y852000D2*
X550555D1*
X633500D2*
X642500D1*
X675500D2*
X681500D1*
X693500D2*
X828500D1*
X963500D2*
X975500D1*
X1041500D2*
X1053500D1*
X1119500D2*
X1131500D1*
X1266500D2*
X1401500D1*
X1410500D2*
X1416500D1*
X1449500D2*
X1458500D1*
X1539500D2*
X1548500D1*
X540500Y849000D2*
X546500D1*
X633500D2*
X642500D1*
X675500D2*
X681500D1*
X693500D2*
X828500D1*
X963500D2*
X975500D1*
X1041500D2*
X1053500D1*
X1119500D2*
X1131500D1*
X1266500D2*
X1401500D1*
X1410500D2*
X1416500D1*
X1449500D2*
X1458500D1*
X633500Y846000D2*
X642500D1*
X675500D2*
X681500D1*
X693500D2*
X828500D1*
X963500D2*
X975500D1*
X1041500D2*
X1053500D1*
X1119500D2*
X1131500D1*
X1266500D2*
X1401500D1*
X1410500D2*
X1416500D1*
X1449500D2*
X1458500D1*
X633500Y843000D2*
X642500D1*
X675500D2*
X681500D1*
X693500D2*
X828500D1*
X963500D2*
X975500D1*
X1041500D2*
X1053500D1*
X1119500D2*
X1131500D1*
X1266500D2*
X1401500D1*
X1410500D2*
X1416500D1*
X1449500D2*
X1458500D1*
X633500Y840000D2*
X642500D1*
X675500D2*
X681500D1*
X963500D2*
X975500D1*
X1041500D2*
X1053500D1*
X1119500D2*
X1131500D1*
X1266500D2*
X1401500D1*
X1410500D2*
X1416500D1*
X1449500D2*
X1458500D1*
X633500Y837000D2*
X642500D1*
X675500D2*
X681500D1*
X900500D2*
X975500D1*
X1041500D2*
X1053500D1*
X1119500D2*
X1194500D1*
X1266500D2*
X1401500D1*
X1410500D2*
X1416500D1*
X1449500D2*
X1458500D1*
X633500Y834000D2*
X642500D1*
X675500D2*
X681500D1*
X900500D2*
X975500D1*
X1041500D2*
X1053500D1*
X1119500D2*
X1194500D1*
X1410500D2*
X1416500D1*
X1449500D2*
X1458500D1*
X633500Y831000D2*
X642500D1*
X675500D2*
X681500D1*
X900500D2*
X975500D1*
X1041500D2*
X1053500D1*
X1119500D2*
X1194500D1*
X1410500D2*
X1416500D1*
X1449500D2*
X1458500D1*
X633500Y828000D2*
X642500D1*
X675500D2*
X681500D1*
X900500D2*
X975500D1*
X1041500D2*
X1053500D1*
X1119500D2*
X1194500D1*
X1410500D2*
X1416500D1*
X1449500D2*
X1458500D1*
X633500Y825000D2*
X642500D1*
X675500D2*
X681500D1*
X900500D2*
X975500D1*
X1041500D2*
X1053500D1*
X1119500D2*
X1194500D1*
X1410500D2*
X1416500D1*
X1449500D2*
X1458500D1*
X633500Y822000D2*
X642500D1*
X675500D2*
X681500D1*
X900500D2*
X912500D1*
X1041500D2*
X1053500D1*
X1182500D2*
X1194500D1*
X1410500D2*
X1416500D1*
X1449500D2*
X1458500D1*
X633500Y819000D2*
X642500D1*
X675500D2*
X681500D1*
X900500D2*
X912500D1*
X1041500D2*
X1053500D1*
X1182500D2*
X1194500D1*
X1410500D2*
X1416500D1*
X1449500D2*
X1458500D1*
X633500Y816000D2*
X642500D1*
X675500D2*
X681500D1*
X900500D2*
X912500D1*
X1041500D2*
X1053500D1*
X1182500D2*
X1194500D1*
X1410500D2*
X1416500D1*
X1449500D2*
X1458500D1*
X633500Y813000D2*
X642500D1*
X675500D2*
X681500D1*
X900500D2*
X912500D1*
X1041500D2*
X1053500D1*
X1182500D2*
X1194500D1*
X1410500D2*
X1416500D1*
X1449500D2*
X1458500D1*
X633500Y810000D2*
X642500D1*
X675500D2*
X681500D1*
X900500D2*
X912500D1*
X1041500D2*
X1053500D1*
X1182500D2*
X1194500D1*
X1410500D2*
X1416500D1*
X1449500D2*
X1458500D1*
X633500Y807000D2*
X642500D1*
X675500D2*
X681500D1*
X900500D2*
X912500D1*
X1041500D2*
X1053500D1*
X1182500D2*
X1194500D1*
X1410500D2*
X1416500D1*
X1449500D2*
X1458500D1*
X633500Y804000D2*
X642500D1*
X675500D2*
X681500D1*
X900500D2*
X912500D1*
X1041500D2*
X1053500D1*
X1182500D2*
X1194500D1*
X1410500D2*
X1416500D1*
X1449500D2*
X1458500D1*
X633500Y801000D2*
X828500D1*
X900500D2*
X912500D1*
X1041500D2*
X1053500D1*
X1182500D2*
X1194500D1*
X1263500D2*
X1458500D1*
X633500Y798000D2*
X828500D1*
X873500D2*
X936500D1*
X1014500D2*
X1077500D1*
X1155500D2*
X1218500D1*
X1263500D2*
X1458500D1*
X633500Y795000D2*
X828500D1*
X873500D2*
X936500D1*
X1014500D2*
X1077500D1*
X1155500D2*
X1218500D1*
X1263500D2*
X1458500D1*
X633500Y792000D2*
X828500D1*
X873500D2*
X936500D1*
X1014500D2*
X1077500D1*
X1155500D2*
X1218500D1*
X1263500D2*
X1458500D1*
X633500Y789000D2*
X828500D1*
X873500D2*
X936500D1*
X1014500D2*
X1077500D1*
X1155500D2*
X1218500D1*
X1263500D2*
X1458500D1*
X633500Y786000D2*
X828500D1*
X873500D2*
X936500D1*
X1014500D2*
X1077500D1*
X1155500D2*
X1218500D1*
X1263500D2*
X1458500D1*
X633500Y783000D2*
X828500D1*
X873500D2*
X936500D1*
X1014500D2*
X1077500D1*
X1155500D2*
X1218500D1*
X1263500D2*
X1458500D1*
X633500Y780000D2*
X828500D1*
X873500D2*
X936500D1*
X1014500D2*
X1077500D1*
X1155500D2*
X1218500D1*
X1263500D2*
X1458500D1*
X633500Y777000D2*
X828500D1*
X873500D2*
X936500D1*
X1014500D2*
X1077500D1*
X1155500D2*
X1218500D1*
X1263500D2*
X1458500D1*
X633500Y774000D2*
X828500D1*
X873500D2*
X936500D1*
X1014500D2*
X1077500D1*
X1155500D2*
X1218500D1*
X1263500D2*
X1458500D1*
X633500Y771000D2*
X828500D1*
X873500D2*
X936500D1*
X1014500D2*
X1077500D1*
X1155500D2*
X1218500D1*
X1263500D2*
X1458500D1*
X633500Y768000D2*
X828500D1*
X873500D2*
X936500D1*
X1014500D2*
X1077500D1*
X1155500D2*
X1218500D1*
X1263500D2*
X1458500D1*
X633500Y765000D2*
X828500D1*
X873500D2*
X936500D1*
X1014500D2*
X1077500D1*
X1155500D2*
X1218500D1*
X1263500D2*
X1458500D1*
X633500Y762000D2*
X828500D1*
X873500D2*
X936500D1*
X1014500D2*
X1077500D1*
X1155500D2*
X1218500D1*
X1263500D2*
X1458500D1*
X633500Y759000D2*
X828500D1*
X873500D2*
X936500D1*
X1014500D2*
X1077500D1*
X1155500D2*
X1218500D1*
X1263500D2*
X1458500D1*
X633500Y756000D2*
X828500D1*
X873500D2*
X936500D1*
X1014500D2*
X1077500D1*
X1155500D2*
X1218500D1*
X1263500D2*
X1458500D1*
X633500Y753000D2*
X828500D1*
X873500D2*
X936500D1*
X1014500D2*
X1077500D1*
X1155500D2*
X1218500D1*
X1263500D2*
X1458500D1*
X633500Y750000D2*
X828500D1*
X873500D2*
X936500D1*
X1014500D2*
X1077500D1*
X1155500D2*
X1218500D1*
X1263500D2*
X1458500D1*
X633500Y747000D2*
X828500D1*
X873500D2*
X936500D1*
X1014500D2*
X1077500D1*
X1155500D2*
X1218500D1*
X1263500D2*
X1458500D1*
X633500Y744000D2*
X828500D1*
X873500D2*
X936500D1*
X1014500D2*
X1077500D1*
X1155500D2*
X1218500D1*
X1263500D2*
X1458500D1*
X633500Y741000D2*
X828500D1*
X873500D2*
X936500D1*
X1014500D2*
X1077500D1*
X1155500D2*
X1218500D1*
X1263500D2*
X1458500D1*
X633500Y738000D2*
X828500D1*
X873500D2*
X936500D1*
X1014500D2*
X1077500D1*
X1155500D2*
X1218500D1*
X1263500D2*
X1458500D1*
X633500Y735000D2*
X828500D1*
X873500D2*
X936500D1*
X1014500D2*
X1077500D1*
X1155500D2*
X1218500D1*
X1263500D2*
X1458500D1*
X633500Y732000D2*
X828500D1*
X873500D2*
X936500D1*
X1014500D2*
X1077500D1*
X1155500D2*
X1218500D1*
X1263500D2*
X1458500D1*
X633500Y729000D2*
X828500D1*
X873500D2*
X936500D1*
X1014500D2*
X1077500D1*
X1155500D2*
X1218500D1*
X1263500D2*
X1458500D1*
X633500Y726000D2*
X828500D1*
X873500D2*
X936500D1*
X1014500D2*
X1077500D1*
X1155500D2*
X1218500D1*
X1263500D2*
X1458500D1*
X633500Y723000D2*
X828500D1*
X873500D2*
X936500D1*
X1014500D2*
X1077500D1*
X1155500D2*
X1218500D1*
X1263500D2*
X1458500D1*
X633500Y720000D2*
X828500D1*
X873500D2*
X936500D1*
X1014500D2*
X1077500D1*
X1155500D2*
X1218500D1*
X1263500D2*
X1458500D1*
X633500Y717000D2*
X828500D1*
X873500D2*
X936500D1*
X1014500D2*
X1077500D1*
X1155500D2*
X1218500D1*
X1263500D2*
X1458500D1*
X633500Y714000D2*
X828500D1*
X873500D2*
X936500D1*
X1014500D2*
X1077500D1*
X1155500D2*
X1218500D1*
X1263500D2*
X1458500D1*
X633500Y711000D2*
X828500D1*
X873500D2*
X936500D1*
X1014500D2*
X1077500D1*
X1155500D2*
X1218500D1*
X1263500D2*
X1458500D1*
X633500Y708000D2*
X828500D1*
X873500D2*
X936500D1*
X1014500D2*
X1077500D1*
X1155500D2*
X1218500D1*
X1263500D2*
X1458500D1*
X633500Y705000D2*
X828500D1*
X873500D2*
X936500D1*
X1014500D2*
X1077500D1*
X1155500D2*
X1218500D1*
X1263500D2*
X1458500D1*
X633500Y702000D2*
X828500D1*
X873500D2*
X936500D1*
X1014500D2*
X1077500D1*
X1155500D2*
X1218500D1*
X1263500D2*
X1458500D1*
X633500Y699000D2*
X828500D1*
X873500D2*
X936500D1*
X1014500D2*
X1077500D1*
X1155500D2*
X1218500D1*
X1263500D2*
X1458500D1*
X633500Y696000D2*
X828500D1*
X873500D2*
X936500D1*
X1014500D2*
X1077500D1*
X1155500D2*
X1218500D1*
X1263500D2*
X1458500D1*
X633500Y693000D2*
X828500D1*
X873500D2*
X936500D1*
X1014500D2*
X1077500D1*
X1155500D2*
X1218500D1*
X1263500D2*
X1458500D1*
X633500Y690000D2*
X828500D1*
X873500D2*
X936500D1*
X1014500D2*
X1077500D1*
X1155500D2*
X1218500D1*
X1263500D2*
X1458500D1*
X633500Y687000D2*
X828500D1*
X873500D2*
X936500D1*
X1014500D2*
X1077500D1*
X1155500D2*
X1218500D1*
X1263500D2*
X1458500D1*
X633500Y684000D2*
X828500D1*
X873500D2*
X936500D1*
X1014500D2*
X1077500D1*
X1155500D2*
X1218500D1*
X1263500D2*
X1458500D1*
X633500Y681000D2*
X828500D1*
X873500D2*
X936500D1*
X1014500D2*
X1077500D1*
X1155500D2*
X1218500D1*
X1263500D2*
X1458500D1*
X633500Y678000D2*
X828500D1*
X873500D2*
X936500D1*
X1014500D2*
X1077500D1*
X1155500D2*
X1218500D1*
X1263500D2*
X1458500D1*
X633500Y675000D2*
X828500D1*
X873500D2*
X936500D1*
X1014500D2*
X1077500D1*
X1155500D2*
X1218500D1*
X1263500D2*
X1458500D1*
X633500Y672000D2*
X828500D1*
X873500D2*
X936500D1*
X1014500D2*
X1077500D1*
X1155500D2*
X1218500D1*
X1263500D2*
X1458500D1*
X633500Y669000D2*
X828500D1*
X873500D2*
X936500D1*
X1014500D2*
X1077500D1*
X1155500D2*
X1218500D1*
X1263500D2*
X1458500D1*
X633500Y666000D2*
X828500D1*
X1263500D2*
X1458500D1*
X633500Y663000D2*
X828500D1*
X1263500D2*
X1458500D1*
X633500Y660000D2*
X828500D1*
X1263500D2*
X1458500D1*
X633500Y657000D2*
X1458500D1*
X633500Y654000D2*
X1458500D1*
X633500Y651000D2*
X828500D1*
X1263500D2*
X1458500D1*
X633500Y648000D2*
X828500D1*
X1263500D2*
X1458500D1*
X633500Y645000D2*
X828500D1*
X1263500D2*
X1458500D1*
X633500Y642000D2*
X828500D1*
X1263500D2*
X1458500D1*
X633500Y639000D2*
X828500D1*
X1263500D2*
X1458500D1*
X633500Y636000D2*
X828500D1*
X1263500D2*
X1458500D1*
X633500Y633000D2*
X828500D1*
X1263500D2*
X1458500D1*
X633500Y630000D2*
X828500D1*
X1263500D2*
X1458500D1*
X633500Y627000D2*
X828500D1*
X1263500D2*
X1458500D1*
X633500Y624000D2*
X828500D1*
X1263500D2*
X1458500D1*
X633500Y621000D2*
X1458500D1*
X633500Y618000D2*
X1458500D1*
X633500Y615000D2*
X1458500D1*
X633500Y612000D2*
X1458500D1*
X897500Y576000D2*
X945500D1*
X1146500D2*
X1191500D1*
X898400Y573000D2*
X948512D1*
X1143386D2*
X1191614D1*
X899118Y570000D2*
X951617D1*
X1140001D2*
X1192010D1*
X898337Y567000D2*
X955011D1*
X1136270D2*
X1192847D1*
X896967Y564000D2*
X958835D1*
X1132396D2*
X1194116D1*
X895292Y561000D2*
X962998D1*
X1128478D2*
X1195857D1*
X893324Y558000D2*
X967357D1*
X1124364D2*
X1198111D1*
X890962Y555000D2*
X971904D1*
X1119957D2*
X1200643D1*
X888397Y552000D2*
X976784D1*
X1115057D2*
X1203090D1*
X886037Y549000D2*
X982220D1*
X1109378D2*
X1205179D1*
X884324Y546000D2*
X988412D1*
X1102862D2*
X1206780D1*
X883169Y543000D2*
X995821D1*
X1095407D2*
X1207971D1*
X883139Y540000D2*
X1005135D1*
X1086347D2*
X1207616D1*
X884396Y537000D2*
X1016675D1*
X1075082D2*
X1206646D1*
X886361Y534000D2*
X1029500D1*
X1062500D2*
X1205047D1*
X888856Y531000D2*
X924964D1*
X935922D2*
X1156078D1*
X1168090D2*
X1202842D1*
X891637Y528000D2*
X919708D1*
X940770D2*
X1151230D1*
X1172335D2*
X1200227D1*
X894550Y525000D2*
X914492D1*
X945029D2*
X1146960D1*
X1177327D2*
X1197395D1*
X897517Y522000D2*
X909063D1*
X948629D2*
X1143265D1*
X1182817D2*
X1194463D1*
X900500Y519000D2*
X903500D1*
X951556D2*
X1140127D1*
X1188500D2*
X1191500D1*
X952294Y516000D2*
X1138915D1*
X952036Y513000D2*
X1139177D1*
X951779Y510000D2*
X1139681D1*
X951518Y507000D2*
X1140097D1*
X951057Y504000D2*
X1140433D1*
X950304Y501000D2*
X1140925D1*
X949521Y498000D2*
X993614D1*
X1003027D2*
X1088870D1*
X1098036D2*
X1141690D1*
X949004Y495000D2*
X990999D1*
X1012649D2*
X1078969D1*
X1100293D2*
X1142465D1*
X948853Y492000D2*
X988730D1*
X1019788D2*
X1071421D1*
X1102504D2*
X1142866D1*
X949011Y489000D2*
X986604D1*
X1022751D2*
X1067989D1*
X1104873D2*
X1142891D1*
X950493Y486000D2*
X984510D1*
X1025013D2*
X1066669D1*
X1107212D2*
X1141472D1*
X954186Y483000D2*
X982507D1*
X1025795D2*
X1065875D1*
X1109366D2*
X1137798D1*
X959234Y480000D2*
X980411D1*
X1026314D2*
X1065190D1*
X1111536D2*
X1132760D1*
X965550Y477000D2*
X978034D1*
X1026881D2*
X1064351D1*
X1113947D2*
X1126448D1*
X972500Y474000D2*
X975500D1*
X1027675D2*
X1063537D1*
X1116500D2*
X1119500D1*
X1028472Y471000D2*
X1062998D1*
X1029008Y468000D2*
X1062713D1*
X1029305Y465000D2*
X1062579D1*
X1029500Y462000D2*
X1062500D1*
X1029500Y1563000D2*
X1029386Y1560000D1*
X1029001Y1557000D1*
X1028282Y1554000D1*
X1027513Y1551000D1*
X1026978Y1548000D1*
X1026594Y1545000D1*
X1026061Y1542000D1*
X1025021Y1539000D1*
X1023481Y1536000D1*
X1018700Y1533000D1*
X1011379Y1530000D1*
X1002500Y1527000D1*
X1062500Y1563000D2*
X1062512Y1560000D1*
X1062617Y1557000D1*
X1063000Y1554000D1*
X1063718Y1551000D1*
X1064487Y1548000D1*
X1065022Y1545000D1*
X1065429Y1542000D1*
X1065903Y1539000D1*
X1067597Y1536000D1*
X1072742Y1533000D1*
X1080368Y1530000D1*
X1089500Y1527000D1*
X969500Y1551000D2*
X962726Y1548000D1*
X956837Y1545000D1*
X952037Y1542000D1*
X949911Y1539000D1*
X949168Y1536000D1*
X948885Y1533000D1*
X949101Y1530000D1*
X949754Y1527000D1*
X950500Y1524000D1*
X951026Y1521000D1*
X951416Y1518000D1*
X952006Y1515000D1*
X953086Y1512000D1*
X954500Y1509000D1*
X951386Y1506000D1*
X947999Y1503000D1*
X944255Y1500000D1*
X940362Y1497000D1*
X936500Y1494000D1*
X975500Y1551000D2*
X978036Y1548000D1*
X980293Y1545000D1*
X982516Y1542000D1*
X984979Y1539000D1*
X987586Y1536000D1*
X989994Y1533000D1*
X991915Y1530000D1*
X993500Y1527000D1*
X1116500Y1551000D2*
X1113614Y1548000D1*
X1110999Y1545000D1*
X1108718Y1542000D1*
X1106499Y1539000D1*
X1104136Y1536000D1*
X1101879Y1533000D1*
X1100037Y1530000D1*
X1098500Y1527000D1*
X1122500Y1551000D2*
X1129274Y1548000D1*
X1135163Y1545000D1*
X1139963Y1542000D1*
X1142089Y1539000D1*
X1142730Y1536000D1*
X1142733Y1533000D1*
X1142181Y1530000D1*
X1141477Y1527000D1*
X1140965Y1524000D1*
X1140590Y1521000D1*
X1140083Y1518000D1*
X1139337Y1515000D1*
X1138770Y1512000D1*
X1138672Y1509000D1*
X1140779Y1506000D1*
X1143878Y1503000D1*
X1147626Y1500000D1*
X1151578Y1497000D1*
X1155500Y1494000D1*
X900500Y1506000D2*
X897500Y1503000D1*
X894500Y1500000D1*
X891512Y1497000D1*
X888629Y1494000D1*
X886140Y1491000D1*
X884111Y1488000D1*
X883539Y1485000D1*
X884470Y1482000D1*
X885941Y1479000D1*
X887656Y1476000D1*
X889544Y1473000D1*
X891544Y1470000D1*
X893500Y1467000D1*
X895463Y1464000D1*
X897278Y1461000D1*
X898730Y1458000D1*
X898510Y1455000D1*
X897713Y1452000D1*
X896530Y1449000D1*
X895083Y1446000D1*
X893385Y1443000D1*
X891500Y1440000D1*
X906500Y1506000D2*
X911474Y1503000D1*
X916573Y1500000D1*
X921958Y1497000D1*
X927500Y1494000D1*
X1185500Y1506000D2*
X1180526Y1503000D1*
X1175427Y1500000D1*
X1170042Y1497000D1*
X1164500Y1494000D1*
X1191500Y1506000D2*
X1194500Y1503000D1*
X1197500Y1500000D1*
X1200488Y1497000D1*
X1203371Y1494000D1*
X1205860Y1491000D1*
X1207889Y1488000D1*
X1208508Y1485000D1*
X1207897Y1482000D1*
X1206774Y1479000D1*
X1205100Y1476000D1*
X1202874Y1473000D1*
X1200352Y1470000D1*
X1197908Y1467000D1*
X1195809Y1464000D1*
X1194114Y1461000D1*
X1192712Y1458000D1*
X1192387Y1455000D1*
X1193401Y1452000D1*
X1194911Y1449000D1*
X1196629Y1446000D1*
X1198497Y1443000D1*
X1200500Y1440000D1*
X1038500Y1494000D2*
X1025155Y1491000D1*
X1013495Y1488000D1*
X1003668Y1485000D1*
X995160Y1482000D1*
X987680Y1479000D1*
X981217Y1476000D1*
X975729Y1473000D1*
X971000Y1470000D1*
X966724Y1467000D1*
X962579Y1464000D1*
X958627Y1461000D1*
X955031Y1458000D1*
X951726Y1455000D1*
X948589Y1452000D1*
X945533Y1449000D1*
X942512Y1446000D1*
X939504Y1443000D1*
X936500Y1440000D1*
X1056500Y1494000D2*
X1067899Y1491000D1*
X1078536Y1488000D1*
X1088041Y1485000D1*
X1096310Y1482000D1*
X1103522Y1479000D1*
X1109979Y1476000D1*
X1115734Y1473000D1*
X1120716Y1470000D1*
X1125147Y1467000D1*
X1129368Y1464000D1*
X1133352Y1461000D1*
X1136961Y1458000D1*
X1140271Y1455000D1*
X1143398Y1452000D1*
X1146341Y1449000D1*
X1148899Y1446000D1*
X1150881Y1443000D1*
X1152500Y1440000D1*
X633500Y1410000D2*
Y1407000D1*
Y1404000D1*
Y1401000D1*
Y1398000D1*
Y1395000D1*
Y1392000D1*
Y1389000D1*
Y1386000D1*
Y1383000D1*
Y1380000D1*
Y1377000D1*
Y1374000D1*
Y1371000D1*
Y1368000D1*
Y1365000D1*
Y1362000D1*
Y1359000D1*
Y1356000D1*
Y1353000D1*
Y1350000D1*
Y1347000D1*
Y1344000D1*
Y1341000D1*
Y1338000D1*
Y1335000D1*
Y1332000D1*
Y1329000D1*
Y1326000D1*
Y1323000D1*
Y1320000D1*
Y1317000D1*
Y1314000D1*
Y1311000D1*
Y1308000D1*
Y1305000D1*
Y1302000D1*
Y1299000D1*
Y1296000D1*
Y1293000D1*
Y1290000D1*
Y1287000D1*
Y1284000D1*
Y1281000D1*
Y1278000D1*
Y1275000D1*
Y1272000D1*
Y1269000D1*
Y1266000D1*
Y1263000D1*
Y1260000D1*
Y1257000D1*
Y1254000D1*
Y1251000D1*
Y1248000D1*
Y1245000D1*
Y1242000D1*
Y1239000D1*
Y1236000D1*
Y1233000D1*
Y1230000D1*
Y1227000D1*
Y1224000D1*
Y1221000D1*
Y1218000D1*
Y1215000D1*
Y1212000D1*
Y1209000D1*
Y1206000D1*
Y1203000D1*
Y1200000D1*
Y1197000D1*
Y1194000D1*
Y1191000D1*
Y1188000D1*
Y1185000D1*
Y1182000D1*
Y1179000D1*
Y1176000D1*
Y1173000D1*
Y1170000D1*
Y1167000D1*
Y1164000D1*
Y1161000D1*
Y1158000D1*
Y1155000D1*
Y1152000D1*
Y1149000D1*
Y1146000D1*
Y1143000D1*
Y1140000D1*
Y1137000D1*
Y1134000D1*
Y1131000D1*
Y1128000D1*
Y1125000D1*
Y1122000D1*
Y1119000D1*
Y1116000D1*
Y1113000D1*
Y1110000D1*
Y1107000D1*
Y1104000D1*
Y1101000D1*
Y1098000D1*
Y1095000D1*
Y1092000D1*
Y1089000D1*
Y1086000D1*
Y1083000D1*
Y1080000D1*
Y1077000D1*
Y1074000D1*
Y1071000D1*
Y1068000D1*
Y1065000D1*
Y1062000D1*
Y1059000D1*
Y1056000D1*
Y1053000D1*
Y1050000D1*
Y1047000D1*
Y1044000D1*
Y1041000D1*
Y1038000D1*
Y1035000D1*
Y1032000D1*
Y1029000D1*
Y1026000D1*
Y1023000D1*
Y1020000D1*
Y1017000D1*
Y1014000D1*
Y1011000D1*
Y1008000D1*
Y1005000D1*
Y1002000D1*
Y999000D1*
Y996000D1*
Y993000D1*
Y990000D1*
Y987000D1*
Y984000D1*
Y981000D1*
Y978000D1*
Y975000D1*
Y972000D1*
Y969000D1*
Y966000D1*
Y963000D1*
Y960000D1*
Y957000D1*
Y954000D1*
Y951000D1*
Y948000D1*
Y945000D1*
Y942000D1*
Y939000D1*
Y936000D1*
Y933000D1*
Y930000D1*
Y927000D1*
Y924000D1*
Y921000D1*
Y918000D1*
Y915000D1*
Y912000D1*
Y909000D1*
Y906000D1*
Y903000D1*
Y900000D1*
Y897000D1*
Y894000D1*
Y891000D1*
Y888000D1*
Y885000D1*
Y882000D1*
Y879000D1*
Y876000D1*
Y873000D1*
Y870000D1*
Y867000D1*
Y864000D1*
Y861000D1*
Y858000D1*
Y855000D1*
Y852000D1*
Y849000D1*
Y846000D1*
Y843000D1*
Y840000D1*
Y837000D1*
Y834000D1*
Y831000D1*
Y828000D1*
Y825000D1*
Y822000D1*
Y819000D1*
Y816000D1*
Y813000D1*
Y810000D1*
Y807000D1*
Y804000D1*
Y801000D1*
Y798000D1*
Y795000D1*
Y792000D1*
Y789000D1*
Y786000D1*
Y783000D1*
Y780000D1*
Y777000D1*
Y774000D1*
Y771000D1*
Y768000D1*
Y765000D1*
Y762000D1*
Y759000D1*
Y756000D1*
Y753000D1*
Y750000D1*
Y747000D1*
Y744000D1*
Y741000D1*
Y738000D1*
Y735000D1*
Y732000D1*
Y729000D1*
Y726000D1*
Y723000D1*
Y720000D1*
Y717000D1*
Y714000D1*
Y711000D1*
Y708000D1*
Y705000D1*
Y702000D1*
Y699000D1*
Y696000D1*
Y693000D1*
Y690000D1*
Y687000D1*
Y684000D1*
Y681000D1*
Y678000D1*
Y675000D1*
Y672000D1*
Y669000D1*
Y666000D1*
Y663000D1*
Y660000D1*
Y657000D1*
Y654000D1*
Y651000D1*
Y648000D1*
Y645000D1*
Y642000D1*
Y639000D1*
Y636000D1*
Y633000D1*
Y630000D1*
Y627000D1*
Y624000D1*
Y621000D1*
Y618000D1*
Y615000D1*
Y612000D1*
X1458500Y1410000D2*
Y1407000D1*
Y1404000D1*
Y1401000D1*
Y1398000D1*
Y1395000D1*
Y1392000D1*
Y1389000D1*
Y1386000D1*
Y1383000D1*
Y1380000D1*
Y1377000D1*
Y1374000D1*
Y1371000D1*
Y1368000D1*
Y1365000D1*
Y1362000D1*
Y1359000D1*
Y1356000D1*
Y1353000D1*
Y1350000D1*
Y1347000D1*
Y1344000D1*
Y1341000D1*
Y1338000D1*
Y1335000D1*
Y1332000D1*
Y1329000D1*
Y1326000D1*
Y1323000D1*
Y1320000D1*
Y1317000D1*
Y1314000D1*
Y1311000D1*
Y1308000D1*
Y1305000D1*
Y1302000D1*
Y1299000D1*
Y1296000D1*
Y1293000D1*
Y1290000D1*
Y1287000D1*
Y1284000D1*
Y1281000D1*
Y1278000D1*
Y1275000D1*
Y1272000D1*
Y1269000D1*
Y1266000D1*
Y1263000D1*
Y1260000D1*
Y1257000D1*
Y1254000D1*
Y1251000D1*
Y1248000D1*
Y1245000D1*
Y1242000D1*
Y1239000D1*
Y1236000D1*
Y1233000D1*
Y1230000D1*
Y1227000D1*
Y1224000D1*
Y1221000D1*
Y1218000D1*
Y1215000D1*
Y1212000D1*
Y1209000D1*
Y1206000D1*
Y1203000D1*
Y1200000D1*
Y1197000D1*
Y1194000D1*
Y1191000D1*
Y1188000D1*
Y1185000D1*
Y1182000D1*
Y1179000D1*
Y1176000D1*
Y1173000D1*
Y1170000D1*
Y1167000D1*
Y1164000D1*
Y1161000D1*
Y1158000D1*
Y1155000D1*
Y1152000D1*
Y1149000D1*
Y1146000D1*
Y1143000D1*
Y1140000D1*
Y1137000D1*
Y1134000D1*
Y1131000D1*
Y1128000D1*
Y1125000D1*
Y1122000D1*
Y1119000D1*
Y1116000D1*
Y1113000D1*
Y1110000D1*
Y1107000D1*
Y1104000D1*
Y1101000D1*
Y1098000D1*
Y1095000D1*
Y1092000D1*
Y1089000D1*
Y1086000D1*
Y1083000D1*
Y1080000D1*
Y1077000D1*
Y1074000D1*
Y1071000D1*
Y1068000D1*
Y1065000D1*
Y1062000D1*
Y1059000D1*
Y1056000D1*
Y1053000D1*
Y1050000D1*
Y1047000D1*
Y1044000D1*
Y1041000D1*
Y1038000D1*
Y1035000D1*
Y1032000D1*
Y1029000D1*
Y1026000D1*
Y1023000D1*
Y1020000D1*
Y1017000D1*
Y1014000D1*
Y1011000D1*
Y1008000D1*
Y1005000D1*
Y1002000D1*
Y999000D1*
Y996000D1*
Y993000D1*
Y990000D1*
Y987000D1*
Y984000D1*
Y981000D1*
Y978000D1*
Y975000D1*
Y972000D1*
Y969000D1*
Y966000D1*
Y963000D1*
Y960000D1*
Y957000D1*
Y954000D1*
Y951000D1*
Y948000D1*
Y945000D1*
Y942000D1*
Y939000D1*
Y936000D1*
Y933000D1*
Y930000D1*
Y927000D1*
Y924000D1*
Y921000D1*
Y918000D1*
Y915000D1*
Y912000D1*
Y909000D1*
Y906000D1*
Y903000D1*
Y900000D1*
Y897000D1*
Y894000D1*
Y891000D1*
Y888000D1*
Y885000D1*
Y882000D1*
Y879000D1*
Y876000D1*
Y873000D1*
Y870000D1*
Y867000D1*
Y864000D1*
Y861000D1*
Y858000D1*
Y855000D1*
Y852000D1*
Y849000D1*
Y846000D1*
Y843000D1*
Y840000D1*
Y837000D1*
Y834000D1*
Y831000D1*
Y828000D1*
Y825000D1*
Y822000D1*
Y819000D1*
Y816000D1*
Y813000D1*
Y810000D1*
Y807000D1*
Y804000D1*
Y801000D1*
Y798000D1*
Y795000D1*
Y792000D1*
Y789000D1*
Y786000D1*
Y783000D1*
Y780000D1*
Y777000D1*
Y774000D1*
Y771000D1*
Y768000D1*
Y765000D1*
Y762000D1*
Y759000D1*
Y756000D1*
Y753000D1*
Y750000D1*
Y747000D1*
Y744000D1*
Y741000D1*
Y738000D1*
Y735000D1*
Y732000D1*
Y729000D1*
Y726000D1*
Y723000D1*
Y720000D1*
Y717000D1*
Y714000D1*
Y711000D1*
Y708000D1*
Y705000D1*
Y702000D1*
Y699000D1*
Y696000D1*
Y693000D1*
Y690000D1*
Y687000D1*
Y684000D1*
Y681000D1*
Y678000D1*
Y675000D1*
Y672000D1*
Y669000D1*
Y666000D1*
Y663000D1*
Y660000D1*
Y657000D1*
Y654000D1*
Y651000D1*
Y648000D1*
Y645000D1*
Y642000D1*
Y639000D1*
Y636000D1*
Y633000D1*
Y630000D1*
Y627000D1*
Y624000D1*
Y621000D1*
Y618000D1*
Y615000D1*
Y612000D1*
X831500Y1398000D2*
Y1395000D1*
Y1392000D1*
Y1389000D1*
Y1386000D1*
Y1383000D1*
Y1380000D1*
Y1377000D1*
Y1374000D1*
Y1371000D1*
Y1368000D1*
X1263500Y1398000D2*
Y1395000D1*
Y1392000D1*
Y1389000D1*
Y1386000D1*
Y1383000D1*
Y1380000D1*
Y1377000D1*
Y1374000D1*
Y1371000D1*
Y1368000D1*
X828500Y1362000D2*
Y1359000D1*
Y1356000D1*
Y1353000D1*
Y1350000D1*
Y1347000D1*
Y1344000D1*
Y1341000D1*
Y1338000D1*
Y1335000D1*
Y1332000D1*
Y1329000D1*
Y1326000D1*
Y1323000D1*
Y1320000D1*
Y1317000D1*
Y1314000D1*
Y1311000D1*
Y1308000D1*
Y1305000D1*
Y1302000D1*
Y1299000D1*
Y1296000D1*
Y1293000D1*
Y1290000D1*
Y1287000D1*
Y1284000D1*
Y1281000D1*
Y1278000D1*
Y1275000D1*
Y1272000D1*
Y1269000D1*
Y1266000D1*
Y1263000D1*
Y1260000D1*
Y1257000D1*
Y1254000D1*
Y1251000D1*
Y1248000D1*
Y1245000D1*
Y1242000D1*
Y1239000D1*
Y1236000D1*
Y1233000D1*
Y1230000D1*
Y1227000D1*
Y1224000D1*
Y1221000D1*
X1263500Y1362000D2*
Y1359000D1*
Y1356000D1*
Y1353000D1*
Y1350000D1*
Y1347000D1*
Y1344000D1*
Y1341000D1*
Y1338000D1*
Y1335000D1*
Y1332000D1*
Y1329000D1*
Y1326000D1*
Y1323000D1*
Y1320000D1*
Y1317000D1*
Y1314000D1*
Y1311000D1*
Y1308000D1*
Y1305000D1*
Y1302000D1*
Y1299000D1*
Y1296000D1*
Y1293000D1*
Y1290000D1*
Y1287000D1*
Y1284000D1*
Y1281000D1*
Y1278000D1*
Y1275000D1*
Y1272000D1*
Y1269000D1*
Y1266000D1*
Y1263000D1*
Y1260000D1*
Y1257000D1*
Y1254000D1*
Y1251000D1*
Y1248000D1*
Y1245000D1*
Y1242000D1*
Y1239000D1*
Y1236000D1*
Y1233000D1*
Y1230000D1*
Y1227000D1*
Y1224000D1*
Y1221000D1*
X873500Y1353000D2*
Y1350000D1*
Y1347000D1*
Y1344000D1*
Y1341000D1*
Y1338000D1*
Y1335000D1*
Y1332000D1*
Y1329000D1*
Y1326000D1*
Y1323000D1*
Y1320000D1*
Y1317000D1*
Y1314000D1*
Y1311000D1*
Y1308000D1*
Y1305000D1*
Y1302000D1*
Y1299000D1*
Y1296000D1*
Y1293000D1*
Y1290000D1*
Y1287000D1*
Y1284000D1*
Y1281000D1*
Y1278000D1*
Y1275000D1*
Y1272000D1*
Y1269000D1*
Y1266000D1*
Y1263000D1*
Y1260000D1*
Y1257000D1*
Y1254000D1*
Y1251000D1*
Y1248000D1*
Y1245000D1*
Y1242000D1*
Y1239000D1*
Y1236000D1*
Y1233000D1*
Y1230000D1*
Y1227000D1*
Y1224000D1*
Y1221000D1*
Y1218000D1*
X900500D1*
Y1215000D1*
Y1212000D1*
Y1209000D1*
Y1206000D1*
Y1203000D1*
Y1200000D1*
Y1197000D1*
Y1194000D1*
Y1191000D1*
Y1188000D1*
Y1185000D1*
Y1182000D1*
X936500Y1353000D2*
Y1350000D1*
Y1347000D1*
Y1344000D1*
Y1341000D1*
Y1338000D1*
Y1335000D1*
Y1332000D1*
Y1329000D1*
Y1326000D1*
Y1323000D1*
Y1320000D1*
Y1317000D1*
Y1314000D1*
Y1311000D1*
Y1308000D1*
Y1305000D1*
Y1302000D1*
Y1299000D1*
Y1296000D1*
Y1293000D1*
Y1290000D1*
Y1287000D1*
Y1284000D1*
Y1281000D1*
Y1278000D1*
Y1275000D1*
Y1272000D1*
Y1269000D1*
Y1266000D1*
Y1263000D1*
Y1260000D1*
Y1257000D1*
Y1254000D1*
Y1251000D1*
Y1248000D1*
Y1245000D1*
Y1242000D1*
Y1239000D1*
Y1236000D1*
Y1233000D1*
Y1230000D1*
Y1227000D1*
Y1224000D1*
Y1221000D1*
Y1218000D1*
X912500D1*
Y1215000D1*
Y1212000D1*
Y1209000D1*
Y1206000D1*
Y1203000D1*
Y1200000D1*
Y1197000D1*
Y1194000D1*
X1014500Y1353000D2*
Y1350000D1*
Y1347000D1*
Y1344000D1*
Y1341000D1*
Y1338000D1*
Y1335000D1*
Y1332000D1*
Y1329000D1*
Y1326000D1*
Y1323000D1*
Y1320000D1*
Y1317000D1*
Y1314000D1*
Y1311000D1*
Y1308000D1*
Y1305000D1*
Y1302000D1*
Y1299000D1*
Y1296000D1*
Y1293000D1*
Y1290000D1*
Y1287000D1*
Y1284000D1*
Y1281000D1*
Y1278000D1*
Y1275000D1*
Y1272000D1*
Y1269000D1*
Y1266000D1*
Y1263000D1*
Y1260000D1*
Y1257000D1*
Y1254000D1*
Y1251000D1*
Y1248000D1*
Y1245000D1*
Y1242000D1*
Y1239000D1*
Y1236000D1*
Y1233000D1*
Y1230000D1*
Y1227000D1*
Y1224000D1*
Y1221000D1*
Y1218000D1*
X1041500D1*
Y1215000D1*
Y1212000D1*
Y1209000D1*
Y1206000D1*
Y1203000D1*
Y1200000D1*
Y1197000D1*
Y1194000D1*
Y1191000D1*
Y1188000D1*
Y1185000D1*
Y1182000D1*
Y1179000D1*
Y1176000D1*
Y1173000D1*
Y1170000D1*
Y1167000D1*
Y1164000D1*
Y1161000D1*
Y1158000D1*
Y1155000D1*
Y1152000D1*
Y1149000D1*
Y1146000D1*
Y1143000D1*
Y1140000D1*
Y1137000D1*
Y1134000D1*
Y1131000D1*
Y1128000D1*
X1077500Y1353000D2*
Y1350000D1*
Y1347000D1*
Y1344000D1*
Y1341000D1*
Y1338000D1*
Y1335000D1*
Y1332000D1*
Y1329000D1*
Y1326000D1*
Y1323000D1*
Y1320000D1*
Y1317000D1*
Y1314000D1*
Y1311000D1*
Y1308000D1*
Y1305000D1*
Y1302000D1*
Y1299000D1*
Y1296000D1*
Y1293000D1*
Y1290000D1*
Y1287000D1*
Y1284000D1*
Y1281000D1*
Y1278000D1*
Y1275000D1*
Y1272000D1*
Y1269000D1*
Y1266000D1*
Y1263000D1*
Y1260000D1*
Y1257000D1*
Y1254000D1*
Y1251000D1*
Y1248000D1*
Y1245000D1*
Y1242000D1*
Y1239000D1*
Y1236000D1*
Y1233000D1*
Y1230000D1*
Y1227000D1*
Y1224000D1*
Y1221000D1*
Y1218000D1*
X1053500D1*
Y1215000D1*
Y1212000D1*
Y1209000D1*
Y1206000D1*
Y1203000D1*
Y1200000D1*
Y1197000D1*
Y1194000D1*
Y1191000D1*
Y1188000D1*
Y1185000D1*
Y1182000D1*
Y1179000D1*
Y1176000D1*
Y1173000D1*
Y1170000D1*
Y1167000D1*
Y1164000D1*
Y1161000D1*
Y1158000D1*
Y1155000D1*
Y1152000D1*
Y1149000D1*
Y1146000D1*
Y1143000D1*
Y1140000D1*
Y1137000D1*
Y1134000D1*
Y1131000D1*
Y1128000D1*
X1155500Y1353000D2*
Y1350000D1*
Y1347000D1*
Y1344000D1*
Y1341000D1*
Y1338000D1*
Y1335000D1*
Y1332000D1*
Y1329000D1*
Y1326000D1*
Y1323000D1*
Y1320000D1*
Y1317000D1*
Y1314000D1*
Y1311000D1*
Y1308000D1*
Y1305000D1*
Y1302000D1*
Y1299000D1*
Y1296000D1*
Y1293000D1*
Y1290000D1*
Y1287000D1*
Y1284000D1*
Y1281000D1*
Y1278000D1*
Y1275000D1*
Y1272000D1*
Y1269000D1*
Y1266000D1*
Y1263000D1*
Y1260000D1*
Y1257000D1*
Y1254000D1*
Y1251000D1*
Y1248000D1*
Y1245000D1*
Y1242000D1*
Y1239000D1*
Y1236000D1*
Y1233000D1*
Y1230000D1*
Y1227000D1*
Y1224000D1*
Y1221000D1*
Y1218000D1*
X1182500D1*
Y1215000D1*
Y1212000D1*
Y1209000D1*
Y1206000D1*
Y1203000D1*
Y1200000D1*
Y1197000D1*
Y1194000D1*
X1218500Y1353000D2*
Y1350000D1*
Y1347000D1*
Y1344000D1*
Y1341000D1*
Y1338000D1*
Y1335000D1*
Y1332000D1*
Y1329000D1*
Y1326000D1*
Y1323000D1*
Y1320000D1*
Y1317000D1*
Y1314000D1*
Y1311000D1*
Y1308000D1*
Y1305000D1*
Y1302000D1*
Y1299000D1*
Y1296000D1*
Y1293000D1*
Y1290000D1*
Y1287000D1*
Y1284000D1*
Y1281000D1*
Y1278000D1*
Y1275000D1*
Y1272000D1*
Y1269000D1*
Y1266000D1*
Y1263000D1*
Y1260000D1*
Y1257000D1*
Y1254000D1*
Y1251000D1*
Y1248000D1*
Y1245000D1*
Y1242000D1*
Y1239000D1*
Y1236000D1*
Y1233000D1*
Y1230000D1*
Y1227000D1*
Y1224000D1*
Y1221000D1*
Y1218000D1*
X1194500D1*
Y1215000D1*
Y1212000D1*
Y1209000D1*
Y1206000D1*
Y1203000D1*
Y1200000D1*
Y1197000D1*
Y1194000D1*
Y1191000D1*
Y1188000D1*
Y1185000D1*
Y1182000D1*
X642500Y1221000D2*
Y1218000D1*
Y1215000D1*
Y1212000D1*
Y1209000D1*
Y1206000D1*
Y1203000D1*
Y1200000D1*
Y1197000D1*
Y1194000D1*
Y1191000D1*
Y1188000D1*
Y1185000D1*
Y1182000D1*
Y1179000D1*
Y1176000D1*
Y1173000D1*
Y1170000D1*
Y1167000D1*
Y1164000D1*
Y1161000D1*
Y1158000D1*
Y1155000D1*
Y1152000D1*
Y1149000D1*
Y1146000D1*
Y1143000D1*
Y1140000D1*
Y1137000D1*
Y1134000D1*
Y1131000D1*
Y1128000D1*
Y1125000D1*
Y1122000D1*
Y1119000D1*
Y1116000D1*
Y1113000D1*
Y1110000D1*
Y1107000D1*
Y1104000D1*
Y1101000D1*
Y1098000D1*
Y1095000D1*
Y1092000D1*
Y1089000D1*
Y1086000D1*
Y1083000D1*
Y1080000D1*
Y1077000D1*
Y1074000D1*
Y1071000D1*
Y1068000D1*
Y1065000D1*
Y1062000D1*
Y1059000D1*
Y1056000D1*
Y1053000D1*
Y1050000D1*
Y1047000D1*
Y1044000D1*
Y1041000D1*
Y1038000D1*
Y1035000D1*
Y1032000D1*
Y1029000D1*
Y1026000D1*
Y1023000D1*
Y1020000D1*
Y1017000D1*
Y1014000D1*
Y1011000D1*
Y1008000D1*
Y1005000D1*
Y1002000D1*
Y999000D1*
Y996000D1*
Y993000D1*
Y990000D1*
Y987000D1*
Y984000D1*
Y981000D1*
Y978000D1*
Y975000D1*
Y972000D1*
Y969000D1*
Y966000D1*
Y963000D1*
Y960000D1*
Y957000D1*
Y954000D1*
Y951000D1*
Y948000D1*
Y945000D1*
Y942000D1*
Y939000D1*
Y936000D1*
Y933000D1*
Y930000D1*
Y927000D1*
Y924000D1*
Y921000D1*
Y918000D1*
Y915000D1*
Y912000D1*
Y909000D1*
Y906000D1*
Y903000D1*
Y900000D1*
Y897000D1*
Y894000D1*
Y891000D1*
Y888000D1*
Y885000D1*
Y882000D1*
Y879000D1*
Y876000D1*
Y873000D1*
Y870000D1*
Y867000D1*
Y864000D1*
Y861000D1*
Y858000D1*
Y855000D1*
Y852000D1*
Y849000D1*
Y846000D1*
Y843000D1*
Y840000D1*
Y837000D1*
Y834000D1*
Y831000D1*
Y828000D1*
Y825000D1*
Y822000D1*
Y819000D1*
Y816000D1*
Y813000D1*
Y810000D1*
Y807000D1*
Y804000D1*
X675500Y1221000D2*
Y1218000D1*
Y1215000D1*
Y1212000D1*
Y1209000D1*
Y1206000D1*
Y1203000D1*
Y1200000D1*
Y1197000D1*
Y1194000D1*
Y1191000D1*
Y1188000D1*
Y1185000D1*
Y1182000D1*
Y1179000D1*
Y1176000D1*
Y1173000D1*
Y1170000D1*
Y1167000D1*
Y1164000D1*
Y1161000D1*
Y1158000D1*
Y1155000D1*
Y1152000D1*
Y1149000D1*
Y1146000D1*
Y1143000D1*
Y1140000D1*
Y1137000D1*
Y1134000D1*
Y1131000D1*
Y1128000D1*
Y1125000D1*
Y1122000D1*
Y1119000D1*
Y1116000D1*
Y1113000D1*
Y1110000D1*
Y1107000D1*
Y1104000D1*
Y1101000D1*
Y1098000D1*
Y1095000D1*
Y1092000D1*
Y1089000D1*
Y1086000D1*
Y1083000D1*
Y1080000D1*
Y1077000D1*
Y1074000D1*
Y1071000D1*
Y1068000D1*
Y1065000D1*
Y1062000D1*
Y1059000D1*
Y1056000D1*
Y1053000D1*
Y1050000D1*
Y1047000D1*
Y1044000D1*
Y1041000D1*
Y1038000D1*
Y1035000D1*
Y1032000D1*
Y1029000D1*
Y1026000D1*
Y1023000D1*
Y1020000D1*
Y1017000D1*
Y1014000D1*
Y1011000D1*
Y1008000D1*
Y1005000D1*
Y1002000D1*
Y999000D1*
Y996000D1*
Y993000D1*
Y990000D1*
Y987000D1*
Y984000D1*
Y981000D1*
Y978000D1*
Y975000D1*
Y972000D1*
Y969000D1*
Y966000D1*
Y963000D1*
Y960000D1*
Y957000D1*
Y954000D1*
Y951000D1*
Y948000D1*
Y945000D1*
Y942000D1*
Y939000D1*
Y936000D1*
Y933000D1*
Y930000D1*
Y927000D1*
Y924000D1*
Y921000D1*
Y918000D1*
Y915000D1*
Y912000D1*
Y909000D1*
Y906000D1*
Y903000D1*
Y900000D1*
Y897000D1*
Y894000D1*
Y891000D1*
Y888000D1*
Y885000D1*
Y882000D1*
Y879000D1*
Y876000D1*
Y873000D1*
Y870000D1*
Y867000D1*
Y864000D1*
Y861000D1*
Y858000D1*
Y855000D1*
Y852000D1*
Y849000D1*
Y846000D1*
Y843000D1*
Y840000D1*
Y837000D1*
Y834000D1*
Y831000D1*
Y828000D1*
Y825000D1*
Y822000D1*
Y819000D1*
Y816000D1*
Y813000D1*
Y810000D1*
Y807000D1*
Y804000D1*
X681500Y1221000D2*
Y1218000D1*
Y1215000D1*
Y1212000D1*
Y1209000D1*
Y1206000D1*
Y1203000D1*
Y1200000D1*
Y1197000D1*
Y1194000D1*
Y1191000D1*
Y1188000D1*
Y1185000D1*
Y1182000D1*
Y1179000D1*
Y1176000D1*
Y1173000D1*
Y1170000D1*
Y1167000D1*
Y1164000D1*
Y1161000D1*
Y1158000D1*
Y1155000D1*
Y1152000D1*
Y1149000D1*
Y1146000D1*
Y1143000D1*
Y1140000D1*
Y1137000D1*
Y1134000D1*
Y1131000D1*
Y1128000D1*
Y1125000D1*
Y1122000D1*
Y1119000D1*
Y1116000D1*
Y1113000D1*
Y1110000D1*
Y1107000D1*
Y1104000D1*
Y1101000D1*
Y1098000D1*
Y1095000D1*
Y1092000D1*
Y1089000D1*
Y1086000D1*
Y1083000D1*
Y1080000D1*
Y1077000D1*
Y1074000D1*
Y1071000D1*
Y1068000D1*
Y1065000D1*
Y1062000D1*
Y1059000D1*
Y1056000D1*
Y1053000D1*
Y1050000D1*
Y1047000D1*
Y1044000D1*
Y1041000D1*
Y1038000D1*
Y1035000D1*
Y1032000D1*
Y1029000D1*
Y1026000D1*
Y1023000D1*
Y1020000D1*
Y1017000D1*
Y1014000D1*
Y1011000D1*
Y1008000D1*
Y1005000D1*
Y1002000D1*
Y999000D1*
Y996000D1*
Y993000D1*
Y990000D1*
Y987000D1*
Y984000D1*
Y981000D1*
Y978000D1*
Y975000D1*
Y972000D1*
Y969000D1*
Y966000D1*
Y963000D1*
Y960000D1*
Y957000D1*
Y954000D1*
Y951000D1*
Y948000D1*
Y945000D1*
Y942000D1*
Y939000D1*
Y936000D1*
Y933000D1*
Y930000D1*
Y927000D1*
Y924000D1*
Y921000D1*
Y918000D1*
Y915000D1*
Y912000D1*
Y909000D1*
Y906000D1*
Y903000D1*
Y900000D1*
Y897000D1*
Y894000D1*
Y891000D1*
Y888000D1*
Y885000D1*
Y882000D1*
Y879000D1*
Y876000D1*
Y873000D1*
Y870000D1*
Y867000D1*
Y864000D1*
Y861000D1*
Y858000D1*
Y855000D1*
Y852000D1*
Y849000D1*
Y846000D1*
Y843000D1*
Y840000D1*
Y837000D1*
Y834000D1*
Y831000D1*
Y828000D1*
Y825000D1*
Y822000D1*
Y819000D1*
Y816000D1*
Y813000D1*
Y810000D1*
Y807000D1*
Y804000D1*
Y801000D1*
X1410500Y1221000D2*
Y1218000D1*
Y1215000D1*
Y1212000D1*
Y1209000D1*
Y1206000D1*
Y1203000D1*
Y1200000D1*
Y1197000D1*
Y1194000D1*
Y1191000D1*
Y1188000D1*
Y1185000D1*
Y1182000D1*
Y1179000D1*
Y1176000D1*
Y1173000D1*
Y1170000D1*
Y1167000D1*
Y1164000D1*
Y1161000D1*
Y1158000D1*
Y1155000D1*
Y1152000D1*
Y1149000D1*
Y1146000D1*
Y1143000D1*
Y1140000D1*
Y1137000D1*
Y1134000D1*
Y1131000D1*
Y1128000D1*
Y1125000D1*
Y1122000D1*
Y1119000D1*
Y1116000D1*
Y1113000D1*
Y1110000D1*
Y1107000D1*
Y1104000D1*
Y1101000D1*
Y1098000D1*
Y1095000D1*
Y1092000D1*
Y1089000D1*
Y1086000D1*
Y1083000D1*
Y1080000D1*
Y1077000D1*
Y1074000D1*
Y1071000D1*
Y1068000D1*
Y1065000D1*
Y1062000D1*
Y1059000D1*
Y1056000D1*
Y1053000D1*
Y1050000D1*
Y1047000D1*
Y1044000D1*
Y1041000D1*
Y1038000D1*
Y1035000D1*
Y1032000D1*
Y1029000D1*
Y1026000D1*
Y1023000D1*
Y1020000D1*
Y1017000D1*
Y1014000D1*
Y1011000D1*
Y1008000D1*
Y1005000D1*
Y1002000D1*
Y999000D1*
Y996000D1*
Y993000D1*
Y990000D1*
Y987000D1*
Y984000D1*
Y981000D1*
Y978000D1*
Y975000D1*
Y972000D1*
Y969000D1*
Y966000D1*
Y963000D1*
Y960000D1*
Y957000D1*
Y954000D1*
Y951000D1*
Y948000D1*
Y945000D1*
Y942000D1*
Y939000D1*
Y936000D1*
Y933000D1*
Y930000D1*
Y927000D1*
Y924000D1*
Y921000D1*
Y918000D1*
Y915000D1*
Y912000D1*
Y909000D1*
Y906000D1*
Y903000D1*
Y900000D1*
Y897000D1*
Y894000D1*
Y891000D1*
Y888000D1*
Y885000D1*
Y882000D1*
Y879000D1*
Y876000D1*
Y873000D1*
Y870000D1*
Y867000D1*
Y864000D1*
Y861000D1*
Y858000D1*
Y855000D1*
Y852000D1*
Y849000D1*
Y846000D1*
Y843000D1*
Y840000D1*
Y837000D1*
Y834000D1*
Y831000D1*
Y828000D1*
Y825000D1*
Y822000D1*
Y819000D1*
Y816000D1*
Y813000D1*
Y810000D1*
Y807000D1*
Y804000D1*
Y801000D1*
X1416500Y1221000D2*
Y1218000D1*
Y1215000D1*
Y1212000D1*
Y1209000D1*
Y1206000D1*
Y1203000D1*
Y1200000D1*
Y1197000D1*
Y1194000D1*
Y1191000D1*
Y1188000D1*
Y1185000D1*
Y1182000D1*
Y1179000D1*
Y1176000D1*
Y1173000D1*
Y1170000D1*
Y1167000D1*
Y1164000D1*
Y1161000D1*
Y1158000D1*
Y1155000D1*
Y1152000D1*
Y1149000D1*
Y1146000D1*
Y1143000D1*
Y1140000D1*
Y1137000D1*
Y1134000D1*
Y1131000D1*
Y1128000D1*
Y1125000D1*
Y1122000D1*
Y1119000D1*
Y1116000D1*
Y1113000D1*
Y1110000D1*
Y1107000D1*
Y1104000D1*
Y1101000D1*
Y1098000D1*
Y1095000D1*
Y1092000D1*
Y1089000D1*
Y1086000D1*
Y1083000D1*
Y1080000D1*
Y1077000D1*
Y1074000D1*
Y1071000D1*
Y1068000D1*
Y1065000D1*
Y1062000D1*
Y1059000D1*
Y1056000D1*
Y1053000D1*
Y1050000D1*
Y1047000D1*
Y1044000D1*
Y1041000D1*
Y1038000D1*
Y1035000D1*
Y1032000D1*
Y1029000D1*
Y1026000D1*
Y1023000D1*
Y1020000D1*
Y1017000D1*
Y1014000D1*
Y1011000D1*
Y1008000D1*
Y1005000D1*
Y1002000D1*
Y999000D1*
Y996000D1*
Y993000D1*
Y990000D1*
Y987000D1*
Y984000D1*
Y981000D1*
Y978000D1*
Y975000D1*
Y972000D1*
Y969000D1*
Y966000D1*
Y963000D1*
Y960000D1*
Y957000D1*
Y954000D1*
Y951000D1*
Y948000D1*
Y945000D1*
Y942000D1*
Y939000D1*
Y936000D1*
Y933000D1*
Y930000D1*
Y927000D1*
Y924000D1*
Y921000D1*
Y918000D1*
Y915000D1*
Y912000D1*
Y909000D1*
Y906000D1*
Y903000D1*
Y900000D1*
Y897000D1*
Y894000D1*
Y891000D1*
Y888000D1*
Y885000D1*
Y882000D1*
Y879000D1*
Y876000D1*
Y873000D1*
Y870000D1*
Y867000D1*
Y864000D1*
Y861000D1*
Y858000D1*
Y855000D1*
Y852000D1*
Y849000D1*
Y846000D1*
Y843000D1*
Y840000D1*
Y837000D1*
Y834000D1*
Y831000D1*
Y828000D1*
Y825000D1*
Y822000D1*
Y819000D1*
Y816000D1*
Y813000D1*
Y810000D1*
Y807000D1*
Y804000D1*
X1449500Y1221000D2*
Y1218000D1*
Y1215000D1*
Y1212000D1*
Y1209000D1*
Y1206000D1*
Y1203000D1*
Y1200000D1*
Y1197000D1*
Y1194000D1*
Y1191000D1*
Y1188000D1*
Y1185000D1*
Y1182000D1*
Y1179000D1*
Y1176000D1*
Y1173000D1*
Y1170000D1*
Y1167000D1*
Y1164000D1*
Y1161000D1*
Y1158000D1*
Y1155000D1*
Y1152000D1*
Y1149000D1*
Y1146000D1*
Y1143000D1*
Y1140000D1*
Y1137000D1*
Y1134000D1*
Y1131000D1*
Y1128000D1*
Y1125000D1*
Y1122000D1*
Y1119000D1*
Y1116000D1*
Y1113000D1*
Y1110000D1*
Y1107000D1*
Y1104000D1*
Y1101000D1*
Y1098000D1*
Y1095000D1*
Y1092000D1*
Y1089000D1*
Y1086000D1*
Y1083000D1*
Y1080000D1*
Y1077000D1*
Y1074000D1*
Y1071000D1*
Y1068000D1*
Y1065000D1*
Y1062000D1*
Y1059000D1*
Y1056000D1*
Y1053000D1*
Y1050000D1*
Y1047000D1*
Y1044000D1*
Y1041000D1*
Y1038000D1*
Y1035000D1*
Y1032000D1*
Y1029000D1*
Y1026000D1*
Y1023000D1*
Y1020000D1*
Y1017000D1*
Y1014000D1*
Y1011000D1*
Y1008000D1*
Y1005000D1*
Y1002000D1*
Y999000D1*
Y996000D1*
Y993000D1*
Y990000D1*
Y987000D1*
Y984000D1*
Y981000D1*
Y978000D1*
Y975000D1*
Y972000D1*
Y969000D1*
Y966000D1*
Y963000D1*
Y960000D1*
Y957000D1*
Y954000D1*
Y951000D1*
Y948000D1*
Y945000D1*
Y942000D1*
Y939000D1*
Y936000D1*
Y933000D1*
Y930000D1*
Y927000D1*
Y924000D1*
Y921000D1*
Y918000D1*
Y915000D1*
Y912000D1*
Y909000D1*
Y906000D1*
Y903000D1*
Y900000D1*
Y897000D1*
Y894000D1*
Y891000D1*
Y888000D1*
Y885000D1*
Y882000D1*
Y879000D1*
Y876000D1*
Y873000D1*
Y870000D1*
Y867000D1*
Y864000D1*
Y861000D1*
Y858000D1*
Y855000D1*
Y852000D1*
Y849000D1*
Y846000D1*
Y843000D1*
Y840000D1*
Y837000D1*
Y834000D1*
Y831000D1*
Y828000D1*
Y825000D1*
Y822000D1*
Y819000D1*
Y816000D1*
Y813000D1*
Y810000D1*
Y807000D1*
Y804000D1*
X975500Y1194000D2*
Y1191000D1*
Y1188000D1*
Y1185000D1*
Y1182000D1*
Y1179000D1*
Y1176000D1*
Y1173000D1*
Y1170000D1*
Y1167000D1*
Y1164000D1*
Y1161000D1*
Y1158000D1*
Y1155000D1*
Y1152000D1*
Y1149000D1*
Y1146000D1*
Y1143000D1*
Y1140000D1*
Y1137000D1*
Y1134000D1*
Y1131000D1*
Y1128000D1*
X1119500Y1194000D2*
Y1191000D1*
Y1188000D1*
Y1185000D1*
Y1182000D1*
Y1179000D1*
Y1176000D1*
Y1173000D1*
Y1170000D1*
Y1167000D1*
Y1164000D1*
Y1161000D1*
Y1158000D1*
Y1155000D1*
Y1152000D1*
Y1149000D1*
Y1146000D1*
Y1143000D1*
Y1140000D1*
Y1137000D1*
Y1134000D1*
Y1131000D1*
Y1128000D1*
X963500Y1182000D2*
Y1179000D1*
Y1176000D1*
Y1173000D1*
Y1170000D1*
Y1167000D1*
Y1164000D1*
Y1161000D1*
Y1158000D1*
Y1155000D1*
Y1152000D1*
Y1149000D1*
Y1146000D1*
Y1143000D1*
Y1140000D1*
Y1137000D1*
Y1134000D1*
Y1131000D1*
Y1128000D1*
X1131500Y1182000D2*
Y1179000D1*
Y1176000D1*
Y1173000D1*
Y1170000D1*
Y1167000D1*
Y1164000D1*
Y1161000D1*
Y1158000D1*
Y1155000D1*
Y1152000D1*
Y1149000D1*
Y1146000D1*
Y1143000D1*
Y1140000D1*
Y1137000D1*
Y1134000D1*
Y1131000D1*
Y1128000D1*
X690500Y1176000D2*
Y1173000D1*
Y1170000D1*
Y1167000D1*
Y1164000D1*
Y1161000D1*
Y1158000D1*
Y1155000D1*
Y1152000D1*
Y1149000D1*
Y1146000D1*
Y1143000D1*
Y1140000D1*
Y1137000D1*
Y1134000D1*
Y1131000D1*
Y1128000D1*
Y1125000D1*
Y1122000D1*
Y1119000D1*
Y1116000D1*
X825500Y1176000D2*
Y1173000D1*
Y1170000D1*
Y1167000D1*
Y1164000D1*
Y1161000D1*
Y1158000D1*
Y1155000D1*
Y1152000D1*
X1542500Y1170000D2*
X1538463Y1167000D1*
X1534464Y1164000D1*
X1530511Y1161000D1*
X1526473Y1158000D1*
X1522442Y1155000D1*
X1518500Y1152000D1*
X1545500Y1170000D2*
X1549526Y1167000D1*
X1553418Y1164000D1*
X1556975Y1161000D1*
X1560152Y1158000D1*
X1562773Y1155000D1*
X1564870Y1152000D1*
X1565502Y1149000D1*
X1564895Y1146000D1*
X1563785Y1143000D1*
X1562217Y1140000D1*
X1560373Y1137000D1*
X1558570Y1134000D1*
X1556895Y1131000D1*
X1555331Y1128000D1*
X1554020Y1125000D1*
X1553022Y1122000D1*
X1553728Y1119000D1*
X1555060Y1116000D1*
X1556718Y1113000D1*
X1558680Y1110000D1*
X1561048Y1107000D1*
X1563714Y1104000D1*
X1566500Y1101000D1*
X543500Y1167000D2*
X539115Y1164000D1*
X535254Y1161000D1*
X531829Y1158000D1*
X528753Y1155000D1*
X526186Y1152000D1*
X524120Y1149000D1*
X523494Y1146000D1*
X524104Y1143000D1*
X525215Y1140000D1*
X526783Y1137000D1*
X528627Y1134000D1*
X530430Y1131000D1*
X532114Y1128000D1*
X533780Y1125000D1*
X535568Y1122000D1*
X537500Y1119000D1*
X535526Y1116000D1*
X533430Y1113000D1*
X531113Y1110000D1*
X528871Y1107000D1*
X527035Y1104000D1*
X525500Y1101000D1*
X546500Y1167000D2*
X550537Y1164000D1*
X554545Y1161000D1*
X558579Y1158000D1*
X562914Y1155000D1*
X567500Y1152000D1*
X1263500Y1167000D2*
Y1164000D1*
Y1161000D1*
Y1158000D1*
Y1155000D1*
Y1152000D1*
Y1149000D1*
Y1146000D1*
Y1143000D1*
X1398500Y1167000D2*
Y1164000D1*
Y1161000D1*
Y1158000D1*
Y1155000D1*
Y1152000D1*
Y1149000D1*
Y1146000D1*
Y1143000D1*
Y1140000D1*
Y1137000D1*
Y1134000D1*
Y1131000D1*
Y1128000D1*
Y1125000D1*
Y1122000D1*
Y1119000D1*
Y1116000D1*
Y1113000D1*
Y1110000D1*
X591500Y1158000D2*
X585500Y1155000D1*
X579500Y1152000D1*
X591500Y1155000D2*
Y1152000D1*
Y1149000D1*
Y1146000D1*
Y1143000D1*
Y1140000D1*
Y1137000D1*
Y1134000D1*
Y1131000D1*
Y1128000D1*
Y1125000D1*
X591488Y1122000D1*
X591359Y1119000D1*
X591043Y1116000D1*
X589226Y1113000D1*
X586466Y1110000D1*
X583173Y1107000D1*
X579858Y1104000D1*
X576663Y1101000D1*
X573567Y1098000D1*
X570537Y1095000D1*
X567627Y1092000D1*
X565003Y1089000D1*
X562719Y1086000D1*
X560499Y1083000D1*
X558128Y1080000D1*
X555800Y1077000D1*
X553751Y1074000D1*
X551967Y1071000D1*
X550334Y1068000D1*
X548783Y1065000D1*
X547260Y1062000D1*
X545755Y1059000D1*
X544262Y1056000D1*
X542857Y1053000D1*
X541643Y1050000D1*
X540587Y1047000D1*
X539529Y1044000D1*
X538598Y1041000D1*
X537908Y1038000D1*
X537225Y1035000D1*
X536370Y1032000D1*
X535546Y1029000D1*
X535001Y1026000D1*
X534715Y1023000D1*
X534585Y1020000D1*
X534532Y1017000D1*
X534511Y1014000D1*
X534504Y1011000D1*
X534501Y1008000D1*
X534500Y1005000D1*
Y1002000D1*
Y999000D1*
X534512Y996000D1*
X534617Y993000D1*
X535000Y990000D1*
X535718Y987000D1*
X536499Y984000D1*
X537128Y981000D1*
X537788Y978000D1*
X538646Y975000D1*
X539573Y972000D1*
X540510Y969000D1*
X541620Y966000D1*
X542913Y963000D1*
X544314Y960000D1*
X545776Y957000D1*
X547258Y954000D1*
X548754Y951000D1*
X550262Y948000D1*
X551869Y945000D1*
X553748Y942000D1*
X555969Y939000D1*
X558248Y936000D1*
X560379Y933000D1*
X562549Y930000D1*
X565002Y927000D1*
X567716Y924000D1*
X570586Y921000D1*
X573544Y918000D1*
X576629Y915000D1*
X579992Y912000D1*
X583590Y909000D1*
X586859Y906000D1*
X589538Y903000D1*
X590549Y900000D1*
X591095Y897000D1*
X591342Y894000D1*
X591442Y891000D1*
X591479Y888000D1*
X591493Y885000D1*
X591498Y882000D1*
X591499Y879000D1*
X591500Y876000D1*
Y873000D1*
Y870000D1*
Y867000D1*
Y864000D1*
Y861000D1*
Y858000D1*
X1503500Y1155000D2*
Y1152000D1*
Y1149000D1*
Y1146000D1*
Y1143000D1*
Y1140000D1*
Y1137000D1*
Y1134000D1*
Y1131000D1*
Y1128000D1*
Y1125000D1*
Y1122000D1*
X1503523Y1119000D1*
X1503734Y1116000D1*
X1504227Y1113000D1*
X1506006Y1110000D1*
X1508202Y1107000D1*
X1510851Y1104000D1*
X1514011Y1101000D1*
X1517163Y1098000D1*
X1519862Y1095000D1*
X1522327Y1092000D1*
X1524903Y1089000D1*
X1527566Y1086000D1*
X1530074Y1083000D1*
X1532298Y1080000D1*
X1534406Y1077000D1*
X1536482Y1074000D1*
X1538366Y1071000D1*
X1539981Y1068000D1*
X1541292Y1065000D1*
X1542400Y1062000D1*
X1543579Y1059000D1*
X1544887Y1056000D1*
X1546203Y1053000D1*
X1547380Y1050000D1*
X1548421Y1047000D1*
X1549474Y1044000D1*
X1550403Y1041000D1*
X1551092Y1038000D1*
X1551776Y1035000D1*
X1552630Y1032000D1*
X1553454Y1029000D1*
X1553999Y1026000D1*
X1554285Y1023000D1*
X1554415Y1020000D1*
X1554468Y1017000D1*
X1554489Y1014000D1*
X1554496Y1011000D1*
X1554499Y1008000D1*
X1554500Y1005000D1*
X1554488Y1002000D1*
X1554383Y999000D1*
X1554000Y996000D1*
X1553282Y993000D1*
X1552501Y990000D1*
X1551872Y987000D1*
X1551212Y984000D1*
X1550366Y981000D1*
X1549533Y978000D1*
X1548884Y975000D1*
X1548204Y972000D1*
X1547250Y969000D1*
X1546033Y966000D1*
X1544666Y963000D1*
X1543217Y960000D1*
X1541740Y957000D1*
X1540245Y954000D1*
X1538738Y951000D1*
X1537131Y948000D1*
X1535252Y945000D1*
X1533031Y942000D1*
X1530752Y939000D1*
X1528621Y936000D1*
X1526451Y933000D1*
X1523998Y930000D1*
X1521284Y927000D1*
X1518414Y924000D1*
X1515468Y921000D1*
X1512500Y918000D1*
X1509625Y915000D1*
X1507127Y912000D1*
X1505346Y909000D1*
X1504333Y906000D1*
X1503844Y903000D1*
X1503633Y900000D1*
X1503549Y897000D1*
X1503517Y894000D1*
X1503506Y891000D1*
X1503502Y888000D1*
X1503501Y885000D1*
X1503500Y882000D1*
Y879000D1*
Y876000D1*
Y873000D1*
Y870000D1*
Y867000D1*
Y864000D1*
X1506500Y1155000D2*
X1512500Y1152000D1*
X867500D2*
Y1149000D1*
Y1146000D1*
Y1143000D1*
Y1140000D1*
Y1137000D1*
Y1134000D1*
Y1131000D1*
Y1128000D1*
Y1125000D1*
Y1122000D1*
Y1119000D1*
Y1116000D1*
Y1113000D1*
Y1110000D1*
Y1107000D1*
Y1104000D1*
Y1101000D1*
Y1098000D1*
Y1095000D1*
Y1092000D1*
X1224500Y1143000D2*
Y1140000D1*
Y1137000D1*
Y1134000D1*
Y1131000D1*
Y1128000D1*
Y1125000D1*
Y1122000D1*
Y1119000D1*
Y1116000D1*
Y1113000D1*
Y1110000D1*
Y1107000D1*
Y1104000D1*
Y1101000D1*
Y1098000D1*
Y1095000D1*
Y1092000D1*
Y1089000D1*
Y1086000D1*
Y1083000D1*
X825500Y1140000D2*
Y1137000D1*
Y1134000D1*
Y1131000D1*
Y1128000D1*
Y1125000D1*
Y1122000D1*
Y1119000D1*
Y1116000D1*
X855500Y1140000D2*
Y1137000D1*
Y1134000D1*
Y1131000D1*
Y1128000D1*
Y1125000D1*
Y1122000D1*
Y1119000D1*
Y1116000D1*
Y1113000D1*
Y1110000D1*
Y1107000D1*
Y1104000D1*
Y1101000D1*
Y1098000D1*
Y1095000D1*
Y1092000D1*
Y1089000D1*
Y1086000D1*
Y1083000D1*
Y1080000D1*
X1236500Y1134000D2*
Y1131000D1*
Y1128000D1*
Y1125000D1*
Y1122000D1*
Y1119000D1*
Y1116000D1*
Y1113000D1*
Y1110000D1*
Y1107000D1*
Y1104000D1*
Y1101000D1*
Y1098000D1*
Y1095000D1*
Y1092000D1*
Y1089000D1*
Y1086000D1*
Y1083000D1*
Y1080000D1*
Y1077000D1*
Y1074000D1*
Y1071000D1*
X1263500Y1134000D2*
Y1131000D1*
Y1128000D1*
Y1125000D1*
Y1122000D1*
Y1119000D1*
Y1116000D1*
Y1113000D1*
Y1110000D1*
X921500Y1128000D2*
Y1125000D1*
Y1122000D1*
Y1119000D1*
Y1116000D1*
Y1113000D1*
Y1110000D1*
Y1107000D1*
Y1104000D1*
Y1101000D1*
Y1098000D1*
Y1095000D1*
Y1092000D1*
X1167500Y1128000D2*
Y1125000D1*
Y1122000D1*
Y1119000D1*
Y1116000D1*
Y1113000D1*
Y1110000D1*
Y1107000D1*
Y1104000D1*
Y1101000D1*
Y1098000D1*
Y1095000D1*
Y1092000D1*
Y1089000D1*
Y1086000D1*
Y1083000D1*
X486500Y1104000D2*
X485011Y1101000D1*
X483362Y1098000D1*
X481912Y1095000D1*
X480698Y1092000D1*
X479463Y1089000D1*
X478141Y1086000D1*
X476943Y1083000D1*
X476005Y1080000D1*
X476564Y1077000D1*
X478958Y1074000D1*
X482140Y1071000D1*
X485765Y1068000D1*
X489557Y1065000D1*
X493399Y1062000D1*
X496782Y1059000D1*
X499521Y1056000D1*
X500529Y1053000D1*
X500975Y1050000D1*
X500841Y1047000D1*
X500223Y1044000D1*
X499457Y1041000D1*
X498561Y1038000D1*
X497279Y1035000D1*
X491782Y1032000D1*
X483813Y1029000D1*
X475415Y1026000D1*
X468146Y1023000D1*
X464760Y1020000D1*
X463551Y1017000D1*
X462930Y1014000D1*
X462662Y1011000D1*
X462558Y1008000D1*
X462520Y1005000D1*
X462542Y1002000D1*
X462641Y999000D1*
X463824Y996000D1*
X468919Y993000D1*
X476499Y990000D1*
X484827Y987000D1*
X491364Y984000D1*
X495995Y981000D1*
X497444Y978000D1*
X498519Y975000D1*
X499536Y972000D1*
X500410Y969000D1*
X500859Y966000D1*
X500935Y963000D1*
X499523Y960000D1*
X497141Y957000D1*
X493814Y954000D1*
X489878Y951000D1*
X485734Y948000D1*
X481847Y945000D1*
X478813Y942000D1*
X476596Y939000D1*
X476389Y936000D1*
X477272Y933000D1*
X478362Y930000D1*
X479452Y927000D1*
X480560Y924000D1*
X481983Y921000D1*
X483648Y918000D1*
X485170Y915000D1*
X486500Y912000D1*
X489500Y1104000D2*
X504500Y1101000D1*
X1587500Y1104000D2*
X1572500Y1101000D1*
X1602500Y1104000D2*
X1604360Y1101000D1*
X1606071Y1098000D1*
X1607666Y1095000D1*
X1609115Y1092000D1*
X1610347Y1089000D1*
X1611386Y1086000D1*
X1612223Y1083000D1*
X1612730Y1080000D1*
X1611317Y1077000D1*
X1608075Y1074000D1*
X1604255Y1071000D1*
X1600079Y1068000D1*
X1595926Y1065000D1*
X1592364Y1062000D1*
X1589518Y1059000D1*
X1588476Y1056000D1*
X1587926Y1053000D1*
X1587779Y1050000D1*
X1588059Y1047000D1*
X1588762Y1044000D1*
X1589787Y1041000D1*
X1591065Y1038000D1*
X1595661Y1035000D1*
X1602941Y1032000D1*
X1611506Y1029000D1*
X1618552Y1026000D1*
X1623649Y1023000D1*
X1625165Y1020000D1*
X1625951Y1017000D1*
X1626291Y1014000D1*
X1626425Y1011000D1*
X1626474Y1008000D1*
X1626456Y1005000D1*
X1626358Y1002000D1*
X1625222Y999000D1*
X1620449Y996000D1*
X1613216Y993000D1*
X1604942Y990000D1*
X1598148Y987000D1*
X1593204Y984000D1*
X1591307Y981000D1*
X1589817Y978000D1*
X1588704Y975000D1*
X1587936Y972000D1*
X1587146Y969000D1*
X1585971Y966000D1*
X1584500Y963000D1*
X1588999Y960000D1*
X1593257Y957000D1*
X1597517Y954000D1*
X1601851Y951000D1*
X1606042Y948000D1*
X1609514Y945000D1*
X1612119Y942000D1*
X1612500Y939000D1*
X1611677Y936000D1*
X1610617Y933000D1*
X1609541Y930000D1*
X1608437Y927000D1*
X1607016Y924000D1*
X1605352Y921000D1*
X1603830Y918000D1*
X1602500Y915000D1*
X921500Y1080000D2*
Y1077000D1*
Y1074000D1*
Y1071000D1*
Y1068000D1*
Y1065000D1*
Y1062000D1*
Y1059000D1*
Y1056000D1*
Y1053000D1*
Y1050000D1*
Y1047000D1*
Y1044000D1*
Y1041000D1*
Y1038000D1*
Y1035000D1*
Y1032000D1*
Y1029000D1*
Y1026000D1*
Y1023000D1*
Y1020000D1*
Y1017000D1*
X1167500Y1071000D2*
Y1068000D1*
Y1065000D1*
Y1062000D1*
Y1059000D1*
Y1056000D1*
Y1053000D1*
Y1050000D1*
Y1047000D1*
Y1044000D1*
Y1041000D1*
Y1038000D1*
Y1035000D1*
Y1032000D1*
Y1029000D1*
Y1026000D1*
Y1023000D1*
Y1020000D1*
Y1017000D1*
Y1014000D1*
Y1011000D1*
Y1008000D1*
X693500Y1041000D2*
X692115Y1038000D1*
X691254Y1035000D1*
X690818Y1032000D1*
X690624Y1029000D1*
X690546Y1026000D1*
X690516Y1023000D1*
X690506Y1020000D1*
X690502Y1017000D1*
X690501Y1014000D1*
X690500Y1011000D1*
Y1008000D1*
Y1005000D1*
Y1002000D1*
Y999000D1*
Y996000D1*
Y993000D1*
Y990000D1*
Y987000D1*
Y984000D1*
Y981000D1*
X828500Y1041000D2*
Y1038000D1*
Y1035000D1*
Y1032000D1*
Y1029000D1*
Y1026000D1*
Y1023000D1*
Y1020000D1*
Y1017000D1*
X1263500Y1032000D2*
Y1029000D1*
Y1026000D1*
Y1023000D1*
Y1020000D1*
Y1017000D1*
Y1014000D1*
Y1011000D1*
Y1008000D1*
X1398500Y1032000D2*
Y1029000D1*
Y1026000D1*
Y1023000D1*
Y1020000D1*
Y1017000D1*
Y1014000D1*
Y1011000D1*
Y1008000D1*
Y1005000D1*
Y1002000D1*
Y999000D1*
Y996000D1*
Y993000D1*
Y990000D1*
Y987000D1*
Y984000D1*
Y981000D1*
Y978000D1*
Y975000D1*
Y972000D1*
X828500Y1005000D2*
Y1002000D1*
Y999000D1*
Y996000D1*
Y993000D1*
Y990000D1*
Y987000D1*
Y984000D1*
Y981000D1*
X921500Y1005000D2*
Y1002000D1*
Y999000D1*
Y996000D1*
Y993000D1*
Y990000D1*
Y987000D1*
Y984000D1*
Y981000D1*
Y978000D1*
Y975000D1*
Y972000D1*
Y969000D1*
Y966000D1*
Y963000D1*
Y960000D1*
Y957000D1*
Y954000D1*
Y951000D1*
Y948000D1*
Y945000D1*
Y942000D1*
X1167500Y996000D2*
Y993000D1*
Y990000D1*
Y987000D1*
Y984000D1*
Y981000D1*
Y978000D1*
Y975000D1*
Y972000D1*
Y969000D1*
Y966000D1*
Y963000D1*
Y960000D1*
Y957000D1*
Y954000D1*
Y951000D1*
Y948000D1*
Y945000D1*
Y942000D1*
Y939000D1*
Y936000D1*
Y933000D1*
X1263500Y996000D2*
Y993000D1*
Y990000D1*
Y987000D1*
Y984000D1*
Y981000D1*
Y978000D1*
Y975000D1*
Y972000D1*
X855500Y942000D2*
Y939000D1*
Y936000D1*
Y933000D1*
Y930000D1*
Y927000D1*
Y924000D1*
Y921000D1*
Y918000D1*
Y915000D1*
Y912000D1*
Y909000D1*
Y906000D1*
Y903000D1*
Y900000D1*
Y897000D1*
Y894000D1*
Y891000D1*
Y888000D1*
Y885000D1*
Y882000D1*
X1236500Y933000D2*
Y930000D1*
Y927000D1*
Y924000D1*
Y921000D1*
Y918000D1*
Y915000D1*
Y912000D1*
Y909000D1*
Y906000D1*
Y903000D1*
Y900000D1*
Y897000D1*
Y894000D1*
Y891000D1*
Y888000D1*
Y885000D1*
Y882000D1*
Y879000D1*
Y876000D1*
X867500Y930000D2*
Y927000D1*
Y924000D1*
Y921000D1*
Y918000D1*
Y915000D1*
Y912000D1*
Y909000D1*
Y906000D1*
Y903000D1*
Y900000D1*
Y897000D1*
Y894000D1*
Y891000D1*
Y888000D1*
Y885000D1*
Y882000D1*
Y879000D1*
Y876000D1*
Y873000D1*
Y870000D1*
Y867000D1*
X921500Y930000D2*
Y927000D1*
Y924000D1*
Y921000D1*
Y918000D1*
Y915000D1*
Y912000D1*
Y909000D1*
Y906000D1*
Y903000D1*
Y900000D1*
Y897000D1*
Y894000D1*
Y891000D1*
X1167500Y921000D2*
Y918000D1*
Y915000D1*
Y912000D1*
Y909000D1*
Y906000D1*
Y903000D1*
Y900000D1*
Y897000D1*
Y894000D1*
Y891000D1*
X1224500Y921000D2*
Y918000D1*
Y915000D1*
Y912000D1*
Y909000D1*
Y906000D1*
Y903000D1*
Y900000D1*
Y897000D1*
Y894000D1*
Y891000D1*
Y888000D1*
Y885000D1*
Y882000D1*
Y879000D1*
Y876000D1*
Y873000D1*
Y870000D1*
Y867000D1*
Y864000D1*
Y861000D1*
X1563500Y921000D2*
X1562910Y918000D1*
X1561677Y915000D1*
X1559787Y912000D1*
X1557668Y909000D1*
X1555726Y906000D1*
X1554184Y903000D1*
X1553022Y900000D1*
X1553381Y897000D1*
X1554341Y894000D1*
X1555835Y891000D1*
X1557647Y888000D1*
X1559437Y885000D1*
X1561107Y882000D1*
X1562670Y879000D1*
X1563992Y876000D1*
X1565025Y873000D1*
X1564793Y870000D1*
X1563223Y867000D1*
X1560850Y864000D1*
X1557860Y861000D1*
X1554717Y858000D1*
X1551595Y855000D1*
X1548500Y852000D1*
X1569500Y921000D2*
X1581500Y918000D1*
X1593500Y915000D1*
X522500Y918000D2*
X507500Y915000D1*
X492500Y912000D1*
X525500Y918000D2*
X526090Y915000D1*
X527323Y912000D1*
X529213Y909000D1*
X531341Y906000D1*
X533387Y903000D1*
X535407Y900000D1*
X537500Y897000D1*
X535640Y894000D1*
X533917Y891000D1*
X532217Y888000D1*
X530385Y885000D1*
X528435Y882000D1*
X526603Y879000D1*
X525032Y876000D1*
X523950Y873000D1*
X523381Y870000D1*
X524513Y867000D1*
X526411Y864000D1*
X528875Y861000D1*
X531644Y858000D1*
X534553Y855000D1*
X537518Y852000D1*
X540500Y849000D1*
X693500Y903000D2*
Y900000D1*
Y897000D1*
Y894000D1*
Y891000D1*
Y888000D1*
Y885000D1*
Y882000D1*
Y879000D1*
Y876000D1*
Y873000D1*
Y870000D1*
Y867000D1*
Y864000D1*
Y861000D1*
Y858000D1*
Y855000D1*
Y852000D1*
Y849000D1*
Y846000D1*
Y843000D1*
X828500Y903000D2*
Y900000D1*
Y897000D1*
Y894000D1*
Y891000D1*
Y888000D1*
Y885000D1*
Y882000D1*
X1266500Y894000D2*
Y891000D1*
Y888000D1*
Y885000D1*
Y882000D1*
Y879000D1*
Y876000D1*
X1401500Y894000D2*
Y891000D1*
Y888000D1*
Y885000D1*
Y882000D1*
Y879000D1*
Y876000D1*
Y873000D1*
Y870000D1*
Y867000D1*
Y864000D1*
Y861000D1*
Y858000D1*
Y855000D1*
Y852000D1*
Y849000D1*
Y846000D1*
Y843000D1*
Y840000D1*
Y837000D1*
X963500Y891000D2*
Y888000D1*
Y885000D1*
Y882000D1*
Y879000D1*
Y876000D1*
Y873000D1*
Y870000D1*
Y867000D1*
Y864000D1*
Y861000D1*
Y858000D1*
Y855000D1*
Y852000D1*
Y849000D1*
Y846000D1*
Y843000D1*
Y840000D1*
Y837000D1*
X975500Y891000D2*
Y888000D1*
Y885000D1*
Y882000D1*
Y879000D1*
Y876000D1*
Y873000D1*
Y870000D1*
Y867000D1*
Y864000D1*
Y861000D1*
Y858000D1*
Y855000D1*
Y852000D1*
Y849000D1*
Y846000D1*
Y843000D1*
Y840000D1*
Y837000D1*
Y834000D1*
Y831000D1*
Y828000D1*
Y825000D1*
X1041500Y891000D2*
Y888000D1*
Y885000D1*
Y882000D1*
Y879000D1*
Y876000D1*
Y873000D1*
Y870000D1*
Y867000D1*
Y864000D1*
Y861000D1*
Y858000D1*
Y855000D1*
Y852000D1*
Y849000D1*
Y846000D1*
Y843000D1*
Y840000D1*
Y837000D1*
Y834000D1*
Y831000D1*
Y828000D1*
Y825000D1*
Y822000D1*
Y819000D1*
Y816000D1*
Y813000D1*
Y810000D1*
Y807000D1*
Y804000D1*
Y801000D1*
Y798000D1*
X1014500D1*
Y795000D1*
Y792000D1*
Y789000D1*
Y786000D1*
Y783000D1*
Y780000D1*
Y777000D1*
Y774000D1*
Y771000D1*
Y768000D1*
Y765000D1*
Y762000D1*
Y759000D1*
Y756000D1*
Y753000D1*
Y750000D1*
Y747000D1*
Y744000D1*
Y741000D1*
Y738000D1*
Y735000D1*
Y732000D1*
Y729000D1*
Y726000D1*
Y723000D1*
Y720000D1*
Y717000D1*
Y714000D1*
Y711000D1*
Y708000D1*
Y705000D1*
Y702000D1*
Y699000D1*
Y696000D1*
Y693000D1*
Y690000D1*
Y687000D1*
Y684000D1*
Y681000D1*
Y678000D1*
Y675000D1*
Y672000D1*
Y669000D1*
X1053500Y891000D2*
Y888000D1*
Y885000D1*
Y882000D1*
Y879000D1*
Y876000D1*
Y873000D1*
Y870000D1*
Y867000D1*
Y864000D1*
Y861000D1*
Y858000D1*
Y855000D1*
Y852000D1*
Y849000D1*
Y846000D1*
Y843000D1*
Y840000D1*
Y837000D1*
Y834000D1*
Y831000D1*
Y828000D1*
Y825000D1*
Y822000D1*
Y819000D1*
Y816000D1*
Y813000D1*
Y810000D1*
Y807000D1*
Y804000D1*
Y801000D1*
Y798000D1*
X1077500D1*
Y795000D1*
Y792000D1*
Y789000D1*
Y786000D1*
Y783000D1*
Y780000D1*
Y777000D1*
Y774000D1*
Y771000D1*
Y768000D1*
Y765000D1*
Y762000D1*
Y759000D1*
Y756000D1*
Y753000D1*
Y750000D1*
Y747000D1*
Y744000D1*
Y741000D1*
Y738000D1*
Y735000D1*
Y732000D1*
Y729000D1*
Y726000D1*
Y723000D1*
Y720000D1*
Y717000D1*
Y714000D1*
Y711000D1*
Y708000D1*
Y705000D1*
Y702000D1*
Y699000D1*
Y696000D1*
Y693000D1*
Y690000D1*
Y687000D1*
Y684000D1*
Y681000D1*
Y678000D1*
Y675000D1*
Y672000D1*
Y669000D1*
X1119500Y891000D2*
Y888000D1*
Y885000D1*
Y882000D1*
Y879000D1*
Y876000D1*
Y873000D1*
Y870000D1*
Y867000D1*
Y864000D1*
Y861000D1*
Y858000D1*
Y855000D1*
Y852000D1*
Y849000D1*
Y846000D1*
Y843000D1*
Y840000D1*
Y837000D1*
Y834000D1*
Y831000D1*
Y828000D1*
Y825000D1*
X1131500Y891000D2*
Y888000D1*
Y885000D1*
Y882000D1*
Y879000D1*
Y876000D1*
Y873000D1*
Y870000D1*
Y867000D1*
Y864000D1*
Y861000D1*
Y858000D1*
Y855000D1*
Y852000D1*
Y849000D1*
Y846000D1*
Y843000D1*
Y840000D1*
Y837000D1*
X573500Y870000D2*
X570386Y867000D1*
X566990Y864000D1*
X563165Y861000D1*
X559011Y858000D1*
X554742Y855000D1*
X550555Y852000D1*
X546500Y849000D1*
X573500Y870000D2*
X577089Y867000D1*
X581324Y864000D1*
X586250Y861000D1*
X591500Y858000D1*
X1512500Y870000D2*
X1509500Y867000D1*
X1506500Y864000D1*
X1518500Y870000D2*
X1521614Y867000D1*
X1524999Y864000D1*
X1528718Y861000D1*
X1532495Y858000D1*
X1536064Y855000D1*
X1539500Y852000D1*
X828500Y867000D2*
Y864000D1*
Y861000D1*
Y858000D1*
Y855000D1*
Y852000D1*
Y849000D1*
Y846000D1*
Y843000D1*
X1266500Y861000D2*
Y858000D1*
Y855000D1*
Y852000D1*
Y849000D1*
Y846000D1*
Y843000D1*
Y840000D1*
Y837000D1*
X900500D2*
Y834000D1*
Y831000D1*
Y828000D1*
Y825000D1*
Y822000D1*
Y819000D1*
Y816000D1*
Y813000D1*
Y810000D1*
Y807000D1*
Y804000D1*
Y801000D1*
Y798000D1*
X873500D1*
Y795000D1*
Y792000D1*
Y789000D1*
Y786000D1*
Y783000D1*
Y780000D1*
Y777000D1*
Y774000D1*
Y771000D1*
Y768000D1*
Y765000D1*
Y762000D1*
Y759000D1*
Y756000D1*
Y753000D1*
Y750000D1*
Y747000D1*
Y744000D1*
Y741000D1*
Y738000D1*
Y735000D1*
Y732000D1*
Y729000D1*
Y726000D1*
Y723000D1*
Y720000D1*
Y717000D1*
Y714000D1*
Y711000D1*
Y708000D1*
Y705000D1*
Y702000D1*
Y699000D1*
Y696000D1*
Y693000D1*
Y690000D1*
Y687000D1*
Y684000D1*
Y681000D1*
Y678000D1*
Y675000D1*
Y672000D1*
Y669000D1*
X1194500Y837000D2*
Y834000D1*
Y831000D1*
Y828000D1*
Y825000D1*
Y822000D1*
Y819000D1*
Y816000D1*
Y813000D1*
Y810000D1*
Y807000D1*
Y804000D1*
Y801000D1*
Y798000D1*
X1218500D1*
Y795000D1*
Y792000D1*
Y789000D1*
Y786000D1*
Y783000D1*
Y780000D1*
Y777000D1*
Y774000D1*
Y771000D1*
Y768000D1*
Y765000D1*
Y762000D1*
Y759000D1*
Y756000D1*
Y753000D1*
Y750000D1*
Y747000D1*
Y744000D1*
Y741000D1*
Y738000D1*
Y735000D1*
Y732000D1*
Y729000D1*
Y726000D1*
Y723000D1*
Y720000D1*
Y717000D1*
Y714000D1*
Y711000D1*
Y708000D1*
Y705000D1*
Y702000D1*
Y699000D1*
Y696000D1*
Y693000D1*
Y690000D1*
Y687000D1*
Y684000D1*
Y681000D1*
Y678000D1*
Y675000D1*
Y672000D1*
Y669000D1*
X912500Y825000D2*
Y822000D1*
Y819000D1*
Y816000D1*
Y813000D1*
Y810000D1*
Y807000D1*
Y804000D1*
Y801000D1*
Y798000D1*
X936500D1*
Y795000D1*
Y792000D1*
Y789000D1*
Y786000D1*
Y783000D1*
Y780000D1*
Y777000D1*
Y774000D1*
Y771000D1*
Y768000D1*
Y765000D1*
Y762000D1*
Y759000D1*
Y756000D1*
Y753000D1*
Y750000D1*
Y747000D1*
Y744000D1*
Y741000D1*
Y738000D1*
Y735000D1*
Y732000D1*
Y729000D1*
Y726000D1*
Y723000D1*
Y720000D1*
Y717000D1*
Y714000D1*
Y711000D1*
Y708000D1*
Y705000D1*
Y702000D1*
Y699000D1*
Y696000D1*
Y693000D1*
Y690000D1*
Y687000D1*
Y684000D1*
Y681000D1*
Y678000D1*
Y675000D1*
Y672000D1*
Y669000D1*
X1182500Y825000D2*
Y822000D1*
Y819000D1*
Y816000D1*
Y813000D1*
Y810000D1*
Y807000D1*
Y804000D1*
Y801000D1*
Y798000D1*
X1155500D1*
Y795000D1*
Y792000D1*
Y789000D1*
Y786000D1*
Y783000D1*
Y780000D1*
Y777000D1*
Y774000D1*
Y771000D1*
Y768000D1*
Y765000D1*
Y762000D1*
Y759000D1*
Y756000D1*
Y753000D1*
Y750000D1*
Y747000D1*
Y744000D1*
Y741000D1*
Y738000D1*
Y735000D1*
Y732000D1*
Y729000D1*
Y726000D1*
Y723000D1*
Y720000D1*
Y717000D1*
Y714000D1*
Y711000D1*
Y708000D1*
Y705000D1*
Y702000D1*
Y699000D1*
Y696000D1*
Y693000D1*
Y690000D1*
Y687000D1*
Y684000D1*
Y681000D1*
Y678000D1*
Y675000D1*
Y672000D1*
Y669000D1*
X828500Y801000D2*
Y798000D1*
Y795000D1*
Y792000D1*
Y789000D1*
Y786000D1*
Y783000D1*
Y780000D1*
Y777000D1*
Y774000D1*
Y771000D1*
Y768000D1*
Y765000D1*
Y762000D1*
Y759000D1*
Y756000D1*
Y753000D1*
Y750000D1*
Y747000D1*
Y744000D1*
Y741000D1*
Y738000D1*
Y735000D1*
Y732000D1*
Y729000D1*
Y726000D1*
Y723000D1*
Y720000D1*
Y717000D1*
Y714000D1*
Y711000D1*
Y708000D1*
Y705000D1*
Y702000D1*
Y699000D1*
Y696000D1*
Y693000D1*
Y690000D1*
Y687000D1*
Y684000D1*
Y681000D1*
Y678000D1*
Y675000D1*
Y672000D1*
Y669000D1*
Y666000D1*
Y663000D1*
Y660000D1*
Y657000D1*
X1263500Y801000D2*
Y798000D1*
Y795000D1*
Y792000D1*
Y789000D1*
Y786000D1*
Y783000D1*
Y780000D1*
Y777000D1*
Y774000D1*
Y771000D1*
Y768000D1*
Y765000D1*
Y762000D1*
Y759000D1*
Y756000D1*
Y753000D1*
Y750000D1*
Y747000D1*
Y744000D1*
Y741000D1*
Y738000D1*
Y735000D1*
Y732000D1*
Y729000D1*
Y726000D1*
Y723000D1*
Y720000D1*
Y717000D1*
Y714000D1*
Y711000D1*
Y708000D1*
Y705000D1*
Y702000D1*
Y699000D1*
Y696000D1*
Y693000D1*
Y690000D1*
Y687000D1*
Y684000D1*
Y681000D1*
Y678000D1*
Y675000D1*
Y672000D1*
Y669000D1*
Y666000D1*
Y663000D1*
Y660000D1*
Y657000D1*
X828500Y654000D2*
Y651000D1*
Y648000D1*
Y645000D1*
Y642000D1*
Y639000D1*
Y636000D1*
Y633000D1*
Y630000D1*
Y627000D1*
Y624000D1*
Y621000D1*
X1263500Y654000D2*
Y651000D1*
Y648000D1*
Y645000D1*
Y642000D1*
Y639000D1*
Y636000D1*
Y633000D1*
Y630000D1*
Y627000D1*
Y624000D1*
Y621000D1*
X897500Y576000D2*
X898400Y573000D1*
X899118Y570000D1*
X898337Y567000D1*
X896967Y564000D1*
X895292Y561000D1*
X893324Y558000D1*
X890962Y555000D1*
X888397Y552000D1*
X886037Y549000D1*
X884324Y546000D1*
X883169Y543000D1*
X883139Y540000D1*
X884396Y537000D1*
X886361Y534000D1*
X888856Y531000D1*
X891637Y528000D1*
X894550Y525000D1*
X897517Y522000D1*
X900500Y519000D1*
X945500Y576000D2*
X948512Y573000D1*
X951617Y570000D1*
X955011Y567000D1*
X958835Y564000D1*
X962998Y561000D1*
X967357Y558000D1*
X971904Y555000D1*
X976784Y552000D1*
X982220Y549000D1*
X988412Y546000D1*
X995821Y543000D1*
X1005135Y540000D1*
X1016675Y537000D1*
X1029500Y534000D1*
X1146500Y576000D2*
X1143386Y573000D1*
X1140001Y570000D1*
X1136270Y567000D1*
X1132396Y564000D1*
X1128478Y561000D1*
X1124364Y558000D1*
X1119957Y555000D1*
X1115057Y552000D1*
X1109378Y549000D1*
X1102862Y546000D1*
X1095407Y543000D1*
X1086347Y540000D1*
X1075082Y537000D1*
X1062500Y534000D1*
X1191500Y576000D2*
X1191614Y573000D1*
X1192010Y570000D1*
X1192847Y567000D1*
X1194116Y564000D1*
X1195857Y561000D1*
X1198111Y558000D1*
X1200643Y555000D1*
X1203090Y552000D1*
X1205179Y549000D1*
X1206780Y546000D1*
X1207971Y543000D1*
X1207616Y540000D1*
X1206646Y537000D1*
X1205047Y534000D1*
X1202842Y531000D1*
X1200227Y528000D1*
X1197395Y525000D1*
X1194463Y522000D1*
X1191500Y519000D1*
X930500Y534000D2*
X924964Y531000D1*
X919708Y528000D1*
X914492Y525000D1*
X909063Y522000D1*
X903500Y519000D1*
X930500Y534000D2*
X935922Y531000D1*
X940770Y528000D1*
X945029Y525000D1*
X948629Y522000D1*
X951556Y519000D1*
X952294Y516000D1*
X952036Y513000D1*
X951779Y510000D1*
X951518Y507000D1*
X951057Y504000D1*
X950304Y501000D1*
X949521Y498000D1*
X949004Y495000D1*
X948853Y492000D1*
X949011Y489000D1*
X950493Y486000D1*
X954186Y483000D1*
X959234Y480000D1*
X965550Y477000D1*
X972500Y474000D1*
X1161500Y534000D2*
X1156078Y531000D1*
X1151230Y528000D1*
X1146960Y525000D1*
X1143265Y522000D1*
X1140127Y519000D1*
X1138915Y516000D1*
X1139177Y513000D1*
X1139681Y510000D1*
X1140097Y507000D1*
X1140433Y504000D1*
X1140925Y501000D1*
X1141690Y498000D1*
X1142465Y495000D1*
X1142866Y492000D1*
X1142891Y489000D1*
X1141472Y486000D1*
X1137798Y483000D1*
X1132760Y480000D1*
X1126448Y477000D1*
X1119500Y474000D1*
X1164500Y534000D2*
X1168090Y531000D1*
X1172335Y528000D1*
X1177327Y525000D1*
X1182817Y522000D1*
X1188500Y519000D1*
X996500Y501000D2*
X993614Y498000D1*
X990999Y495000D1*
X988730Y492000D1*
X986604Y489000D1*
X984510Y486000D1*
X982507Y483000D1*
X980411Y480000D1*
X978034Y477000D1*
X975500Y474000D1*
X990500Y501000D2*
X1003027Y498000D1*
X1012649Y495000D1*
X1019788Y492000D1*
X1022751Y489000D1*
X1025013Y486000D1*
X1025795Y483000D1*
X1026314Y480000D1*
X1026881Y477000D1*
X1027675Y474000D1*
X1028472Y471000D1*
X1029008Y468000D1*
X1029305Y465000D1*
X1029500Y462000D1*
X1101500Y501000D2*
X1088870Y498000D1*
X1078969Y495000D1*
X1071421Y492000D1*
X1067989Y489000D1*
X1066669Y486000D1*
X1065875Y483000D1*
X1065190Y480000D1*
X1064351Y477000D1*
X1063537Y474000D1*
X1062998Y471000D1*
X1062713Y468000D1*
X1062579Y465000D1*
X1062500Y462000D1*
X1095500Y501000D2*
X1098036Y498000D1*
X1100293Y495000D1*
X1102504Y492000D1*
X1104873Y489000D1*
X1107212Y486000D1*
X1109366Y483000D1*
X1111536Y480000D1*
X1113947Y477000D1*
X1116500Y474000D1*
X1025722Y1237540D2*
D51*
Y1216018D1*
X1027148Y1211707D1*
X1030033Y1208855D1*
X1034344Y1207396D1*
X1037196D1*
X1041507Y1208855D1*
X1044392Y1211707D1*
X1045818Y1216018D1*
Y1237540D1*
X1055082Y1231770D2*
X1057967Y1233229D1*
X1062278Y1237507D1*
Y1207396D1*
M02*
