M48
INCH
T01C0.01
T02C0.019
T03C0.0354
T04C0.04
T05C0.0433
T06C0.05
T07C0.0618
T08C0.128
T09C0.128
%
T01
X+024190Y+009565
X+023940Y+009753
X+023190Y+009128
X+022628Y+009190
X+022377Y+008878
X+022877Y+009627
X+021378Y+008502
X+020440Y+007940
X+020690Y+010440
X+021883Y+013190
X+022377Y+013628
X+021628Y+015003
X+022565Y+015877
X+022815Y+015752
X+023377Y+015690
X+023565Y+015878
X+023940Y+015815
X+024187Y+015690
X+024753Y+015503
X+025002Y+015815
X+025127Y+016502
X+024690Y+016815
X+024378Y+016565
X+023815Y+016378
X+023565Y+016690
X+022877Y+017002
X+022815Y+016565
X+022190Y+016440
X+024440Y+014190
X+024815Y+014252
X+024815Y+013503
X+025002Y+013190
X+025940Y+013190
X+026190Y+012940
X+026440Y+013190
X+026190Y+013440
X+026440Y+013690
X+025940Y+013690
X+025940Y+012690
X+026190Y+012440
X+026440Y+012190
X+026690Y+012440
X+026940Y+012190
X+027190Y+012440
X+027440Y+012190
X+027690Y+012440
X+027940Y+012190
X+028190Y+012440
X+028440Y+012190
X+028690Y+012440
X+028940Y+012690
X+029190Y+012940
X+028940Y+013190
X+029190Y+013440
X+029440Y+013690
X+029690Y+013940
X+029940Y+013690
X+030190Y+013940
X+030440Y+013690
X+030690Y+013940
X+030940Y+013690
X+030690Y+013440
X+030940Y+013190
X+030690Y+012940
X+030440Y+013190
X+030190Y+012940
X+029940Y+013190
X+030190Y+013440
X+029690Y+013440
X+029440Y+013190
X+029690Y+012940
X+028690Y+012940
X+028440Y+013190
X+027940Y+013190
X+027440Y+013190
X+026940Y+013190
X+027190Y+015690
X+027690Y+015690
X+026690Y+015690
X+026190Y+015690
X+025940Y+015940
X+025940Y+016440
X+026190Y+016690
X+026690Y+016690
X+027190Y+016690
X+025940Y+018690
X+025627Y+018690
X+025627Y+019190
X+025940Y+019190
X+025315Y+019815
X+025627Y+020440
X+025940Y+020440
X+025940Y+020940
X+025627Y+020940
X+031190Y+013940
X+031190Y+013440
X+032127Y+010128
X+031752Y+007565
X+032127Y+007128
X+028877Y+010440
X+026815Y+009503
X+026315Y+008627
X+025565Y+006253
X+025565Y+005940
X+025565Y+005627
X+018378Y+005940
X+017003Y+007940
X+014815Y+010128
X+013878Y+007877
T02
X+026002Y+005190
X+029940Y+008503
X+017377Y+004940
T03
X+031253Y+008128
X+031253Y+009128
X+031253Y+010128
X+031253Y+011128
X+031253Y+012128
X+012502Y+009127
X+012502Y+008127
X+012502Y+007127
X+012502Y+006127
X+011502Y+006627
X+011502Y+007627
X+011502Y+008627
X+011502Y+009627
X+011940Y+017940
X+011940Y+021916
T04
X+012502Y+024690
X+014440Y+022440
X+014440Y+021940
X+015440Y+021940
X+015440Y+022440
X+012378Y+019815
X+012378Y+014940
X+016065Y+011565
X+016940Y+011565
X+017815Y+011565
X+021565Y+011440
X+022440Y+011440
X+024190Y+011440
X+026815Y+012815
X+027440Y+012815
X+028065Y+012815
X+027440Y+016190
X+026940Y+016190
X+026440Y+016190
X+021440Y+018815
X+020815Y+018815
X+020190Y+018815
X+019565Y+018815
X+019565Y+019565
X+020190Y+019565
X+020815Y+019565
X+021440Y+019565
X+021440Y+022190
X+020815Y+022190
X+020190Y+022190
X+019565Y+022190
X+019440Y+024440
X+020440Y+024440
X+021440Y+024440
X+022440Y+024440
X+023440Y+024440
X+023440Y+023440
X+024440Y+023440
X+024440Y+022440
X+024440Y+024440
X+024440Y+025440
X+023440Y+025440
X+022440Y+025440
X+021440Y+025440
X+020440Y+025440
X+019440Y+025440
X+018440Y+025440
X+007690Y+024065
X+006565Y+024065
X+005315Y+024065
X+005315Y+022940
X+005315Y+021815
X+005315Y+020815
X+005315Y+019690
X+005315Y+018565
X+005315Y+017565
X+005315Y+016190
X+005315Y+014940
X+005315Y+013815
X+006315Y+013815
X+006315Y+012690
X+005315Y+012690
X+007315Y+012690
T05
X+014438Y+015807G85X+014438Y+016074
X+014438Y+014807G85X+014438Y+015074
X+014438Y+013807G85X+014438Y+014074
X+014438Y+018682G85X+014438Y+018949
X+014438Y+019682G85X+014438Y+019949
X+014438Y+020682G85X+014438Y+020949
X+014438Y+023558G85X+014438Y+023825
X+014438Y+024558G85X+014438Y+024825
X+014438Y+025558G85X+014438Y+025825
X+028815Y+025558G85X+028815Y+025825
X+028815Y+024558G85X+028815Y+024825
X+028815Y+023558G85X+028815Y+023825
X+028815Y+020682G85X+028815Y+020949
X+028815Y+019682G85X+028815Y+019949
X+028815Y+018682G85X+028815Y+018949
X+028878Y+015744G85X+028878Y+016011
X+028878Y+014744G85X+028878Y+015011
X+028878Y+013744G85X+028878Y+014011
T06
X+030940Y+022160G85X+030940Y+023720
X+030940Y+019035G85X+030940Y+020594
X+031002Y+015910G85X+031002Y+017469
X+008190Y+017285G85X+008190Y+018844
X+008190Y+020348G85X+008190Y+021907
T07
X+007802Y+010927
X+007802Y+004828
T08
X+009002Y+010127
X+009002Y+005627
T09
X+005940Y+025940
X+015940Y+005940
X+030940Y+005940
X+030940Y+025940
T00
M30
