#VRML V2.0 utf8
WorldInfo {
 info ["File generated by HOOPS Exchange Version 8.2.0"]
 title "705530003"
}
 DEF N705530003 Transform {
children [
Transform {
children [
Transform {
children [
    Shape {
     appearance Appearance {
      material Material {
      transparency 0
     }
    }
   geometry IndexedFaceSet {
     coord Coordinate {
      point [
       -0.18 -0.1 -0.225,
       -0.195 -0.115 -0.225,
       -0.21 -0.1 -0.225,
       -0.21 -0.07 -0.225,
       -0.25 -0.1 -0.225,
       -0.21 0.07 -0.225,
       -0.25 0.1 -0.225,
       0.18 -0.1 -0.225,
       0.21 0.07 -0.225,
       0.21 -0.1 -0.225,
       0.195 -0.115 -0.225,
       0.21 -0.07 -0.225,
       0.25 -0.1 -0.225,
       0.25 0.1 -0.225,
       0.21 -0.1 0.225,
       0.21 -0.1 -0.225,
       0.25 -0.1 -0.225,
       0.25 -0.1 0.225,
       -0.25 -0.1 0.225,
       -0.21 -0.1 -0.225,
       -0.21 -0.1 0.225,
       -0.08 -0.1 -0.125,
       -0.12 -0.1 -0.125,
       0.18 -0.1 -0.225,
       -0.18 -0.1 0.225,
       -0.12 -0.1 0.225,
       0.08 -0.1 -0.125,
       -0.08 -0.1 0.225,
       0.12 -0.1 -0.125,
       0.18 -0.1 0.225,
       0.12 -0.1 0.225,
       0.08 -0.1 0.225,
       0.195 -0.115 0.225,
       0.195 -0.115 0.225,
       -0.08 -0.08 0.225,
       0.08 -0.1 0.225,
       0.08 -0.08 0.225,
       -0.21 -0.1 0.225,
       -0.23 -0.08 0.225,
       -0.23 0.08 0.225,
       -0.12 -0.08 0.225,
       -0.195 -0.115 0.225,
       -0.12 -0.1 0.225,
       -0.25 0.1 0.225,
       -0.16 0.1 0.225,
       -0.14 0.08 0.225,
       -0.14 0.14 0.225,
       -0.16 0.16 0.225,
       0.14 0.14 0.225,
       -0.16 0.13 0.225,
       0.12 -0.1 0.225,
       0.12 -0.08 0.225,
       0.23 -0.08 0.225,
       0.25 -0.1 0.225,
       0.14 0.08 0.225,
       0.16 0.1 0.225,
       0.23 0.08 0.225,
       0.25 0.1 0.225,
       0.16 0.13 0.225,
       0.16 0.16 0.225,
       0.08 -0.06 -0.125,
       0.08 -0.06 0.205,
       0.08 -0.1 -0.125,
       -0.08 -0.06 0.205,
       0.12 -0.06 0.205,
       0.12 -0.08 0.225,
       0.21 -0.06 0.205,
       0.23 -0.08 0.225,
       -0.21 -0.06 0.205,
       -0.12 -0.06 0.205,
       -0.08 -0.06 0.205,
       -0.08 -0.06 -0.125,
       -0.12 -0.06 -0.125,
       -0.1625 -0.013 -0.125,
       -0.21 -0.06 -0.125,
       -0.1375 -0.013 -0.125,
       -0.1625 0.012 -0.125,
       -0.08 -0.06 -0.125,
       -0.0625 -0.013 -0.125,
       -0.0375 -0.013 -0.125,
       -0.0625 0.012 -0.125,
       -0.1375 0.012 -0.125,
       -0.21 0.06 -0.125,
       -0.05 0.06 -0.125,
       -0.0375 0.012 -0.125,
       0.0375 -0.013 -0.125,
       0.05 0.06 -0.125,
       -0.05 0.1 -0.125,
       0.0375 0.012 -0.125,
       0.12 -0.1 -0.125,
       0.0625 -0.013 -0.125,
       0.12 -0.06 -0.125,
       0.1625 -0.013 -0.125,
       0.21 -0.06 -0.125,
       0.1375 -0.013 -0.125,
       0.1375 0.012 -0.125,
       0.0625 0.012 -0.125,
       0.05 0.1 -0.125,
       0.1625 0.012 -0.125,
       0.21 0.06 -0.125,
       0.12 -0.06 -0.125,
       0.12 -0.06 0.205,
       0.21 -0.06 0.205,
       -0.12 -0.06 0.205,
       0.21 0.06 0.205,
       0.12 0.06 0.095,
       0.12 0.06 0.205,
       0.05 0.06 0.095,
       0.05 0.08 0.115,
       0.05 0.06 0.095,
       0.05 0.1 0.115,
       0.05 0.1 -0.125,
       0.16 0.1 0.115,
       -0.25 0.1 -0.225,
       0.12 0.1 0.115,
       0.25 0.1 0.225,
       0.05 0.1 0.115,
       -0.05 0.1 0.115,
       -0.12 0.1 0.115,
       -0.16 0.1 0.115,
       -0.16 0.1 0.225,
       -0.05 0.08 0.115,
       -0.05 0.06 0.095,
       -0.05 0.06 0.095,
       -0.12 0.06 0.095,
       -0.12 0.06 0.205,
       -0.21 0.06 0.205,
       -0.12 0.12 0.205,
       -0.12 0.1 0.115,
       -0.12 0.12 0.115,
       -0.12 0.08 0.115,
       -0.12 0.06 0.095,
       0.05 0.08 0.115,
       0.12 0.08 0.115,
       -0.12 0.08 0.115,
       0.12 0.06 0.095,
       0.12 0.06 0.205,
       0.12 0.12 0.205,
       0.12 0.12 0.115,
       -0.1 0.16 0.115,
       -0.16 0.16 0.115,
       -0.16 0.1 0.115,
       -0.1 0.12 0.115,
       0.12 0.12 0.115,
       0.1 0.16 0.115,
       0.16 0.16 0.115,
       0.1 0.12 0.115,
       -0.1 0.12 0.15,
       -0.1 0.16 0.115,
       -0.1 0.16 0.15,
       0.1 0.16 0.115,
       0.1 0.16 0.15,
       0.0992314 0.16 0.157804,
       0.0969552 0.16 0.165307,
       0.16 0.16 0.225,
       0.0932588 0.16 0.172223,
       0.0882843 0.16 0.178284,
       0.0822228 0.16 0.183259,
       0.0753073 0.16 0.186955,
       0.0678036 0.16 0.189231,
       0.06 0.16 0.19,
       -0.0969552 0.16 0.165307,
       -0.0992314 0.16 0.157804,
       -0.16 0.16 0.115,
       -0.0932588 0.16 0.172223,
       -0.0678036 0.16 0.189231,
       -0.0753073 0.16 0.186955,
       -0.06 0.16 0.19,
       -0.0822228 0.16 0.183259,
       -0.0882843 0.16 0.178284,
       -0.0992314 0.12 0.157804,
       -0.0932588 0.12 0.172223,
       -0.0969552 0.12 0.165307,
       -0.0882843 0.12 0.178284,
       -0.0753073 0.12 0.186955,
       -0.0822228 0.12 0.183259,
       -0.06 0.12 0.19,
       -0.0678036 0.12 0.189231,
       0.1 0.12 0.15,
       0.0992314 0.12 0.157804,
       0.12 0.12 0.205,
       0.0932588 0.12 0.172223,
       0.0969552 0.12 0.165307,
       0.0822228 0.12 0.183259,
       0.0882843 0.12 0.178284,
       0.0753073 0.12 0.186955,
       0.06 0.12 0.19,
       0.0678036 0.12 0.189231,
       0.12 0.12 0.205,
       0.12 0.06 0.205,
       0.21 0.06 0.205,
       -0.21 -0.06 0.205,
       0.1 0.12 0.15,
       0.06 0.12 0.19,
       0.1375 -0.013 0.115,
       0.1375 0.012 0.115,
       0.1375 -0.245 -0.295,
       0.1375 -0.245 -0.27,
       0.1375 -0.07 -0.27,
       0.1375 -0.07 -0.295,
       0.1375 0.012 0.115,
       0.1625 0.012 0.115,
       0.1625 0.012 0.115,
       0.1625 -0.013 0.115,
       0.1625 -0.07 -0.27,
       0.1625 -0.245 -0.27,
       0.1625 -0.245 -0.295,
       0.1625 -0.07 -0.295,
       0.1625 -0.013 0.115,
       0.1375 -0.038 -0.27,
       0.1625 -0.038 -0.27,
       0.1625 -0.07 -0.27,
       0.1375 0.03 -0.255,
       0.1375 0.0109898 -0.255,
       0.1375 0.00857033 -0.263199,
       0.1375 0.00478957 -0.270866,
       0.1375 0.03 -0.31,
       0.1375 -0.000241972 -0.277777,
       0.1375 -0.00637722 -0.28373,
       0.1375 -0.0134368 -0.288551,
       0.1375 -0.0212145 -0.292098,
       0.1375 -0.0294827 -0.294269,
       0.1375 -0.038 -0.295,
       0.1375 -0.07 -0.31,
       0.1375 -0.07 -0.295,
       0.1375 -0.0189005 -0.261131,
       0.1375 -0.07 -0.255,
       0.1375 -0.0243069 -0.265916,
       0.1375 -0.0150871 -0.255,
       0.1375 -0.038 -0.27,
       0.1375 -0.0308555 -0.268957,
       0.1375 -0.038 -0.295,
       0.1625 -0.038 -0.295,
       0.1625 -0.0212145 -0.292098,
       0.1625 -0.0134368 -0.288551,
       0.1625 0.03 -0.31,
       0.1625 -0.07 -0.31,
       0.1625 -0.0294827 -0.294269,
       0.1625 0.00857033 -0.263199,
       0.1625 0.0109898 -0.255,
       0.1625 0.03 -0.255,
       0.1625 0.00478957 -0.270866,
       0.1625 -0.00637722 -0.28373,
       0.1625 -0.000241972 -0.277777,
       0.1625 -0.07 -0.255,
       0.1625 -0.07 -0.27,
       0.1625 -0.0243069 -0.265916,
       0.1625 -0.0189005 -0.261131,
       0.1625 -0.0308555 -0.268957,
       0.1625 -0.0150871 -0.255,
       -0.21 -0.07 -0.225,
       -0.1625 -0.07 -0.255,
       -0.1375 -0.07 -0.255,
       -0.1625 -0.07 -0.27,
       -0.0625 -0.07 -0.255,
       -0.1375 -0.07 -0.27,
       -0.0375 -0.07 -0.255,
       -0.0625 -0.07 -0.27,
       -0.0375 -0.07 -0.27,
       0.0375 -0.07 -0.27,
       -0.1375 -0.07 -0.295,
       -0.21 -0.07 -0.31,
       0.0375 -0.07 -0.255,
       0.0625 -0.07 -0.255,
       0.1375 -0.07 -0.255,
       0.0625 -0.07 -0.27,
       0.0625 -0.07 -0.295,
       0.21 -0.07 -0.31,
       -0.0375 -0.07 -0.295,
       -0.1375 -0.07 -0.31,
       -0.0625 -0.07 -0.295,
       -0.1625 -0.07 -0.31,
       -0.1625 -0.07 -0.295,
       -0.0625 -0.07 -0.31,
       -0.0375 -0.07 -0.31,
       0.0375 -0.07 -0.31,
       0.0625 -0.07 -0.31,
       0.1625 -0.07 -0.31,
       0.0375 -0.07 -0.295,
       -0.1625 -0.013 0.115,
       -0.1625 0.012 0.115,
       -0.1625 -0.245 -0.295,
       -0.1625 -0.245 -0.27,
       -0.1625 0.012 0.115,
       -0.1375 0.012 0.115,
       -0.1375 0.012 0.115,
       -0.1375 -0.013 0.115,
       -0.1375 -0.245 -0.27,
       -0.1375 -0.245 -0.295,
       -0.1375 -0.013 0.115,
       -0.1625 -0.07 -0.295,
       -0.1375 -0.245 -0.295,
       -0.1625 -0.038 -0.295,
       -0.1375 -0.038 -0.295,
       -0.1625 0.03 -0.255,
       -0.1625 0.0109898 -0.255,
       -0.1625 0.00857033 -0.263199,
       -0.1625 0.00478957 -0.270866,
       -0.1625 0.03 -0.31,
       -0.1625 -0.000241972 -0.277777,
       -0.1625 -0.00637722 -0.28373,
       -0.1625 -0.0134368 -0.288551,
       -0.1625 -0.0212145 -0.292098,
       -0.1625 -0.0294827 -0.294269,
       -0.1625 -0.07 -0.31,
       -0.1625 -0.0189005 -0.261131,
       -0.1625 -0.07 -0.255,
       -0.1625 -0.0243069 -0.265916,
       -0.1625 -0.0150871 -0.255,
       -0.1625 -0.038 -0.27,
       -0.1625 -0.0308555 -0.268957,
       -0.1625 -0.07 -0.27,
       -0.1375 -0.0294827 -0.294269,
       -0.1375 -0.0134368 -0.288551,
       -0.1375 -0.0212145 -0.292098,
       -0.1375 -0.00637722 -0.28373,
       -0.1375 0.00478957 -0.270866,
       -0.1625 0.0109898 -0.255,
       -0.1375 0.0109898 -0.255,
       -0.1375 0.00857033 -0.263199,
       -0.1375 -0.000241972 -0.277777,
       0.1375 -0.0150871 -0.255,
       0.0625 -0.07 -0.255,
       0.0375 -0.07 -0.255,
       0.0375 -0.0150871 -0.255,
       0.0625 -0.0150871 -0.255,
       -0.0375 -0.07 -0.255,
       -0.0625 -0.07 -0.255,
       -0.0625 -0.0150871 -0.255,
       -0.0375 -0.0150871 -0.255,
       -0.1625 0.03 -0.255,
       -0.21 0.03 -0.255,
       -0.21 0.07 -0.255,
       -0.0375 0.0109898 -0.255,
       -0.0625 0.0109898 -0.255,
       -0.0625 0.03 -0.255,
       0.1375 0.03 -0.255,
       0.1625 0.0109898 -0.255,
       0.0625 0.0109898 -0.255,
       0.0375 0.0109898 -0.255,
       0.0375 0.03 -0.255,
       -0.1375 0.03 -0.255,
       -0.0375 0.03 -0.255,
       0.21 0.07 -0.255,
       0.0625 0.03 -0.255,
       0.21 0.03 -0.255,
       -0.1375 -0.0150871 -0.255,
       0.0625 -0.0212145 -0.292098,
       0.0625 -0.0134368 -0.288551,
       0.0625 0.03 -0.31,
       0.0625 -0.0294827 -0.294269,
       0.0625 -0.07 -0.295,
       0.0625 -0.038 -0.295,
       0.0625 0.00857033 -0.263199,
       0.0625 0.03 -0.255,
       0.0625 0.00478957 -0.270866,
       0.0625 -0.00637722 -0.28373,
       0.0625 -0.000241972 -0.277777,
       0.0625 -0.038 -0.27,
       0.0625 -0.0243069 -0.265916,
       0.0625 -0.0189005 -0.261131,
       0.0625 -0.0308555 -0.268957,
       0.0375 -0.245 -0.295,
       0.0375 -0.07 -0.295,
       0.0625 -0.245 -0.295,
       0.0625 -0.07 -0.295,
       0.0375 -0.038 -0.295,
       0.0375 -0.013 -0.125,
       0.0375 -0.013 0.115,
       0.0375 0.012 0.115,
       0.0375 -0.245 -0.295,
       0.0375 -0.245 -0.27,
       0.0375 -0.07 -0.27,
       0.0625 -0.013 0.115,
       0.0625 -0.013 -0.125,
       0.0625 0.012 0.115,
       0.0625 -0.013 0.115,
       0.0625 0.012 0.115,
       0.0625 -0.07 -0.27,
       0.0625 -0.245 -0.27,
       0.0375 -0.038 -0.27,
       0.0625 -0.038 -0.27,
       0.0375 0.0109898 -0.255,
       0.0375 0.00857033 -0.263199,
       0.0375 0.00478957 -0.270866,
       0.0375 0.03 -0.31,
       0.0375 -0.000241972 -0.277777,
       0.0375 -0.00637722 -0.28373,
       0.0375 -0.0134368 -0.288551,
       0.0375 -0.0212145 -0.292098,
       0.0375 -0.0294827 -0.294269,
       0.0375 -0.07 -0.31,
       0.0375 -0.0189005 -0.261131,
       0.0375 -0.0243069 -0.265916,
       0.0375 -0.038 -0.27,
       0.0375 -0.0308555 -0.268957,
       -0.0375 0.03 -0.31,
       0.0375 0.03 -0.31,
       -0.0375 -0.0212145 -0.292098,
       -0.0375 -0.0134368 -0.288551,
       -0.0375 0.03 -0.31,
       -0.0375 -0.0294827 -0.294269,
       -0.0375 -0.07 -0.295,
       -0.0375 -0.038 -0.295,
       -0.0375 0.00857033 -0.263199,
       -0.0375 0.00478957 -0.270866,
       -0.0375 -0.00637722 -0.28373,
       -0.0375 -0.000241972 -0.277777,
       -0.0375 -0.038 -0.27,
       -0.0375 -0.0243069 -0.265916,
       -0.0375 -0.0189005 -0.261131,
       -0.0375 -0.0308555 -0.268957,
       -0.0625 -0.245 -0.295,
       -0.0625 -0.07 -0.295,
       -0.0375 -0.245 -0.295,
       -0.0375 -0.07 -0.295,
       -0.0625 -0.038 -0.295,
       -0.0625 -0.013 0.115,
       -0.0625 0.012 0.115,
       -0.0625 -0.245 -0.295,
       -0.0625 -0.245 -0.27,
       -0.0625 -0.07 -0.27,
       -0.0625 0.012 0.115,
       -0.0375 0.012 0.115,
       -0.0375 0.012 0.115,
       -0.0375 -0.013 0.115,
       -0.0375 -0.07 -0.27,
       -0.0375 -0.245 -0.27,
       -0.0375 -0.013 0.115,
       -0.0625 -0.038 -0.27,
       -0.0375 -0.038 -0.27,
       -0.0625 0.0109898 -0.255,
       -0.0625 0.00857033 -0.263199,
       -0.0625 0.00478957 -0.270866,
       -0.0625 0.03 -0.31,
       -0.0625 -0.000241972 -0.277777,
       -0.0625 -0.00637722 -0.28373,
       -0.0625 -0.0134368 -0.288551,
       -0.0625 -0.0212145 -0.292098,
       -0.0625 -0.0294827 -0.294269,
       -0.0625 -0.07 -0.31,
       -0.0625 -0.0189005 -0.261131,
       -0.0625 -0.0243069 -0.265916,
       -0.0625 -0.038 -0.27,
       -0.0625 -0.0308555 -0.268957,
       -0.1375 0.03 -0.31,
       -0.0625 0.03 -0.31,
       -0.1375 0.03 -0.31,
       -0.1375 -0.038 -0.27,
       -0.1375 -0.0243069 -0.265916,
       -0.1375 -0.0189005 -0.261131,
       -0.1375 -0.0308555 -0.268957,
       -0.1375 -0.038 -0.27,
       0.0625 0.03 -0.31,
       0.21 0.03 -0.31,
       0.21 -0.07 -0.31,
       0.21 0.03 -0.31,
       -0.21 0.03 -0.31,
       -0.21 0.07 -0.255,
       -0.21 0.03 -0.255,
       -0.195 -0.115 0.225,
      ]
     }
     normal Normal {
      vector [
       -0 -0 -1,
       -0 -0 -1,
       -0 -0 -1,
       -0 -0 -1,
       -0 -0 -1,
       -0 -0 -1,
       -0 -0 -1,
       -0 -0 -1,
       -0 -0 -1,
       -0 -0 -1,
       -0 -0 -1,
       -0 -0 -1,
       -0 -0 -1,
       -0 -0 -1,
       0 -1 0,
       0 -1 0,
       0 -1 0,
       0 -1 0,
       0 -1 0,
       0 -1 0,
       0 -1 0,
       0 -1 0,
       0 -1 0,
       0 -1 0,
       0 -1 0,
       0 -1 0,
       0 -1 0,
       0 -1 0,
       0 -1 0,
       0 -1 0,
       0 -1 0,
       0 -1 0,
       0 -1 0,
       0 -1 0,
       0.707107 -0.707107 0,
       0.707107 -0.707107 0,
       0.707107 -0.707107 0,
       0.707107 -0.707107 0,
       -0.707107 -0.707107 0,
       -0.707107 -0.707107 0,
       -0.707107 -0.707107 0,
       -0.707107 -0.707107 0,
       0 0 1,
       0 0 1,
       0 0 1,
       0 0 1,
       0 0 1,
       0 0 1,
       0 0 1,
       0 0 1,
       0 0 1,
       0 0 1,
       0 0 1,
       0 0 1,
       0 0 1,
       0 0 1,
       0 0 1,
       0 0 1,
       0 0 1,
       0 0 1,
       0 0 1,
       0 0 1,
       0 0 1,
       0 0 1,
       0 0 1,
       0 0 1,
       0 0 1,
       0 0 1,
       0 0 1,
       0 0 1,
       0 0 1,
       0 0 1,
       0 0 1,
       0 0 1,
       1 -0 -0,
       1 -0 -0,
       1 -0 -0,
       1 -0 -0,
       1 -0 -0,
       0 0.707107 0.707107,
       0 0.707107 0.707107,
       0 0.707107 0.707107,
       0 0.707107 0.707107,
       0 0.707107 0.707107,
       0 0.707107 0.707107,
       0 0.707107 0.707107,
       0 0.707107 0.707107,
       0 0.707107 0.707107,
       0 0.707107 0.707107,
       0 0.707107 0.707107,
       0 0.707107 0.707107,
       -1 -0 -0,
       -1 -0 -0,
       -1 -0 -0,
       -1 -0 -0,
       -1 -0 -0,
       0 0 1,
       0 0 1,
       0 0 1,
       0 0 1,
       0 0 1,
       0 0 1,
       0 0 1,
       0 0 1,
       0 0 1,
       0 0 1,
       0 0 1,
       0 0 1,
       0 0 1,
       0 0 1,
       0 0 1,
       0 0 1,
       0 0 1,
       0 0 1,
       0 0 1,
       0 0 1,
       0 0 1,
       0 0 1,
       0 0 1,
       0 0 1,
       0 0 1,
       0 0 1,
       0 0 1,
       0 0 1,
       0 0 1,
       0 0 1,
       0 0 1,
       0 0 1,
       -0 1 -0,
       -0 1 -0,
       -0 1 -0,
       -0 1 -0,
       -0 1 -0,
       -0 1 -0,
       -0 1 -0,
       -0 1 -0,
       -0 1 -0,
       -0 1 -0,
       -0 1 -0,
       -0 1 -0,
       -1 -0 -0,
       -1 -0 -0,
       -1 -0 -0,
       -1 -0 -0,
       -1 -0 -0,
       -1 -0 -0,
       -1 -0 -0,
       -1 -0 -0,
       -1 -0 -0,
       -0 -1 -0,
       -0 -1 -0,
       -0 -1 -0,
       -0 -1 -0,
       -0 -1 -0,
       -0 -1 -0,
       -1 -0 -0,
       -1 -0 -0,
       -1 -0 -0,
       -1 -0 -0,
       -1 -0 -0,
       0 1 0,
       0 1 0,
       0 1 0,
       0 1 0,
       0 1 0,
       0 1 0,
       0 1 0,
       0 1 0,
       0 1 0,
       0 1 0,
       0 1 0,
       0 1 0,
       0 1 0,
       0 1 0,
       1 -0 -0,
       1 -0 -0,
       1 -0 -0,
       1 -0 -0,
       1 -0 -0,
       -0 -1 -0,
       -0 -1 -0,
       -0 -1 -0,
       -0 -1 -0,
       -0 -1 -0,
       -0 -1 -0,
       1 -0 -0,
       1 -0 -0,
       1 -0 -0,
       1 -0 -0,
       1 -0 -0,
       1 -0 -0,
       0 0 1,
       0 0 1,
       0 0 1,
       0 0 1,
       0 0 1,
       0 0 1,
       0 0 1,
       0 0 1,
       0 -0.707107 0.707107,
       0 -0.707107 0.707107,
       0 -0.707107 0.707107,
       0 -0.707107 0.707107,
       -1 -0 -0,
       -1 -0 -0,
       -1 -0 -0,
       -1 -0 -0,
       -1 -0 -0,
       -1 -0 -0,
       -0 -0 -1,
       -0 -0 -1,
       -0 -0 -1,
       -0 -0 -1,
       -0 -0 -1,
       -0 -0 -1,
       -0 -0 -1,
       -0 -0 -1,
       -0 -0 -1,
       -0 -0 -1,
       -0 -0 -1,
       -0 -0 -1,
       1 -0 -0,
       1 -0 -0,
       1 -0 -0,
       1 -0 -0,
       0 1 0,
       0 1 0,
       0 1 0,
       0 1 0,
       0 1 0,
       0 1 0,
       0 1 0,
       0 1 0,
       0 1 0,
       0 1 0,
       0 1 0,
       0 1 0,
       0 1 0,
       0 1 0,
       0 1 0,
       0 1 0,
       0 1 0,
       0 1 0,
       0 1 0,
       0 1 0,
       0 1 0,
       0 1 0,
       0 1 0,
       0 1 0,
       0.980785 -0 -0.19509,
       0.980785 -0 -0.19509,
       1 -0 -8.74228e-008,
       0.83147 -0 -0.55557,
       0.83147 -0 -0.55557,
       0.92388 -0 -0.382683,
       0.92388 -0 -0.382683,
       1 -0 -8.74228e-008,
       0.707107 -0 -0.707107,
       0.707107 -0 -0.707107,
       0.382684 -0 -0.92388,
       0.382684 -0 -0.92388,
       0.55557 -0 -0.831469,
       -1.19249e-008 -0 -1,
       -1.19249e-008 -0 -1,
       0.19509 -0 -0.980785,
       0.19509 -0 -0.980785,
       0.55557 -0 -0.831469,
       -0 -1 -0,
       -0 -1 -0,
       -0 -1 -0,
       -0 -1 -0,
       -0 -1 -0,
       -0 -1 -0,
       -0 -1 -0,
       -0 -1 -0,
       -0 -1 -0,
       -0 -1 -0,
       -0 -1 -0,
       -0 -1 -0,
       -0 -1 -0,
       -0 -1 -0,
       -0 -1 -0,
       -0 -1 -0,
       -0 -1 -0,
       -0 -1 -0,
       -0 -1 -0,
       -0 -1 -0,
       -0 -1 -0,
       -0 -1 -0,
       -0 -1 -0,
       -0 -1 -0,
       0 -0.707107 0.707107,
       0 -0.707107 0.707107,
       0 -0.707107 0.707107,
       0 -0.707107 0.707107,
       -0.707107 0 0.707107,
       -0.707107 0 0.707107,
       -0.707107 0 0.707107,
       -0.707107 0 0.707107,
       0 -0.707107 0.707107,
       0 -0.707107 0.707107,
       0 -0.707107 0.707107,
       0 -0.707107 0.707107,
       -0.707107 0 0.707107,
       -0.707107 0 0.707107,
       -0.707107 0 0.707107,
       -0.707107 0 0.707107,
       0.707107 0 0.707107,
       0.707107 0 0.707107,
       0.707107 0 0.707107,
       0.707107 0 0.707107,
       0 -0.707107 0.707107,
       0 -0.707107 0.707107,
       0 -0.707107 0.707107,
       0 -0.707107 0.707107,
       0.707107 0 0.707107,
       0.707107 0 0.707107,
       0.707107 0 0.707107,
       0.707107 0 0.707107,
       1 -0 -0,
       1 -0 -0,
       1 -0 -0,
       1 -0 -0,
       -1 -0 -0,
       -1 -0 -0,
       -1 -0 -0,
       -1 -0 -0,
       -0.382684 -0 -0.923879,
       -0.382684 -0 -0.923879,
       -0.19509 -0 -0.980785,
       -0.19509 -0 -0.980785,
       -1.19249e-008 -0 -1,
       -1.19249e-008 -0 -1,
       -0.55557 -0 -0.83147,
       -0.55557 -0 -0.83147,
       -0.980785 -0 -0.19509,
       -1 -0 -0,
       -1 -0 -0,
       -0.83147 -0 -0.55557,
       -0.83147 -0 -0.55557,
       -0.707107 -0 -0.707107,
       -0.980785 -0 -0.19509,
       -0.92388 -0 -0.382683,
       -0.92388 -0 -0.382683,
       -0.707107 -0 -0.707107,
       -0 -0 -1,
       -0 -0 -1,
       -0 -0 -1,
       -0 -0 -1,
       1 0 0,
       1 0 0,
       1 0 0,
       1 0 0,
       -1 0 0,
       -1 0 0,
       -1 0 0,
       -1 0 0,
       -0 -0.707107 0.707107,
       -0 -0.707107 0.707107,
       -0 -0.707107 0.707107,
       -0 -0.707107 0.707107,
       -1 0 0,
       -1 0 0,
       -1 0 0,
       -1 0 0,
       1 0 0,
       1 0 0,
       1 0 0,
       1 0 0,
       1 -0 -0,
       1 -0 -0,
       1 -0 -0,
       1 -0 -0,
       1 -0 -0,
       -1 -0 -0,
       -1 -0 -0,
       -1 -0 -0,
       -1 -0 -0,
       -1 -0 -0,
       -1 -0 -0,
       -1 -0 -0,
       -1 -0 -0,
       0 1 0,
       0 1 0,
       0 1 0,
       0 1 0,
       1 0 0,
       1 0 0,
       1 0 0,
       1 0 0,
       1 0 0,
       1 0 0,
       1 0 0,
       1 0 0,
       0 -1 0,
       0 -1 0,
       0 -1 0,
       0 -1 0,
       0 0 1,
       0 0 1,
       0 0 1,
       0 0 1,
       0 0 1,
       0 0 1,
       0 0 1,
       0 0 1,
       0 0 1,
       0 0 1,
       1 0 0,
       1 0 0,
       1 0 0,
       1 0 0,
       1 0 0,
       1 0 0,
       1 0 0,
       1 0 0,
       1 0 0,
       1 0 0,
       1 0 0,
       1 0 0,
       1 0 0,
       1 0 0,
       1 0 0,
       1 0 0,
       1 0 0,
       1 0 0,
       1 0 0,
       1 0 0,
       0 0 -1,
       0 0 -1,
       0 0 -1,
       0 0 -1,
       0 0 -1,
       0 0 -1,
       -1 0 0,
       -1 0 0,
       -1 0 0,
       -1 0 0,
       -1 0 0,
       -1 0 0,
       -1 0 0,
       -1 0 0,
       -1 0 0,
       -1 0 0,
       -1 0 0,
       -1 0 0,
       -1 0 0,
       -1 0 0,
       -1 0 0,
       -1 0 0,
       -1 0 0,
       -1 0 0,
       -1 0 0,
       -1 0 0,
       0 -1 0,
       0 -1 0,
       0 -1 0,
       0 -1 0,
       0 -1 0,
       0 -1 0,
       0 -1 0,
       0 -1 0,
       0 -1 0,
       0 -1 0,
       0 -1 0,
       0 -1 0,
       0 -1 0,
       0 -1 0,
       0 -1 0,
       0 -1 0,
       0 -1 0,
       0 -1 0,
       0 -1 0,
       0 -1 0,
       0 -1 0,
       0 -1 0,
       0 -1 0,
       0 -1 0,
       0 -1 0,
       0 -1 0,
       0 -1 0,
       0 -1 0,
       0 -1 0,
       0 -1 0,
       0 -1 0,
       0 -1 0,
       0 -1 0,
       0 -1 0,
       0 -1 0,
       0 -1 0,
       -1 -0 -0,
       -1 -0 -0,
       -1 -0 -0,
       -1 -0 -0,
       -1 -0 -0,
       -1 -0 -0,
       -1 -0 -0,
       -1 -0 -0,
       0 1 0,
       0 1 0,
       0 1 0,
       0 1 0,
       1 0 0,
       1 0 0,
       1 0 0,
       1 0 0,
       1 0 0,
       1 0 0,
       1 0 0,
       1 0 0,
       0 -1 0,
       0 -1 0,
       0 -1 0,
       0 -1 0,
       0 0 1,
       0 0 1,
       0 0 1,
       0 0 1,
       0 0 -1,
       0 0 -1,
       0 0 -1,
       0 0 -1,
       0 0 -1,
       0 0 -1,
       1 0 0,
       1 0 0,
       1 0 0,
       1 0 0,
       1 0 0,
       1 0 0,
       1 0 0,
       1 0 0,
       1 0 0,
       1 0 0,
       1 0 0,
       1 0 0,
       1 0 0,
       1 0 0,
       1 0 0,
       1 0 0,
       1 0 0,
       1 0 0,
       1 0 0,
       1 0 0,
       0 0 -1,
       0 0.170345 -0.985384,
       0 0.170345 -0.985384,
       0 0.335711 -0.941965,
       0 0.491263 -0.871011,
       0 0.491263 -0.871011,
       0 0.335711 -0.941965,
       0 0 -1,
       0 0.632456 -0.774597,
       0 0.632456 -0.774597,
       0 0.755161 -0.65554,
       0 0.855791 -0.517321,
       0 0.855791 -0.517321,
       0 0.931407 -0.36398,
       0 0.979796 -0.2,
       0 0.979796 -0.2,
       0 0.931407 -0.36398,
       0 0.755161 -0.65554,
       0 0 -1,
       0 0 -1,
       0 0 -1,
       0 0 -1,
       0 0 -1,
       0 0 -1,
       0 0 -1,
       0 0 -1,
       0 0 -1,
       0 0 -1,
       0 0 -1,
       0 0 -1,
       0 0 -1,
       0 0 -1,
       0 0 -1,
       0 0 -1,
       0 0 -1,
       0 0 -1,
       0 0 -1,
       0 0 -1,
       0 0 -1,
       0 0 -1,
       0 0 -1,
       0 0 -1,
       0 0 -1,
       0 0 -1,
       0 0 -1,
       0 0 -1,
       0 0 -1,
       0 0 -1,
       0 0 -1,
       0 0 -1,
       0 0 -1,
       0 0 -1,
       0 0 -1,
       0 0 -1,
       -0 -0.28578 0.958295,
       -0 -0.28578 0.958295,
       -0 -0 1,
       -0 -0 1,
       -0 -0.547723 0.83666,
       -0 -0.547723 0.83666,
       -0 -0.916515 0.4,
       -0 -0.916515 0.4,
       -0 -0.76398 0.645239,
       -0 -0.76398 0.645239,
       -1 0 0,
       -1 0 0,
       -1 0 0,
       -1 0 0,
       -1 0 0,
       -1 0 0,
       -1 0 0,
       -1 0 0,
       -1 0 0,
       -1 0 0,
       -1 0 0,
       -1 0 0,
       -1 0 0,
       -1 0 0,
       -1 0 0,
       -1 0 0,
       -1 0 0,
       -1 0 0,
       -1 0 0,
       -1 0 0,
       0 0 -1,
       0 0 -1,
       0 0 -1,
       0 0 -1,
       0 0 -1,
       0 0 -1,
       -1 -0 -0,
       -1 -0 -0,
       -1 -0 -0,
       -1 -0 -0,
       -1 -0 -0,
       -1 -0 -0,
       -1 -0 -0,
       -1 -0 -0,
       0 -1 0,
       0 -1 0,
       0 -1 0,
       0 -1 0,
       0 0 1,
       0 0 1,
       0 0 1,
       0 0 1,
       0 1 0,
       0 1 0,
       0 1 0,
       0 1 0,
       1 0 0,
       1 0 0,
       1 0 0,
       1 0 0,
       1 0 0,
       1 0 0,
       1 0 0,
       1 0 0,
       0 0 1,
       0 0 1,
       0 0 1,
       0 0 1,
       0 0 1,
       0 0 1,
       1 0 0,
       1 0 0,
       1 0 0,
       1 0 0,
       1 0 0,
       1 0 0,
       1 0 0,
       1 0 0,
       1 0 0,
       1 0 0,
       1 0 0,
       1 0 0,
       1 0 0,
       1 0 0,
       1 0 0,
       1 0 0,
       1 0 0,
       1 0 0,
       1 0 0,
       1 0 0,
       0 0 -1,
       0 0.170345 -0.985384,
       0 0.170345 -0.985384,
       0 0.335711 -0.941965,
       0 0.491263 -0.871011,
       0 0.491263 -0.871011,
       0 0.335711 -0.941965,
       0 0 -1,
       0 0.632456 -0.774597,
       0 0.632456 -0.774597,
       0 0.755161 -0.65554,
       0 0.855791 -0.517321,
       0 0.855791 -0.517321,
       0 0.931407 -0.36398,
       0 0.979796 -0.2,
       0 0.979796 -0.2,
       0 0.931407 -0.36398,
       0 0.755161 -0.65554,
       0 1 0,
       0 1 0,
       0 1 0,
       0 1 0,
       -1 0 0,
       -1 0 0,
       -1 0 0,
       -1 0 0,
       -1 0 0,
       -1 0 0,
       -1 0 0,
       -1 0 0,
       -1 0 0,
       -1 0 0,
       -1 0 0,
       -1 0 0,
       -1 0 0,
       -1 0 0,
       -1 0 0,
       -1 0 0,
       -1 0 0,
       -1 0 0,
       -1 0 0,
       -1 0 0,
       0 0 -1,
       0 0 -1,
       0 0 -1,
       0 0 -1,
       0 0 -1,
       0 0 -1,
       -1 -0 -0,
       -1 -0 -0,
       -1 -0 -0,
       -1 -0 -0,
       -1 -0 -0,
       -1 -0 -0,
       -1 -0 -0,
       -1 -0 -0,
       0 1 0,
       0 1 0,
       0 1 0,
       0 1 0,
       1 0 0,
       1 0 0,
       1 0 0,
       1 0 0,
       1 0 0,
       1 0 0,
       1 0 0,
       1 0 0,
       0 -1 0,
       0 -1 0,
       0 -1 0,
       0 -1 0,
       0 0 1,
       0 0 1,
       0 0 1,
       0 0 1,
       0 0 1,
       0 0 1,
       0 0 1,
       0 0 1,
       0 0 1,
       0 0 1,
       1 0 0,
       1 0 0,
       1 0 0,
       1 0 0,
       1 0 0,
       1 0 0,
       1 0 0,
       1 0 0,
       1 0 0,
       1 0 0,
       1 0 0,
       1 0 0,
       1 0 0,
       1 0 0,
       1 0 0,
       1 0 0,
       1 0 0,
       1 0 0,
       1 0 0,
       1 0 0,
       0 0 -1,
       0 0.170345 -0.985384,
       0 0.170345 -0.985384,
       0 0.335711 -0.941965,
       0 0.491263 -0.871011,
       0 0.491263 -0.871011,
       0 0.335711 -0.941965,
       0 0 -1,
       0 0.632456 -0.774597,
       0 0.632456 -0.774597,
       0 0.755161 -0.65554,
       0 0.855791 -0.517321,
       0 0.855791 -0.517321,
       0 0.931407 -0.36398,
       0 0.979796 -0.2,
       0 0.979796 -0.2,
       0 0.931407 -0.36398,
       0 0.755161 -0.65554,
       0 1 0,
       0 1 0,
       0 1 0,
       0 1 0,
       -1 0 0,
       -1 0 0,
       -1 0 0,
       -1 0 0,
       -1 0 0,
       -1 0 0,
       -1 0 0,
       -1 0 0,
       -1 0 0,
       -1 0 0,
       -1 0 0,
       -1 0 0,
       -1 0 0,
       -1 0 0,
       -1 0 0,
       -1 0 0,
       -1 0 0,
       -1 0 0,
       -1 0 0,
       -1 0 0,
       -0 -0 -1,
       -0 -0 -1,
       -0 -0 -1,
       -0 -0 -1,
       0 0 1,
       0 0 1,
       0 0 1,
       0 0 1,
       0 0 1,
       0 0 1,
       -0 -0.28578 0.958295,
       -0 -0.28578 0.958295,
       -0 -0 1,
       -0 -0 1,
       -0 -0.547723 0.83666,
       -0 -0.547723 0.83666,
       -0 -0.916515 0.4,
       -0 -0.916515 0.4,
       -0 -0.76398 0.645239,
       -0 -0.76398 0.645239,
       0 -1 0,
       0 -1 0,
       0 -1 0,
       0 -1 0,
       -0 -0.28578 0.958295,
       -0 -0.28578 0.958295,
       -0 -0 1,
       -0 -0 1,
       -0 -0.547723 0.83666,
       -0 -0.547723 0.83666,
       -0 -0.916515 0.4,
       -0 -0.916515 0.4,
       -0 -0.76398 0.645239,
       -0 -0.76398 0.645239,
       0 -1 0,
       0 -1 0,
       0 -1 0,
       0 -1 0,
       -0 -0 -1,
       -0 -0 -1,
       -0 -0 -1,
       -0 -0 -1,
       -0 -0.28578 0.958295,
       -0 -0.28578 0.958295,
       -0 -0 1,
       -0 -0 1,
       -0 -0.547723 0.83666,
       -0 -0.547723 0.83666,
       -0 -0.916515 0.4,
       -0 -0.916515 0.4,
       -0 -0.76398 0.645239,
       -0 -0.76398 0.645239,
       0 -1 0,
       0 -1 0,
       0 -1 0,
       0 -1 0,
       -0 -0 -1,
       -0 -0 -1,
       -0 -0 -1,
       -0 -0 -1,
       0 1 0,
       0 1 0,
       0 1 0,
       0 1 0,
       0 0 -1,
       0 0.170345 -0.985384,
       0 0.170345 -0.985384,
       0 0.335711 -0.941965,
       0 0.491263 -0.871011,
       0 0.491263 -0.871011,
       0 0.335711 -0.941965,
       0 0 -1,
       0 0.632456 -0.774597,
       0 0.632456 -0.774597,
       0 0.755161 -0.65554,
       0 0.855791 -0.517321,
       0 0.855791 -0.517321,
       0 0.931407 -0.36398,
       0 0.979796 -0.2,
       0 0.979796 -0.2,
       0 0.931407 -0.36398,
       0 0.755161 -0.65554,
       0 1 0,
       0 1 0,
       0 1 0,
       0 1 0,
       -0 -0 -1,
       -0 -0 -1,
       -0 -0 -1,
       -0 -0 -1,
       -0 -0 -1,
       -0 -0 -1,
       -0 -0 -1,
       -0 -0 -1,
       1 0 0,
       1 0 0,
       1 0 0,
       1 0 0,
       1 0 0,
       1 0 0,
       0 1 0,
       0 1 0,
       0 1 0,
       0 1 0,
       -1 0 0,
       -1 0 0,
       -1 0 0,
       -1 0 0,
       -1 0 0,
       -1 0 0,
       0 1 0,
       0 1 0,
       0 1 0,
       0 1 0,
       0 -1 0,
       0 -1 0,
       0 -1 0,
       0 -1 0,
       0.707107 -0.707107 0,
       0.707107 -0.707107 0,
       0.707107 -0.707107 0,
       0.707107 -0.707107 0,
       -0.707107 -0.707107 0,
       -0.707107 -0.707107 0,
       -0.707107 -0.707107 0,
       -0.707107 -0.707107 0,
      ]
     }
     coordIndex [
      0 , 1 , 2 , -1,
      3 , 2 , 4 , -1,
      5 , 3 , 6 , -1,
      4 , 6 , 3 , -1,
      0 , 3 , 7 , -1,
      0 , 2 , 3 , -1,
      8 , 5 , 6 , -1,
      9 , 10 , 7 , -1,
      11 , 9 , 7 , -1,
      12 , 11 , 8 , -1,
      8 , 13 , 12 , -1,
      12 , 9 , 11 , -1,
      6 , 13 , 8 , -1,
      7 , 3 , 11 , -1,
      14 , 15 , 16 , -1,
      16 , 17 , 14 , -1,
      18 , 4 , 19 , -1,
      19 , 20 , 18 , -1,
      0 , 21 , 22 , -1,
      21 , 0 , 23 , -1,
      0 , 22 , 24 , -1,
      25 , 24 , 22 , -1,
      21 , 26 , 27 , -1,
      26 , 23 , 28 , -1,
      23 , 26 , 21 , -1,
      28 , 23 , 29 , -1,
      29 , 30 , 28 , -1,
      26 , 31 , 27 , -1,
      32 , 10 , 15 , -1,
      15 , 14 , 32 , -1,
      29 , 23 , 10 , -1,
      10 , 33 , 29 , -1,
      34 , 27 , 35 , -1,
      35 , 36 , 34 , -1,
      18 , 37 , 38 , -1,
      38 , 37 , 24 , -1,
      18 , 38 , 39 , -1,
      38 , 24 , 40 , -1,
      41 , 24 , 37 , -1,
      40 , 24 , 42 , -1,
      43 , 39 , 44 , -1,
      43 , 18 , 39 , -1,
      44 , 39 , 45 , -1,
      46 , 44 , 45 , -1,
      47 , 46 , 48 , -1,
      47 , 49 , 46 , -1,
      44 , 46 , 49 , -1,
      50 , 29 , 51 , -1,
      52 , 51 , 29 , -1,
      52 , 29 , 14 , -1,
      32 , 14 , 29 , -1,
      52 , 14 , 53 , -1,
      54 , 55 , 48 , -1,
      55 , 54 , 56 , -1,
      57 , 55 , 56 , -1,
      56 , 52 , 57 , -1,
      48 , 58 , 59 , -1,
      52 , 53 , 57 , -1,
      48 , 59 , 47 , -1,
      48 , 55 , 58 , -1,
      36 , 60 , 61 , -1,
      35 , 62 , 36 , -1,
      60 , 36 , 62 , -1,
      63 , 34 , 36 , -1,
      36 , 61 , 63 , -1,
      64 , 65 , 66 , -1,
      67 , 66 , 65 , -1,
      68 , 38 , 40 , -1,
      40 , 69 , 68 , -1,
      34 , 21 , 27 , -1,
      70 , 71 , 34 , -1,
      21 , 34 , 71 , -1,
      72 , 73 , 74 , -1,
      72 , 75 , 73 , -1,
      74 , 73 , 76 , -1,
      72 , 21 , 77 , -1,
      21 , 72 , 22 , -1,
      77 , 78 , 72 , -1,
      79 , 78 , 77 , -1,
      79 , 77 , 60 , -1,
      72 , 78 , 75 , -1,
      75 , 78 , 80 , -1,
      76 , 81 , 82 , -1,
      83 , 81 , 80 , -1,
      81 , 83 , 82 , -1,
      75 , 80 , 81 , -1,
      76 , 82 , 74 , -1,
      84 , 83 , 80 , -1,
      84 , 79 , 85 , -1,
      86 , 87 , 83 , -1,
      83 , 84 , 88 , -1,
      60 , 85 , 79 , -1,
      60 , 26 , 89 , -1,
      90 , 85 , 60 , -1,
      60 , 91 , 90 , -1,
      89 , 91 , 60 , -1,
      92 , 91 , 93 , -1,
      91 , 92 , 94 , -1,
      91 , 94 , 90 , -1,
      90 , 94 , 95 , -1,
      88 , 96 , 86 , -1,
      97 , 87 , 86 , -1,
      86 , 96 , 95 , -1,
      86 , 83 , 88 , -1,
      95 , 96 , 90 , -1,
      98 , 99 , 95 , -1,
      98 , 92 , 93 , -1,
      93 , 99 , 98 , -1,
      95 , 99 , 86 , -1,
      85 , 88 , 84 , -1,
      60 , 71 , 63 , -1,
      63 , 61 , 60 , -1,
      93 , 100 , 101 , -1,
      101 , 102 , 93 , -1,
      72 , 74 , 68 , -1,
      68 , 103 , 72 , -1,
      51 , 28 , 50 , -1,
      101 , 91 , 51 , -1,
      28 , 51 , 91 , -1,
      99 , 93 , 102 , -1,
      102 , 104 , 99 , -1,
      104 , 105 , 99 , -1,
      86 , 99 , 105 , -1,
      106 , 105 , 104 , -1,
      86 , 105 , 107 , -1,
      108 , 86 , 109 , -1,
      110 , 111 , 108 , -1,
      86 , 108 , 111 , -1,
      13 , 97 , 112 , -1,
      97 , 13 , 113 , -1,
      112 , 97 , 114 , -1,
      13 , 112 , 115 , -1,
      115 , 112 , 55 , -1,
      116 , 114 , 97 , -1,
      117 , 87 , 118 , -1,
      113 , 87 , 97 , -1,
      119 , 87 , 113 , -1,
      119 , 118 , 87 , -1,
      43 , 120 , 119 , -1,
      119 , 113 , 43 , -1,
      121 , 87 , 117 , -1,
      122 , 83 , 121 , -1,
      87 , 121 , 83 , -1,
      123 , 124 , 83 , -1,
      82 , 83 , 124 , -1,
      125 , 126 , 124 , -1,
      82 , 124 , 126 , -1,
      127 , 128 , 129 , -1,
      130 , 128 , 127 , -1,
      125 , 131 , 130 , -1,
      127 , 125 , 130 , -1,
      114 , 110 , 132 , -1,
      132 , 133 , 114 , -1,
      117 , 128 , 134 , -1,
      134 , 121 , 117 , -1,
      135 , 133 , 132 , -1,
      132 , 107 , 135 , -1,
      136 , 133 , 105 , -1,
      114 , 133 , 136 , -1,
      137 , 138 , 114 , -1,
      136 , 137 , 114 , -1,
      139 , 129 , 140 , -1,
      141 , 140 , 129 , -1,
      142 , 129 , 139 , -1,
      141 , 129 , 118 , -1,
      143 , 144 , 145 , -1,
      146 , 144 , 143 , -1,
      112 , 114 , 143 , -1,
      145 , 112 , 143 , -1,
      147 , 142 , 148 , -1,
      148 , 149 , 147 , -1,
      145 , 150 , 151 , -1,
      145 , 151 , 152 , -1,
      145 , 153 , 154 , -1,
      152 , 153 , 145 , -1,
      154 , 153 , 155 , -1,
      154 , 156 , 157 , -1,
      156 , 154 , 155 , -1,
      154 , 157 , 158 , -1,
      159 , 160 , 154 , -1,
      158 , 159 , 154 , -1,
      154 , 160 , 47 , -1,
      161 , 162 , 163 , -1,
      47 , 164 , 161 , -1,
      148 , 163 , 149 , -1,
      149 , 163 , 162 , -1,
      47 , 161 , 163 , -1,
      165 , 166 , 47 , -1,
      167 , 165 , 47 , -1,
      168 , 169 , 47 , -1,
      47 , 169 , 164 , -1,
      168 , 47 , 166 , -1,
      167 , 47 , 160 , -1,
      162 , 170 , 147 , -1,
      164 , 171 , 172 , -1,
      161 , 172 , 170 , -1,
      162 , 147 , 149 , -1,
      161 , 164 , 172 , -1,
      170 , 162 , 161 , -1,
      169 , 173 , 164 , -1,
      173 , 171 , 164 , -1,
      166 , 174 , 175 , -1,
      167 , 176 , 177 , -1,
      165 , 177 , 174 , -1,
      175 , 169 , 168 , -1,
      174 , 166 , 165 , -1,
      177 , 165 , 167 , -1,
      166 , 175 , 168 , -1,
      173 , 169 , 175 , -1,
      178 , 146 , 138 , -1,
      179 , 178 , 138 , -1,
      180 , 181 , 182 , -1,
      180 , 179 , 138 , -1,
      182 , 179 , 180 , -1,
      183 , 184 , 180 , -1,
      181 , 180 , 184 , -1,
      185 , 183 , 180 , -1,
      180 , 186 , 187 , -1,
      180 , 187 , 185 , -1,
      127 , 186 , 180 , -1,
      170 , 172 , 127 , -1,
      127 , 172 , 171 , -1,
      147 , 129 , 142 , -1,
      170 , 129 , 147 , -1,
      129 , 170 , 127 , -1,
      127 , 174 , 177 , -1,
      127 , 177 , 176 , -1,
      127 , 173 , 175 , -1,
      171 , 173 , 127 , -1,
      174 , 127 , 175 , -1,
      186 , 127 , 176 , -1,
      188 , 48 , 46 , -1,
      46 , 127 , 188 , -1,
      189 , 54 , 137 , -1,
      48 , 137 , 54 , -1,
      190 , 56 , 54 , -1,
      54 , 106 , 190 , -1,
      66 , 52 , 104 , -1,
      56 , 104 , 52 , -1,
      127 , 46 , 45 , -1,
      45 , 125 , 127 , -1,
      125 , 45 , 126 , -1,
      39 , 126 , 45 , -1,
      126 , 39 , 191 , -1,
      38 , 191 , 39 , -1,
      74 , 82 , 126 , -1,
      126 , 68 , 74 , -1,
      146 , 192 , 151 , -1,
      151 , 150 , 146 , -1,
      158 , 185 , 187 , -1,
      159 , 187 , 193 , -1,
      159 , 158 , 187 , -1,
      193 , 160 , 159 , -1,
      157 , 183 , 158 , -1,
      183 , 185 , 158 , -1,
      152 , 151 , 178 , -1,
      155 , 181 , 184 , -1,
      152 , 179 , 182 , -1,
      153 , 182 , 181 , -1,
      184 , 157 , 156 , -1,
      181 , 155 , 153 , -1,
      182 , 153 , 152 , -1,
      155 , 184 , 156 , -1,
      152 , 178 , 179 , -1,
      183 , 157 , 184 , -1,
      186 , 176 , 167 , -1,
      167 , 160 , 186 , -1,
      55 , 112 , 145 , -1,
      145 , 59 , 55 , -1,
      47 , 140 , 141 , -1,
      141 , 44 , 47 , -1,
      121 , 134 , 124 , -1,
      124 , 122 , 121 , -1,
      43 , 6 , 4 , -1,
      4 , 18 , 43 , -1,
      17 , 12 , 13 , -1,
      13 , 57 , 17 , -1,
      40 , 72 , 69 , -1,
      42 , 22 , 40 , -1,
      72 , 40 , 22 , -1,
      94 , 194 , 195 , -1,
      195 , 95 , 94 , -1,
      196 , 197 , 198 , -1,
      198 , 199 , 196 , -1,
      98 , 95 , 200 , -1,
      200 , 201 , 98 , -1,
      202 , 203 , 92 , -1,
      92 , 98 , 202 , -1,
      204 , 205 , 206 , -1,
      206 , 207 , 204 , -1,
      208 , 194 , 94 , -1,
      94 , 92 , 208 , -1,
      201 , 195 , 194 , -1,
      194 , 203 , 201 , -1,
      209 , 198 , 210 , -1,
      210 , 198 , 211 , -1,
      211 , 197 , 205 , -1,
      197 , 211 , 198 , -1,
      212 , 213 , 214 , -1,
      212 , 214 , 215 , -1,
      216 , 215 , 217 , -1,
      215 , 216 , 212 , -1,
      216 , 217 , 218 , -1,
      219 , 220 , 216 , -1,
      218 , 219 , 216 , -1,
      221 , 222 , 223 , -1,
      224 , 223 , 222 , -1,
      223 , 216 , 221 , -1,
      221 , 216 , 220 , -1,
      225 , 226 , 227 , -1,
      226 , 225 , 228 , -1,
      227 , 229 , 230 , -1,
      229 , 227 , 226 , -1,
      198 , 229 , 226 , -1,
      196 , 224 , 206 , -1,
      206 , 224 , 207 , -1,
      207 , 231 , 232 , -1,
      231 , 207 , 224 , -1,
      233 , 234 , 235 , -1,
      236 , 237 , 235 , -1,
      207 , 232 , 236 , -1,
      236 , 232 , 237 , -1,
      237 , 233 , 235 , -1,
      238 , 239 , 240 , -1,
      238 , 240 , 241 , -1,
      242 , 243 , 235 , -1,
      241 , 235 , 243 , -1,
      235 , 241 , 240 , -1,
      242 , 235 , 234 , -1,
      244 , 210 , 245 , -1,
      210 , 244 , 246 , -1,
      246 , 244 , 247 , -1,
      248 , 210 , 246 , -1,
      247 , 244 , 249 , -1,
      250 , 251 , 252 , -1,
      251 , 250 , 253 , -1,
      252 , 254 , 250 , -1,
      254 , 252 , 255 , -1,
      250 , 254 , 256 , -1,
      257 , 254 , 255 , -1,
      256 , 258 , 259 , -1,
      255 , 260 , 257 , -1,
      250 , 261 , 253 , -1,
      250 , 256 , 11 , -1,
      262 , 263 , 11 , -1,
      11 , 264 , 244 , -1,
      264 , 11 , 263 , -1,
      263 , 265 , 264 , -1,
      262 , 11 , 256 , -1,
      198 , 264 , 265 , -1,
      244 , 204 , 11 , -1,
      265 , 266 , 198 , -1,
      262 , 256 , 259 , -1,
      11 , 204 , 267 , -1,
      258 , 268 , 259 , -1,
      260 , 269 , 270 , -1,
      260 , 270 , 257 , -1,
      261 , 271 , 272 , -1,
      269 , 273 , 270 , -1,
      272 , 253 , 261 , -1,
      268 , 274 , 275 , -1,
      266 , 276 , 199 , -1,
      266 , 199 , 198 , -1,
      277 , 267 , 207 , -1,
      276 , 223 , 199 , -1,
      278 , 268 , 275 , -1,
      207 , 267 , 204 , -1,
      268 , 278 , 259 , -1,
      73 , 279 , 280 , -1,
      280 , 76 , 73 , -1,
      281 , 282 , 253 , -1,
      253 , 272 , 281 , -1,
      81 , 76 , 283 , -1,
      283 , 284 , 81 , -1,
      285 , 286 , 75 , -1,
      75 , 81 , 285 , -1,
      255 , 287 , 288 , -1,
      288 , 260 , 255 , -1,
      289 , 279 , 73 , -1,
      73 , 75 , 289 , -1,
      284 , 280 , 279 , -1,
      279 , 286 , 284 , -1,
      281 , 290 , 291 , -1,
      291 , 290 , 260 , -1,
      260 , 292 , 293 , -1,
      292 , 260 , 290 , -1,
      294 , 295 , 296 , -1,
      294 , 296 , 297 , -1,
      298 , 297 , 299 , -1,
      297 , 298 , 294 , -1,
      298 , 299 , 300 , -1,
      301 , 302 , 298 , -1,
      300 , 301 , 298 , -1,
      303 , 292 , 304 , -1,
      290 , 304 , 292 , -1,
      304 , 298 , 303 , -1,
      303 , 298 , 302 , -1,
      305 , 306 , 307 , -1,
      306 , 305 , 308 , -1,
      307 , 309 , 310 , -1,
      309 , 307 , 306 , -1,
      311 , 309 , 306 , -1,
      292 , 303 , 312 , -1,
      302 , 301 , 313 , -1,
      303 , 302 , 314 , -1,
      293 , 292 , 312 , -1,
      302 , 313 , 314 , -1,
      314 , 312 , 303 , -1,
      313 , 300 , 315 , -1,
      313 , 301 , 300 , -1,
      299 , 297 , 316 , -1,
      296 , 317 , 318 , -1,
      297 , 296 , 319 , -1,
      320 , 315 , 299 , -1,
      319 , 316 , 297 , -1,
      318 , 319 , 296 , -1,
      320 , 299 , 316 , -1,
      299 , 315 , 300 , -1,
      244 , 226 , 321 , -1,
      321 , 249 , 244 , -1,
      322 , 323 , 324 , -1,
      324 , 325 , 322 , -1,
      326 , 327 , 328 , -1,
      328 , 329 , 326 , -1,
      318 , 317 , 330 , -1,
      330 , 331 , 332 , -1,
      333 , 334 , 335 , -1,
      336 , 337 , 213 , -1,
      338 , 339 , 340 , -1,
      330 , 341 , 318 , -1,
      335 , 341 , 332 , -1,
      340 , 342 , 343 , -1,
      332 , 342 , 335 , -1,
      343 , 342 , 332 , -1,
      341 , 330 , 332 , -1,
      335 , 342 , 333 , -1,
      336 , 344 , 343 , -1,
      240 , 343 , 345 , -1,
      343 , 240 , 336 , -1,
      344 , 340 , 343 , -1,
      336 , 240 , 337 , -1,
      340 , 344 , 338 , -1,
      252 , 306 , 308 , -1,
      308 , 346 , 252 , -1,
      248 , 230 , 209 , -1,
      210 , 248 , 209 , -1,
      227 , 230 , 248 , -1,
      246 , 227 , 248 , -1,
      249 , 321 , 225 , -1,
      225 , 246 , 247 , -1,
      225 , 247 , 249 , -1,
      227 , 246 , 225 , -1,
      347 , 348 , 349 , -1,
      276 , 350 , 349 , -1,
      351 , 352 , 276 , -1,
      276 , 352 , 350 , -1,
      350 , 347 , 349 , -1,
      353 , 338 , 354 , -1,
      353 , 354 , 355 , -1,
      356 , 357 , 349 , -1,
      355 , 349 , 357 , -1,
      349 , 355 , 354 , -1,
      356 , 349 , 348 , -1,
      322 , 358 , 265 , -1,
      358 , 322 , 359 , -1,
      359 , 322 , 360 , -1,
      361 , 358 , 359 , -1,
      360 , 322 , 325 , -1,
      362 , 363 , 364 , -1,
      364 , 363 , 365 , -1,
      365 , 366 , 352 , -1,
      366 , 365 , 363 , -1,
      367 , 368 , 369 , -1,
      369 , 88 , 367 , -1,
      370 , 371 , 372 , -1,
      372 , 363 , 370 , -1,
      373 , 368 , 367 , -1,
      367 , 374 , 373 , -1,
      375 , 369 , 368 , -1,
      368 , 376 , 375 , -1,
      96 , 88 , 369 , -1,
      369 , 377 , 96 , -1,
      375 , 373 , 374 , -1,
      374 , 96 , 375 , -1,
      378 , 379 , 364 , -1,
      364 , 266 , 378 , -1,
      380 , 372 , 381 , -1,
      381 , 372 , 265 , -1,
      265 , 371 , 379 , -1,
      371 , 265 , 372 , -1,
      340 , 382 , 383 , -1,
      340 , 383 , 384 , -1,
      385 , 384 , 386 , -1,
      384 , 385 , 340 , -1,
      385 , 386 , 387 , -1,
      388 , 389 , 385 , -1,
      387 , 388 , 385 , -1,
      390 , 366 , 391 , -1,
      363 , 391 , 366 , -1,
      391 , 385 , 390 , -1,
      390 , 385 , 389 , -1,
      392 , 323 , 393 , -1,
      323 , 392 , 324 , -1,
      393 , 394 , 395 , -1,
      394 , 393 , 323 , -1,
      372 , 394 , 323 , -1,
      366 , 390 , 350 , -1,
      389 , 388 , 348 , -1,
      390 , 389 , 347 , -1,
      352 , 366 , 350 , -1,
      389 , 348 , 347 , -1,
      347 , 350 , 390 , -1,
      348 , 387 , 356 , -1,
      348 , 388 , 387 , -1,
      386 , 384 , 355 , -1,
      383 , 339 , 338 , -1,
      384 , 383 , 353 , -1,
      357 , 356 , 386 , -1,
      353 , 355 , 384 , -1,
      338 , 353 , 383 , -1,
      357 , 386 , 355 , -1,
      386 , 356 , 387 , -1,
      396 , 342 , 340 , -1,
      340 , 397 , 396 , -1,
      398 , 399 , 400 , -1,
      274 , 401 , 400 , -1,
      402 , 403 , 274 , -1,
      274 , 403 , 401 , -1,
      401 , 398 , 400 , -1,
      404 , 333 , 342 , -1,
      404 , 342 , 405 , -1,
      406 , 407 , 400 , -1,
      405 , 400 , 407 , -1,
      400 , 405 , 342 , -1,
      406 , 400 , 399 , -1,
      326 , 408 , 258 , -1,
      408 , 326 , 409 , -1,
      409 , 326 , 410 , -1,
      411 , 408 , 409 , -1,
      410 , 326 , 329 , -1,
      412 , 413 , 414 , -1,
      414 , 413 , 415 , -1,
      415 , 416 , 403 , -1,
      416 , 415 , 413 , -1,
      78 , 417 , 418 , -1,
      418 , 80 , 78 , -1,
      419 , 420 , 421 , -1,
      421 , 413 , 419 , -1,
      84 , 80 , 422 , -1,
      422 , 423 , 84 , -1,
      424 , 425 , 79 , -1,
      79 , 84 , 424 , -1,
      426 , 427 , 414 , -1,
      414 , 268 , 426 , -1,
      428 , 417 , 78 , -1,
      78 , 79 , 428 , -1,
      423 , 418 , 417 , -1,
      417 , 425 , 423 , -1,
      429 , 421 , 430 , -1,
      430 , 421 , 258 , -1,
      258 , 420 , 427 , -1,
      420 , 258 , 421 , -1,
      335 , 431 , 432 , -1,
      335 , 432 , 433 , -1,
      434 , 433 , 435 , -1,
      433 , 434 , 335 , -1,
      434 , 435 , 436 , -1,
      437 , 438 , 434 , -1,
      436 , 437 , 434 , -1,
      439 , 416 , 440 , -1,
      413 , 440 , 416 , -1,
      440 , 434 , 439 , -1,
      439 , 434 , 438 , -1,
      441 , 327 , 442 , -1,
      327 , 441 , 328 , -1,
      442 , 443 , 444 , -1,
      443 , 442 , 327 , -1,
      421 , 443 , 327 , -1,
      416 , 439 , 401 , -1,
      438 , 437 , 399 , -1,
      439 , 438 , 398 , -1,
      403 , 416 , 401 , -1,
      438 , 399 , 398 , -1,
      398 , 401 , 439 , -1,
      399 , 436 , 406 , -1,
      399 , 437 , 436 , -1,
      435 , 433 , 405 , -1,
      432 , 334 , 333 , -1,
      433 , 432 , 404 , -1,
      407 , 406 , 435 , -1,
      404 , 405 , 433 , -1,
      333 , 404 , 432 , -1,
      407 , 435 , 405 , -1,
      435 , 406 , 436 , -1,
      445 , 341 , 335 , -1,
      335 , 446 , 445 , -1,
      314 , 313 , 447 , -1,
      269 , 312 , 447 , -1,
      260 , 293 , 269 , -1,
      269 , 293 , 312 , -1,
      312 , 314 , 447 , -1,
      319 , 318 , 341 , -1,
      319 , 341 , 316 , -1,
      315 , 320 , 447 , -1,
      316 , 447 , 320 , -1,
      447 , 316 , 341 , -1,
      315 , 447 , 313 , -1,
      252 , 448 , 255 , -1,
      448 , 252 , 449 , -1,
      449 , 252 , 450 , -1,
      451 , 448 , 449 , -1,
      450 , 252 , 346 , -1,
      440 , 269 , 445 , -1,
      445 , 434 , 440 , -1,
      309 , 253 , 452 , -1,
      452 , 253 , 255 , -1,
      255 , 282 , 287 , -1,
      282 , 255 , 253 , -1,
      451 , 310 , 309 , -1,
      448 , 451 , 309 , -1,
      307 , 310 , 451 , -1,
      449 , 307 , 451 , -1,
      346 , 308 , 305 , -1,
      305 , 449 , 450 , -1,
      305 , 450 , 346 , -1,
      307 , 449 , 305 , -1,
      287 , 282 , 281 , -1,
      281 , 288 , 287 , -1,
      411 , 444 , 429 , -1,
      408 , 411 , 429 , -1,
      442 , 444 , 411 , -1,
      409 , 442 , 411 , -1,
      329 , 328 , 441 , -1,
      441 , 409 , 410 , -1,
      441 , 410 , 329 , -1,
      442 , 409 , 441 , -1,
      427 , 420 , 419 , -1,
      419 , 414 , 427 , -1,
      391 , 274 , 396 , -1,
      396 , 385 , 391 , -1,
      361 , 395 , 380 , -1,
      358 , 361 , 380 , -1,
      393 , 395 , 361 , -1,
      359 , 393 , 361 , -1,
      325 , 324 , 392 , -1,
      392 , 359 , 360 , -1,
      392 , 360 , 325 , -1,
      393 , 359 , 392 , -1,
      379 , 371 , 370 , -1,
      370 , 364 , 379 , -1,
      223 , 276 , 453 , -1,
      453 , 216 , 223 , -1,
      349 , 344 , 336 , -1,
      336 , 216 , 349 , -1,
      231 , 221 , 237 , -1,
      220 , 219 , 234 , -1,
      221 , 220 , 233 , -1,
      232 , 231 , 237 , -1,
      220 , 234 , 233 , -1,
      233 , 237 , 221 , -1,
      234 , 218 , 242 , -1,
      234 , 219 , 218 , -1,
      217 , 215 , 241 , -1,
      214 , 213 , 239 , -1,
      215 , 214 , 238 , -1,
      243 , 242 , 217 , -1,
      238 , 241 , 215 , -1,
      239 , 238 , 214 , -1,
      243 , 217 , 241 , -1,
      217 , 242 , 218 , -1,
      235 , 240 , 345 , -1,
      345 , 454 , 235 , -1,
      455 , 236 , 235 , -1,
      235 , 456 , 455 , -1,
      271 , 261 , 457 , -1,
      457 , 298 , 271 , -1,
      11 , 455 , 345 , -1,
      345 , 455 , 454 , -1,
      345 , 343 , 8 , -1,
      345 , 8 , 11 , -1,
      343 , 458 , 5 , -1,
      5 , 8 , 343 , -1,
      5 , 332 , 459 , -1,
      459 , 261 , 250 , -1,
      261 , 459 , 457 , -1,
      459 , 250 , 5 , -1,
      457 , 331 , 330 , -1,
      330 , 298 , 457 , -1,
      205 , 197 , 196 , -1,
      196 , 206 , 205 , -1,
      460 , 1 , 0 , -1,
      0 , 24 , 460 , -1,
      20 , 19 , 1 , -1,
      1 , 41 , 20 , -1,
     ]
     normalIndex [
     0 , 1 , 2 , -1,
     3 , 2 , 4 , -1,
     5 , 3 , 6 , -1,
     4 , 6 , 3 , -1,
     0 , 3 , 7 , -1,
     0 , 2 , 3 , -1,
     8 , 5 , 6 , -1,
     9 , 10 , 7 , -1,
     11 , 9 , 7 , -1,
     12 , 11 , 8 , -1,
     8 , 13 , 12 , -1,
     12 , 9 , 11 , -1,
     6 , 13 , 8 , -1,
     7 , 3 , 11 , -1,
     14 , 15 , 16 , -1,
     16 , 17 , 14 , -1,
     18 , 19 , 20 , -1,
     20 , 21 , 18 , -1,
     22 , 23 , 24 , -1,
     23 , 22 , 25 , -1,
     22 , 24 , 26 , -1,
     27 , 26 , 24 , -1,
     23 , 28 , 29 , -1,
     28 , 25 , 30 , -1,
     25 , 28 , 23 , -1,
     30 , 25 , 31 , -1,
     31 , 32 , 30 , -1,
     28 , 33 , 29 , -1,
     34 , 35 , 36 , -1,
     36 , 37 , 34 , -1,
     38 , 39 , 40 , -1,
     40 , 41 , 38 , -1,
     42 , 43 , 44 , -1,
     44 , 45 , 42 , -1,
     46 , 47 , 48 , -1,
     48 , 47 , 49 , -1,
     46 , 48 , 50 , -1,
     48 , 49 , 51 , -1,
     52 , 49 , 47 , -1,
     51 , 49 , 53 , -1,
     54 , 50 , 55 , -1,
     54 , 46 , 50 , -1,
     55 , 50 , 56 , -1,
     57 , 55 , 56 , -1,
     58 , 57 , 59 , -1,
     58 , 60 , 57 , -1,
     55 , 57 , 60 , -1,
     61 , 62 , 63 , -1,
     64 , 63 , 62 , -1,
     64 , 62 , 65 , -1,
     66 , 65 , 62 , -1,
     64 , 65 , 67 , -1,
     68 , 69 , 59 , -1,
     69 , 68 , 70 , -1,
     71 , 69 , 70 , -1,
     70 , 64 , 71 , -1,
     59 , 72 , 73 , -1,
     64 , 67 , 71 , -1,
     59 , 73 , 58 , -1,
     59 , 69 , 72 , -1,
     74 , 75 , 76 , -1,
     77 , 78 , 74 , -1,
     75 , 74 , 78 , -1,
     79 , 80 , 81 , -1,
     81 , 82 , 79 , -1,
     83 , 84 , 85 , -1,
     86 , 85 , 84 , -1,
     87 , 88 , 89 , -1,
     89 , 90 , 87 , -1,
     91 , 92 , 93 , -1,
     94 , 95 , 91 , -1,
     92 , 91 , 95 , -1,
     96 , 97 , 98 , -1,
     96 , 99 , 97 , -1,
     98 , 97 , 100 , -1,
     96 , 101 , 102 , -1,
     101 , 96 , 103 , -1,
     102 , 104 , 96 , -1,
     105 , 104 , 102 , -1,
     105 , 102 , 106 , -1,
     96 , 104 , 99 , -1,
     99 , 104 , 107 , -1,
     100 , 108 , 109 , -1,
     110 , 108 , 107 , -1,
     108 , 110 , 109 , -1,
     99 , 107 , 108 , -1,
     100 , 109 , 98 , -1,
     111 , 110 , 107 , -1,
     111 , 105 , 112 , -1,
     113 , 114 , 110 , -1,
     110 , 111 , 115 , -1,
     106 , 112 , 105 , -1,
     106 , 116 , 117 , -1,
     118 , 112 , 106 , -1,
     106 , 119 , 118 , -1,
     117 , 119 , 106 , -1,
     120 , 119 , 121 , -1,
     119 , 120 , 122 , -1,
     119 , 122 , 118 , -1,
     118 , 122 , 123 , -1,
     115 , 124 , 113 , -1,
     125 , 114 , 113 , -1,
     113 , 124 , 123 , -1,
     113 , 110 , 115 , -1,
     123 , 124 , 118 , -1,
     126 , 127 , 123 , -1,
     126 , 120 , 121 , -1,
     121 , 127 , 126 , -1,
     123 , 127 , 113 , -1,
     112 , 115 , 111 , -1,
     128 , 129 , 130 , -1,
     130 , 131 , 128 , -1,
     132 , 133 , 134 , -1,
     134 , 135 , 132 , -1,
     136 , 137 , 138 , -1,
     138 , 139 , 136 , -1,
     140 , 141 , 142 , -1,
     143 , 144 , 140 , -1,
     141 , 140 , 144 , -1,
     145 , 146 , 147 , -1,
     147 , 148 , 145 , -1,
     149 , 150 , 151 , -1,
     152 , 151 , 150 , -1,
     153 , 150 , 149 , -1,
     152 , 150 , 154 , -1,
     155 , 156 , 157 , -1,
     158 , 159 , 155 , -1,
     156 , 155 , 159 , -1,
     160 , 161 , 162 , -1,
     161 , 160 , 163 , -1,
     162 , 161 , 164 , -1,
     160 , 162 , 165 , -1,
     165 , 162 , 166 , -1,
     167 , 164 , 161 , -1,
     168 , 169 , 170 , -1,
     163 , 169 , 161 , -1,
     171 , 169 , 163 , -1,
     171 , 170 , 169 , -1,
     172 , 173 , 171 , -1,
     171 , 163 , 172 , -1,
     174 , 175 , 176 , -1,
     177 , 178 , 174 , -1,
     175 , 174 , 178 , -1,
     179 , 180 , 181 , -1,
     182 , 181 , 180 , -1,
     183 , 184 , 180 , -1,
     182 , 180 , 184 , -1,
     185 , 186 , 187 , -1,
     188 , 186 , 185 , -1,
     189 , 190 , 188 , -1,
     185 , 189 , 188 , -1,
     191 , 192 , 193 , -1,
     193 , 194 , 191 , -1,
     195 , 196 , 197 , -1,
     197 , 198 , 195 , -1,
     199 , 200 , 201 , -1,
     201 , 202 , 199 , -1,
     203 , 204 , 205 , -1,
     206 , 204 , 203 , -1,
     207 , 208 , 206 , -1,
     203 , 207 , 206 , -1,
     209 , 210 , 211 , -1,
     212 , 211 , 210 , -1,
     213 , 210 , 209 , -1,
     212 , 210 , 214 , -1,
     215 , 216 , 217 , -1,
     218 , 216 , 215 , -1,
     219 , 220 , 215 , -1,
     217 , 219 , 215 , -1,
     221 , 222 , 223 , -1,
     223 , 224 , 221 , -1,
     225 , 226 , 227 , -1,
     225 , 227 , 228 , -1,
     225 , 229 , 230 , -1,
     228 , 229 , 225 , -1,
     230 , 229 , 231 , -1,
     230 , 232 , 233 , -1,
     232 , 230 , 231 , -1,
     230 , 233 , 234 , -1,
     235 , 236 , 230 , -1,
     234 , 235 , 230 , -1,
     230 , 236 , 237 , -1,
     238 , 239 , 240 , -1,
     237 , 241 , 238 , -1,
     242 , 240 , 243 , -1,
     243 , 240 , 239 , -1,
     237 , 238 , 240 , -1,
     244 , 245 , 237 , -1,
     246 , 244 , 237 , -1,
     247 , 248 , 237 , -1,
     237 , 248 , 241 , -1,
     247 , 237 , 245 , -1,
     246 , 237 , 236 , -1,
     249 , 250 , 251 , -1,
     252 , 253 , 254 , -1,
     255 , 254 , 250 , -1,
     249 , 251 , 256 , -1,
     255 , 252 , 254 , -1,
     250 , 249 , 255 , -1,
     257 , 258 , 252 , -1,
     258 , 253 , 252 , -1,
     259 , 260 , 261 , -1,
     262 , 263 , 264 , -1,
     265 , 264 , 260 , -1,
     261 , 257 , 266 , -1,
     260 , 259 , 265 , -1,
     264 , 265 , 262 , -1,
     259 , 261 , 266 , -1,
     258 , 257 , 261 , -1,
     267 , 268 , 269 , -1,
     270 , 267 , 269 , -1,
     271 , 272 , 273 , -1,
     271 , 270 , 269 , -1,
     273 , 270 , 271 , -1,
     274 , 275 , 271 , -1,
     272 , 271 , 275 , -1,
     276 , 274 , 271 , -1,
     271 , 277 , 278 , -1,
     271 , 278 , 276 , -1,
     279 , 277 , 271 , -1,
     280 , 281 , 279 , -1,
     279 , 281 , 282 , -1,
     283 , 284 , 285 , -1,
     280 , 284 , 283 , -1,
     284 , 280 , 279 , -1,
     279 , 286 , 287 , -1,
     279 , 287 , 288 , -1,
     279 , 289 , 290 , -1,
     282 , 289 , 279 , -1,
     286 , 279 , 290 , -1,
     277 , 279 , 288 , -1,
     291 , 292 , 293 , -1,
     293 , 294 , 291 , -1,
     295 , 296 , 297 , -1,
     298 , 297 , 296 , -1,
     299 , 300 , 301 , -1,
     301 , 302 , 299 , -1,
     303 , 304 , 305 , -1,
     306 , 305 , 304 , -1,
     307 , 308 , 309 , -1,
     309 , 310 , 307 , -1,
     311 , 312 , 313 , -1,
     314 , 313 , 312 , -1,
     315 , 316 , 317 , -1,
     318 , 317 , 316 , -1,
     319 , 320 , 321 , -1,
     321 , 322 , 319 , -1,
     323 , 324 , 325 , -1,
     325 , 326 , 323 , -1,
     327 , 328 , 329 , -1,
     330 , 329 , 331 , -1,
     330 , 327 , 329 , -1,
     331 , 332 , 330 , -1,
     333 , 334 , 327 , -1,
     334 , 328 , 327 , -1,
     335 , 336 , 337 , -1,
     338 , 339 , 340 , -1,
     335 , 341 , 342 , -1,
     343 , 342 , 339 , -1,
     340 , 333 , 344 , -1,
     339 , 338 , 343 , -1,
     342 , 343 , 335 , -1,
     338 , 340 , 344 , -1,
     335 , 337 , 341 , -1,
     334 , 333 , 340 , -1,
     345 , 346 , 347 , -1,
     347 , 348 , 345 , -1,
     349 , 350 , 351 , -1,
     351 , 352 , 349 , -1,
     353 , 354 , 355 , -1,
     355 , 356 , 353 , -1,
     357 , 358 , 359 , -1,
     359 , 360 , 357 , -1,
     361 , 362 , 363 , -1,
     363 , 364 , 361 , -1,
     365 , 366 , 367 , -1,
     367 , 368 , 365 , -1,
     369 , 370 , 371 , -1,
     372 , 373 , 369 , -1,
     370 , 369 , 373 , -1,
     374 , 375 , 376 , -1,
     376 , 377 , 374 , -1,
     378 , 379 , 380 , -1,
     380 , 381 , 378 , -1,
     382 , 383 , 384 , -1,
     384 , 385 , 382 , -1,
     386 , 387 , 388 , -1,
     388 , 389 , 386 , -1,
     390 , 391 , 392 , -1,
     392 , 393 , 390 , -1,
     394 , 395 , 396 , -1,
     396 , 397 , 394 , -1,
     398 , 399 , 400 , -1,
     400 , 401 , 398 , -1,
     402 , 403 , 404 , -1,
     404 , 403 , 405 , -1,
     405 , 406 , 407 , -1,
     406 , 405 , 403 , -1,
     408 , 409 , 410 , -1,
     408 , 410 , 411 , -1,
     412 , 411 , 413 , -1,
     411 , 412 , 408 , -1,
     412 , 413 , 414 , -1,
     415 , 416 , 412 , -1,
     414 , 415 , 412 , -1,
     417 , 418 , 419 , -1,
     420 , 419 , 418 , -1,
     419 , 412 , 417 , -1,
     417 , 412 , 416 , -1,
     421 , 422 , 423 , -1,
     422 , 421 , 424 , -1,
     423 , 425 , 426 , -1,
     425 , 423 , 422 , -1,
     427 , 425 , 422 , -1,
     428 , 429 , 430 , -1,
     430 , 429 , 431 , -1,
     431 , 432 , 433 , -1,
     432 , 431 , 429 , -1,
     434 , 435 , 436 , -1,
     437 , 438 , 436 , -1,
     439 , 440 , 437 , -1,
     437 , 440 , 438 , -1,
     438 , 434 , 436 , -1,
     441 , 442 , 443 , -1,
     441 , 443 , 444 , -1,
     445 , 446 , 436 , -1,
     444 , 436 , 446 , -1,
     436 , 444 , 443 , -1,
     445 , 436 , 435 , -1,
     447 , 448 , 449 , -1,
     448 , 447 , 450 , -1,
     450 , 447 , 451 , -1,
     452 , 448 , 450 , -1,
     451 , 447 , 453 , -1,
     454 , 455 , 456 , -1,
     455 , 454 , 457 , -1,
     456 , 458 , 454 , -1,
     458 , 456 , 459 , -1,
     454 , 458 , 460 , -1,
     461 , 458 , 459 , -1,
     460 , 462 , 463 , -1,
     459 , 464 , 461 , -1,
     454 , 465 , 457 , -1,
     454 , 460 , 466 , -1,
     467 , 468 , 466 , -1,
     466 , 469 , 470 , -1,
     469 , 466 , 468 , -1,
     468 , 471 , 469 , -1,
     467 , 466 , 460 , -1,
     472 , 469 , 471 , -1,
     470 , 473 , 466 , -1,
     471 , 474 , 472 , -1,
     467 , 460 , 463 , -1,
     466 , 473 , 475 , -1,
     462 , 476 , 463 , -1,
     464 , 477 , 478 , -1,
     464 , 478 , 461 , -1,
     465 , 479 , 480 , -1,
     477 , 481 , 478 , -1,
     480 , 457 , 465 , -1,
     476 , 482 , 483 , -1,
     474 , 484 , 485 , -1,
     474 , 485 , 472 , -1,
     486 , 475 , 487 , -1,
     484 , 488 , 485 , -1,
     489 , 476 , 483 , -1,
     487 , 475 , 473 , -1,
     476 , 489 , 463 , -1,
     490 , 491 , 492 , -1,
     492 , 493 , 490 , -1,
     494 , 495 , 496 , -1,
     496 , 497 , 494 , -1,
     498 , 499 , 500 , -1,
     500 , 501 , 498 , -1,
     502 , 503 , 504 , -1,
     504 , 505 , 502 , -1,
     506 , 507 , 508 , -1,
     508 , 509 , 506 , -1,
     510 , 511 , 512 , -1,
     512 , 513 , 510 , -1,
     514 , 515 , 516 , -1,
     516 , 517 , 514 , -1,
     518 , 519 , 520 , -1,
     520 , 519 , 521 , -1,
     521 , 522 , 523 , -1,
     522 , 521 , 519 , -1,
     524 , 525 , 526 , -1,
     524 , 526 , 527 , -1,
     528 , 527 , 529 , -1,
     527 , 528 , 524 , -1,
     528 , 529 , 530 , -1,
     531 , 532 , 528 , -1,
     530 , 531 , 528 , -1,
     533 , 534 , 535 , -1,
     536 , 535 , 534 , -1,
     535 , 528 , 533 , -1,
     533 , 528 , 532 , -1,
     537 , 538 , 539 , -1,
     538 , 537 , 540 , -1,
     539 , 541 , 542 , -1,
     541 , 539 , 538 , -1,
     543 , 541 , 538 , -1,
     544 , 545 , 546 , -1,
     547 , 548 , 549 , -1,
     545 , 547 , 550 , -1,
     551 , 544 , 546 , -1,
     547 , 549 , 550 , -1,
     550 , 546 , 545 , -1,
     549 , 552 , 553 , -1,
     549 , 548 , 552 , -1,
     554 , 555 , 556 , -1,
     557 , 558 , 559 , -1,
     555 , 557 , 560 , -1,
     561 , 553 , 554 , -1,
     560 , 556 , 555 , -1,
     559 , 560 , 557 , -1,
     561 , 554 , 556 , -1,
     554 , 553 , 552 , -1,
     562 , 563 , 564 , -1,
     564 , 565 , 562 , -1,
     566 , 567 , 568 , -1,
     568 , 569 , 566 , -1,
     570 , 571 , 572 , -1,
     572 , 573 , 570 , -1,
     574 , 575 , 576 , -1,
     576 , 577 , 578 , -1,
     579 , 580 , 581 , -1,
     582 , 583 , 584 , -1,
     585 , 586 , 587 , -1,
     576 , 588 , 574 , -1,
     581 , 588 , 578 , -1,
     587 , 589 , 590 , -1,
     578 , 589 , 581 , -1,
     590 , 589 , 578 , -1,
     588 , 576 , 578 , -1,
     581 , 589 , 579 , -1,
     582 , 591 , 590 , -1,
     592 , 590 , 593 , -1,
     590 , 592 , 582 , -1,
     591 , 587 , 590 , -1,
     582 , 592 , 583 , -1,
     587 , 591 , 585 , -1,
     594 , 595 , 596 , -1,
     596 , 597 , 594 , -1,
     598 , 599 , 600 , -1,
     601 , 598 , 600 , -1,
     602 , 599 , 598 , -1,
     603 , 602 , 598 , -1,
     604 , 605 , 606 , -1,
     606 , 603 , 607 , -1,
     606 , 607 , 604 , -1,
     602 , 603 , 606 , -1,
     608 , 609 , 610 , -1,
     611 , 612 , 610 , -1,
     613 , 614 , 611 , -1,
     611 , 614 , 612 , -1,
     612 , 608 , 610 , -1,
     615 , 616 , 617 , -1,
     615 , 617 , 618 , -1,
     619 , 620 , 610 , -1,
     618 , 610 , 620 , -1,
     610 , 618 , 617 , -1,
     619 , 610 , 609 , -1,
     621 , 622 , 623 , -1,
     622 , 621 , 624 , -1,
     624 , 621 , 625 , -1,
     626 , 622 , 624 , -1,
     625 , 621 , 627 , -1,
     628 , 629 , 630 , -1,
     630 , 629 , 631 , -1,
     631 , 632 , 633 , -1,
     632 , 631 , 629 , -1,
     634 , 635 , 636 , -1,
     636 , 637 , 634 , -1,
     638 , 639 , 640 , -1,
     640 , 641 , 638 , -1,
     642 , 643 , 644 , -1,
     644 , 645 , 642 , -1,
     646 , 647 , 648 , -1,
     648 , 649 , 646 , -1,
     650 , 651 , 652 , -1,
     652 , 653 , 650 , -1,
     654 , 655 , 656 , -1,
     656 , 657 , 654 , -1,
     658 , 659 , 660 , -1,
     660 , 661 , 658 , -1,
     662 , 663 , 664 , -1,
     664 , 663 , 665 , -1,
     665 , 666 , 667 , -1,
     666 , 665 , 663 , -1,
     668 , 669 , 670 , -1,
     668 , 670 , 671 , -1,
     672 , 671 , 673 , -1,
     671 , 672 , 668 , -1,
     672 , 673 , 674 , -1,
     675 , 676 , 672 , -1,
     674 , 675 , 672 , -1,
     677 , 678 , 679 , -1,
     680 , 679 , 678 , -1,
     679 , 672 , 677 , -1,
     677 , 672 , 676 , -1,
     681 , 682 , 683 , -1,
     682 , 681 , 684 , -1,
     683 , 685 , 686 , -1,
     685 , 683 , 682 , -1,
     687 , 685 , 682 , -1,
     688 , 689 , 690 , -1,
     691 , 692 , 693 , -1,
     689 , 691 , 694 , -1,
     695 , 688 , 690 , -1,
     691 , 693 , 694 , -1,
     694 , 690 , 689 , -1,
     693 , 696 , 697 , -1,
     693 , 692 , 696 , -1,
     698 , 699 , 700 , -1,
     701 , 702 , 703 , -1,
     699 , 701 , 704 , -1,
     705 , 697 , 698 , -1,
     704 , 700 , 699 , -1,
     703 , 704 , 701 , -1,
     705 , 698 , 700 , -1,
     698 , 697 , 696 , -1,
     706 , 707 , 708 , -1,
     708 , 709 , 706 , -1,
     710 , 711 , 712 , -1,
     713 , 714 , 712 , -1,
     715 , 716 , 713 , -1,
     713 , 716 , 714 , -1,
     714 , 710 , 712 , -1,
     717 , 718 , 719 , -1,
     717 , 719 , 720 , -1,
     721 , 722 , 712 , -1,
     720 , 712 , 722 , -1,
     712 , 720 , 719 , -1,
     721 , 712 , 711 , -1,
     723 , 724 , 725 , -1,
     724 , 723 , 726 , -1,
     726 , 723 , 727 , -1,
     728 , 724 , 726 , -1,
     727 , 723 , 729 , -1,
     730 , 731 , 732 , -1,
     732 , 731 , 733 , -1,
     733 , 734 , 735 , -1,
     734 , 733 , 731 , -1,
     736 , 737 , 738 , -1,
     738 , 739 , 736 , -1,
     740 , 741 , 742 , -1,
     742 , 743 , 740 , -1,
     744 , 745 , 746 , -1,
     746 , 747 , 744 , -1,
     748 , 749 , 750 , -1,
     750 , 751 , 748 , -1,
     752 , 753 , 754 , -1,
     754 , 755 , 752 , -1,
     756 , 757 , 758 , -1,
     758 , 759 , 756 , -1,
     760 , 761 , 762 , -1,
     762 , 763 , 760 , -1,
     764 , 765 , 766 , -1,
     766 , 765 , 767 , -1,
     767 , 768 , 769 , -1,
     768 , 767 , 765 , -1,
     770 , 771 , 772 , -1,
     770 , 772 , 773 , -1,
     774 , 773 , 775 , -1,
     773 , 774 , 770 , -1,
     774 , 775 , 776 , -1,
     777 , 778 , 774 , -1,
     776 , 777 , 774 , -1,
     779 , 780 , 781 , -1,
     782 , 781 , 780 , -1,
     781 , 774 , 779 , -1,
     779 , 774 , 778 , -1,
     783 , 784 , 785 , -1,
     784 , 783 , 786 , -1,
     785 , 787 , 788 , -1,
     787 , 785 , 784 , -1,
     789 , 787 , 784 , -1,
     790 , 791 , 792 , -1,
     793 , 794 , 795 , -1,
     791 , 793 , 796 , -1,
     797 , 790 , 792 , -1,
     793 , 795 , 796 , -1,
     796 , 792 , 791 , -1,
     795 , 798 , 799 , -1,
     795 , 794 , 798 , -1,
     800 , 801 , 802 , -1,
     803 , 804 , 805 , -1,
     801 , 803 , 806 , -1,
     807 , 799 , 800 , -1,
     806 , 802 , 801 , -1,
     805 , 806 , 803 , -1,
     807 , 800 , 802 , -1,
     800 , 799 , 798 , -1,
     808 , 809 , 810 , -1,
     810 , 811 , 808 , -1,
     812 , 813 , 814 , -1,
     815 , 816 , 814 , -1,
     817 , 818 , 815 , -1,
     815 , 818 , 816 , -1,
     816 , 812 , 814 , -1,
     819 , 820 , 821 , -1,
     819 , 821 , 822 , -1,
     823 , 824 , 814 , -1,
     822 , 814 , 824 , -1,
     814 , 822 , 821 , -1,
     823 , 814 , 813 , -1,
     825 , 826 , 827 , -1,
     826 , 825 , 828 , -1,
     828 , 825 , 829 , -1,
     830 , 826 , 828 , -1,
     829 , 825 , 831 , -1,
     832 , 833 , 834 , -1,
     834 , 835 , 832 , -1,
     836 , 837 , 838 , -1,
     838 , 837 , 839 , -1,
     839 , 840 , 841 , -1,
     840 , 839 , 837 , -1,
     842 , 843 , 844 , -1,
     845 , 842 , 844 , -1,
     846 , 843 , 842 , -1,
     847 , 846 , 842 , -1,
     848 , 849 , 850 , -1,
     850 , 847 , 851 , -1,
     850 , 851 , 848 , -1,
     846 , 847 , 850 , -1,
     852 , 853 , 854 , -1,
     854 , 855 , 852 , -1,
     856 , 857 , 858 , -1,
     859 , 856 , 858 , -1,
     860 , 857 , 856 , -1,
     861 , 860 , 856 , -1,
     862 , 863 , 864 , -1,
     864 , 861 , 865 , -1,
     864 , 865 , 862 , -1,
     860 , 861 , 864 , -1,
     866 , 867 , 868 , -1,
     868 , 869 , 866 , -1,
     870 , 871 , 872 , -1,
     872 , 873 , 870 , -1,
     874 , 875 , 876 , -1,
     877 , 874 , 876 , -1,
     878 , 875 , 874 , -1,
     879 , 878 , 874 , -1,
     880 , 881 , 882 , -1,
     882 , 879 , 883 , -1,
     882 , 883 , 880 , -1,
     878 , 879 , 882 , -1,
     884 , 885 , 886 , -1,
     886 , 887 , 884 , -1,
     888 , 889 , 890 , -1,
     890 , 891 , 888 , -1,
     892 , 893 , 894 , -1,
     894 , 895 , 892 , -1,
     896 , 897 , 898 , -1,
     899 , 900 , 901 , -1,
     897 , 899 , 902 , -1,
     903 , 896 , 898 , -1,
     899 , 901 , 902 , -1,
     902 , 898 , 897 , -1,
     901 , 904 , 905 , -1,
     901 , 900 , 904 , -1,
     906 , 907 , 908 , -1,
     909 , 910 , 911 , -1,
     907 , 909 , 912 , -1,
     913 , 905 , 906 , -1,
     912 , 908 , 907 , -1,
     911 , 912 , 909 , -1,
     913 , 906 , 908 , -1,
     906 , 905 , 904 , -1,
     914 , 915 , 916 , -1,
     916 , 917 , 914 , -1,
     918 , 919 , 920 , -1,
     920 , 921 , 918 , -1,
     922 , 923 , 924 , -1,
     924 , 925 , 922 , -1,
     926 , 927 , 928 , -1,
     928 , 927 , 929 , -1,
     928 , 930 , 931 , -1,
     928 , 931 , 926 , -1,
     932 , 933 , 934 , -1,
     934 , 935 , 932 , -1,
     936 , 937 , 938 , -1,
     938 , 939 , 940 , -1,
     939 , 938 , 941 , -1,
     938 , 940 , 936 , -1,
     942 , 943 , 944 , -1,
     944 , 945 , 942 , -1,
     946 , 947 , 948 , -1,
     948 , 949 , 946 , -1,
     950 , 951 , 952 , -1,
     952 , 953 , 950 , -1,
     954 , 955 , 956 , -1,
     956 , 957 , 954 , -1,
     ]
     normalPerVertex TRUE
     convex TRUE
     solid TRUE
     creaseAngle      -0.017453
    }
   }
   ]
   }
  ]
  }
 ]
 }
