G04 DipTrace 3.0.0.0*
G04 BottomMask.gbr*
%MOIN*%
G04 #@! TF.FileFunction,Soldermask,Bot*
G04 #@! TF.Part,Single*
%AMOUTLINE1*5,1,8,0,0,0.072438,-157.500181*%
%ADD31C,0.1285*%
%ADD38C,0.068*%
%ADD40C,0.068*%
%ADD44C,0.074929*%
%ADD46R,0.074929X0.074929*%
%ADD48C,0.067055*%
%ADD50R,0.067055X0.067055*%
%ADD52R,0.067055X0.059181*%
%ADD61OUTLINE1*%
%FSLAX26Y26*%
G04*
G70*
G90*
G75*
G01*
G04 BotMask*
%LPD*%
D31*
X2531500Y606500D3*
X531500D3*
X2531500Y1606500D3*
X531500D3*
D50*
X1631500Y1506500D3*
D61*
X1531500D3*
X1331500D3*
X1431500D3*
D50*
X1631500Y1156500D3*
D61*
X1531500D3*
X1331500D3*
X1431500D3*
D50*
X1631500Y781500D3*
D61*
X1531500D3*
X1331500D3*
X1431500D3*
D50*
X2231500Y1506500D3*
D61*
X2131500D3*
X1931500D3*
X2031500D3*
D50*
X2231500Y1156500D3*
D61*
X2131500D3*
X1931500D3*
X2031500D3*
D50*
X2231500Y781500D3*
D61*
X2131500D3*
X1931500D3*
X2031500D3*
D50*
X797757Y1681286D3*
D48*
Y1602546D3*
Y1523806D3*
Y1445066D3*
Y1366325D3*
Y1287585D3*
Y1208845D3*
Y1130105D3*
Y1051365D3*
Y972625D3*
Y893885D3*
Y815144D3*
Y736404D3*
Y657664D3*
Y578924D3*
X876497D3*
Y657664D3*
Y736404D3*
Y815144D3*
Y893885D3*
Y972625D3*
Y1051365D3*
Y1130105D3*
Y1208845D3*
Y1287585D3*
Y1366325D3*
Y1445066D3*
Y1523806D3*
Y1602546D3*
Y1681286D3*
D46*
X2431500Y1356500D3*
D44*
Y1256500D3*
Y1156500D3*
Y1056500D3*
Y956500D3*
Y856500D3*
D46*
X656064Y837699D3*
D44*
Y937699D3*
Y1037699D3*
Y1137699D3*
Y1237699D3*
Y1337699D3*
D52*
X1031500Y1006500D3*
Y931697D3*
X1019000Y1331500D3*
Y1256697D3*
X1076972Y1594000D3*
Y1668803D3*
D40*
X1256500Y506500D3*
D38*
X1756500D3*
D40*
X1731500Y1731500D3*
D38*
X1231500D3*
D52*
X1031500Y731500D3*
Y656697D3*
X1044000Y506500D3*
Y581303D3*
M02*
