G04 DipTrace 3.0.0.0*
G04 TopDimension.gbr*
%MOIN*%
G04 #@! TF.FileFunction,Drawing,Top*
G04 #@! TF.Part,Single*
%ADD13C,0.001378*%
G04 #@! TA.AperFunction,Conductor*
%ADD56C,0.006176*%
%FSLAX26Y26*%
G04*
G70*
G90*
G75*
G01*
G04 TopDimension*
%LPD*%
X2531500Y1606500D2*
D13*
X2776185D1*
X2531500Y606500D2*
X2776185D1*
X2756500Y1106500D2*
Y1567130D1*
G36*
Y1606500D2*
X2764374Y1567130D1*
X2748626D1*
X2756500Y1606500D1*
G37*
Y1106500D2*
D13*
Y645870D1*
G36*
Y606500D2*
X2748626Y645870D1*
X2764374D1*
X2756500Y606500D1*
G37*
X531500Y1606500D2*
D13*
Y2051185D1*
X2531500Y1606500D2*
Y2051185D1*
X1531500Y2031500D2*
X570870D1*
G36*
X531500D2*
X570870Y2039374D1*
Y2023626D1*
X531500Y2031500D1*
G37*
X1531500D2*
D13*
X2492130D1*
G36*
X2531500D2*
X2492130Y2023626D1*
Y2039374D1*
X2531500Y2031500D1*
G37*
X531500Y606500D2*
D13*
Y261815D1*
X2531500Y606500D2*
Y261815D1*
X1531500Y281500D2*
X570870D1*
G36*
X531500D2*
X570870Y289374D1*
Y273626D1*
X531500Y281500D1*
G37*
X1531500D2*
D13*
X2492130D1*
G36*
X2531500D2*
X2492130Y273626D1*
Y289374D1*
X2531500Y281500D1*
G37*
X531500Y1606500D2*
D13*
X11379D1*
X531500Y606500D2*
X11379D1*
X31064Y1106500D2*
Y1567130D1*
G36*
Y1606500D2*
X38938Y1567130D1*
X23190D1*
X31064Y1606500D1*
G37*
Y1106500D2*
D13*
Y645870D1*
G36*
Y606500D2*
X23190Y645870D1*
X38938D1*
X31064Y606500D1*
G37*
X531500D2*
D13*
X2876185D1*
X2531500D2*
X2876185D1*
X2856500D2*
D3*
Y665555D2*
Y645870D1*
G36*
Y606500D2*
X2848626Y645870D1*
X2864374D1*
X2856500Y606500D1*
G37*
Y547445D2*
D13*
Y567130D1*
G36*
Y606500D2*
X2864374Y567130D1*
X2848626D1*
X2856500Y606500D1*
G37*
Y540335D2*
D13*
Y606500D1*
X531500Y1606500D2*
X2876185D1*
X2531500D2*
X2876185D1*
X2856500D2*
D3*
Y1665555D2*
Y1645870D1*
G36*
Y1606500D2*
X2848626Y1645870D1*
X2864374D1*
X2856500Y1606500D1*
G37*
Y1547445D2*
D13*
Y1567130D1*
G36*
Y1606500D2*
X2864374Y1567130D1*
X2848626D1*
X2856500Y1606500D1*
G37*
Y1540335D2*
D13*
Y1606500D1*
X2801209Y1108210D2*
D56*
X2803155Y1104363D1*
X2808859Y1098615D1*
X2768711D1*
X1523136Y2074308D2*
Y2076209D1*
X1525037Y2080056D1*
X1526939Y2081957D1*
X1530785Y2083859D1*
X1538435D1*
X1542237Y2081957D1*
X1544138Y2080056D1*
X1546084Y2076209D1*
Y2072407D1*
X1544138Y2068560D1*
X1540336Y2062856D1*
X1521191Y2043711D1*
X1547985D1*
X1523136Y324308D2*
Y326209D1*
X1525037Y330056D1*
X1526939Y331957D1*
X1530785Y333859D1*
X1538435D1*
X1542237Y331957D1*
X1544138Y330056D1*
X1546084Y326209D1*
Y322407D1*
X1544138Y318560D1*
X1540336Y312856D1*
X1521191Y293711D1*
X1547985D1*
X-13645Y1104790D2*
X-15590Y1108637D1*
X-21294Y1114385D1*
X18854D1*
X2908859Y546370D2*
X2906957Y552118D1*
X2901209Y555965D1*
X2891659Y557866D1*
X2885911D1*
X2876360Y555965D1*
X2870612Y552118D1*
X2868711Y546370D1*
Y542568D1*
X2870612Y536820D1*
X2876360Y533017D1*
X2885911Y531072D1*
X2891659D1*
X2901209Y533017D1*
X2906957Y536820D1*
X2908859Y542568D1*
Y546370D1*
X2901209Y533017D2*
X2876360Y555965D1*
X2908859Y1546370D2*
X2906957Y1552118D1*
X2901209Y1555965D1*
X2891659Y1557866D1*
X2885911D1*
X2876360Y1555965D1*
X2870612Y1552118D1*
X2868711Y1546370D1*
Y1542568D1*
X2870612Y1536820D1*
X2876360Y1533017D1*
X2885911Y1531072D1*
X2891659D1*
X2901209Y1533017D1*
X2906957Y1536820D1*
X2908859Y1542568D1*
Y1546370D1*
X2901209Y1533017D2*
X2876360Y1555965D1*
M02*
