G04 DipTrace 2.4.0.2*
%INBottom.gbr*%
%MOIN*%
%ADD14C,0.01*%
%ADD15C,0.09*%
%ADD17C,0.2*%
%ADD19C,0.1*%
%ADD20C,0.025*%
%ADD21C,0.013*%
%ADD22R,0.0433X0.0394*%
%ADD23R,0.0394X0.0433*%
%ADD24C,0.0748*%
%ADD25R,0.0748X0.0748*%
%ADD26R,0.0157X0.0709*%
%ADD27R,0.0591X0.0591*%
%ADD30O,0.2559X0.2362*%
%ADD31O,0.2362X0.2559*%
%ADD33C,0.04*%
%ADD37C,0.06*%
%FSLAX44Y44*%
G04*
G70*
G90*
G75*
G01*
%LNBottom*%
%LPD*%
X15853Y6966D2*
D14*
Y5833D1*
X16625Y5062D1*
X17687Y5125D2*
X16687D1*
X16625Y5062D1*
X17687Y5125D2*
X18812D1*
X19375Y5687D1*
X20000D1*
X22812Y5625D2*
X23125D1*
X23375Y5875D1*
X24812D1*
X25500Y6562D1*
X30250Y7625D2*
X26562D1*
X25500Y6562D1*
X30250Y7625D2*
Y8562D1*
X30125Y8687D1*
X14830Y6966D2*
Y5107D1*
X15625Y4312D1*
X20937D1*
X22500Y5875D1*
Y6562D1*
X17133Y9250D2*
Y9820D1*
X17500Y10187D1*
X17893D1*
X16109Y9250D2*
Y10109D1*
X16125Y10125D1*
X15086Y9250D2*
Y10351D1*
X15000Y10437D1*
X15086Y6966D2*
Y5101D1*
X15625Y4562D1*
X19625D1*
X20500Y5437D1*
Y6562D1*
X15342Y6966D2*
Y5095D1*
X15687Y4750D1*
X18937D1*
X19250Y5062D1*
X15597Y6966D2*
Y5420D1*
X15955Y5062D1*
X15875Y5437D2*
Y5143D1*
X15955Y5062D1*
X16687Y23106D2*
X17187D1*
Y23500D1*
X17437Y23250D1*
X18750D1*
X18812Y23312D1*
X14812Y20375D2*
Y21250D1*
X13812D1*
X18437Y19312D2*
X18500D1*
X17500Y18312D1*
X17375D1*
X18544D1*
X18562Y18294D1*
X14937Y15437D2*
Y16312D1*
X14812Y16437D1*
X13812Y16312D2*
X14687D1*
X14812Y16437D1*
X18356Y14312D2*
X18312D1*
X17437Y13437D1*
X18812D1*
X19000Y13250D1*
X13937Y12000D2*
X14375D1*
X14812Y11562D1*
X13875Y12643D2*
Y12000D1*
X13937D1*
X16621Y9250D2*
Y22371D1*
X16687Y22437D1*
X17768Y19312D2*
X17250D1*
X15597Y9250D2*
Y14214D1*
X15437Y14375D1*
Y18875D1*
X15875Y19312D1*
X17687Y14312D2*
X17187D1*
X14574Y9250D2*
Y10050D1*
X14250Y10375D1*
X16125Y11375D2*
Y14250D1*
X16365Y9250D2*
Y19491D1*
X15481Y20375D1*
X15342Y9250D2*
X15375D1*
X15342D2*
Y9842D1*
X15375Y9875D1*
Y13062D1*
X15437Y13125D1*
Y13875D1*
X14250Y15062D1*
Y15419D1*
X14268Y15437D1*
X14318Y9250D2*
Y9681D1*
X13875Y10125D1*
Y11330D1*
X13937D1*
X13812Y21919D2*
Y22250D1*
X14812Y23250D1*
X13812Y16981D2*
Y18062D1*
X14187Y18437D1*
X14812D1*
X13875Y13312D2*
X14562D1*
X14812Y13562D1*
X16877Y6966D2*
Y6354D1*
X17481Y5750D1*
X16875Y6312D2*
X16877Y6354D1*
X7812Y6375D2*
Y7062D1*
X9187Y8437D1*
X10750D1*
X12750Y9687D2*
X11187D1*
X10687Y9187D1*
Y8500D1*
X10750Y8437D1*
X18794Y9562D2*
Y9187D1*
Y7669D1*
X18312Y7187D1*
Y6000D1*
X18000Y5687D1*
X17544D1*
X17481Y5750D1*
X18437Y9187D2*
X18794D1*
X10750Y8437D2*
X13250D1*
X14062Y9250D1*
X26125Y8000D2*
X21437D1*
X19875Y9562D1*
X18794D1*
X29875Y8312D2*
X29312Y8875D1*
Y10584D1*
Y12250D1*
X30437Y13375D1*
Y16437D1*
X9687Y14187D2*
D15*
X14187D1*
X14812Y13562D1*
X12562Y19312D2*
X14812D1*
Y18437D1*
X12375Y24500D2*
X14375D1*
X14812Y24062D1*
Y23250D1*
X22187Y8437D2*
D14*
X22562D1*
X23812Y9687D1*
X28416D1*
X29312Y10584D1*
X27375Y16375D2*
D17*
X30375D1*
X30437Y16437D1*
X14574Y6966D2*
D14*
Y6511D1*
X13937Y5875D1*
X11312D1*
X10812Y6375D1*
X12875Y8000D2*
X13187D1*
X13562Y8375D1*
X10750Y7937D2*
X9625D1*
X8750Y7062D1*
Y6437D1*
X8812Y6375D1*
X10750Y7937D2*
X11625D1*
X13250Y6312D1*
X14125D1*
X14312Y6500D1*
Y6960D1*
X14318Y6966D1*
X14062D2*
X13591D1*
X13500Y6875D1*
X17389Y6966D2*
Y6735D1*
X17750Y6375D1*
X17133Y6966D2*
Y6491D1*
X17250Y6375D1*
X17389Y9250D2*
X17750D1*
Y9562D1*
X18125D1*
X18812Y22643D2*
Y21687D1*
X18375Y21250D1*
X17437D1*
X16877Y9250D2*
Y20689D1*
X17437Y21250D1*
X14812Y22250D2*
D15*
X15500D1*
X15937Y22687D1*
Y24187D1*
X16437Y24687D1*
X19187D1*
X21937Y24437D2*
D14*
Y13562D1*
X18562Y10187D1*
Y17625D2*
Y16625D1*
X18250Y16312D1*
X17375D1*
X15853Y9250D2*
Y10562D1*
Y14396D1*
X15937Y14479D1*
Y17437D1*
X16125Y10562D2*
X15853D1*
X19000Y12580D2*
Y12062D1*
X18250Y11312D1*
X17562D1*
X17437Y11437D1*
X14830Y9250D2*
Y10107D1*
X14625Y10312D1*
Y10687D1*
X14562Y10750D1*
X16365Y6966D2*
Y5571D1*
X16562Y5375D1*
X18312D1*
X18562Y5625D1*
Y7125D1*
X18687Y7250D1*
X21250D1*
X21500Y7000D1*
Y6562D1*
X16109Y6966D2*
Y6390D1*
X16125Y6375D1*
X16621Y6966D2*
Y5940D1*
X16812Y5750D1*
X16621Y6966D2*
Y7371D1*
X16687Y7437D1*
X17750D1*
X18125Y7812D1*
X23437Y8437D2*
X24562D1*
D33*
X17250Y19312D3*
X15875D3*
X15937Y17437D3*
X17187Y14312D3*
X14562Y10750D3*
X14250Y10375D3*
X15000Y10437D3*
X17750Y6375D3*
D20*
X17250D3*
D33*
X30250Y7625D3*
D20*
X17687Y5125D3*
X16125Y10125D3*
Y10562D3*
X16875Y6312D3*
X16125Y6375D3*
D33*
X10750Y7937D3*
Y8437D3*
X13500Y6875D3*
D20*
X19250Y5062D3*
X15875Y5437D3*
X18437Y9187D3*
X12875Y8000D3*
X13562Y8375D3*
X20000Y5687D3*
X22812Y5625D3*
X16125Y11375D3*
Y14250D3*
X12750Y9687D3*
X30125Y8687D3*
X26125Y8000D3*
X29875Y8312D3*
D33*
X18125Y7812D3*
X23437Y8437D3*
X24562D3*
D19*
X21937Y24437D3*
D37*
X22187Y8437D3*
D20*
X14437Y7937D3*
Y8437D3*
X14937D3*
Y7937D3*
X15437Y8437D3*
Y7937D3*
X15937Y8437D3*
Y7937D3*
X16437Y8437D3*
Y7937D3*
X16937Y8437D3*
Y7937D3*
X17437Y8437D3*
Y7937D3*
X16823Y24813D2*
X22539D1*
X16624Y24565D2*
X22539D1*
X16425Y24316D2*
X22539D1*
X16226Y24067D2*
X16401D1*
X19667D2*
X22539D1*
X20085Y23819D2*
X22539D1*
X20085Y23570D2*
X22539D1*
X20085Y23321D2*
X22539D1*
X20085Y23073D2*
X22539D1*
X20085Y22824D2*
X22539D1*
X20085Y22575D2*
X22527D1*
X20085Y22326D2*
X22500D1*
X20085Y22078D2*
X22504D1*
X20085Y21829D2*
X22539D1*
X20085Y21580D2*
X22539D1*
X20085Y21332D2*
X22539D1*
X20085Y21083D2*
X22539D1*
X20085Y20834D2*
X22539D1*
X20085Y20586D2*
X22539D1*
X20085Y20337D2*
X22539D1*
X20085Y20088D2*
X22539D1*
X20085Y19840D2*
X22539D1*
X20085Y19591D2*
X22539D1*
X20085Y19342D2*
X22539D1*
X20085Y19094D2*
X22539D1*
X20085Y18845D2*
X22539D1*
X20085Y18596D2*
X22539D1*
X20085Y18347D2*
X22539D1*
X20085Y18099D2*
X22539D1*
X20085Y17850D2*
X22516D1*
X20085Y17601D2*
X22457D1*
X20085Y17353D2*
X22437D1*
X20085Y17104D2*
X22445D1*
X20085Y16855D2*
X22492D1*
X20085Y16607D2*
X22539D1*
X20085Y16358D2*
X22539D1*
X20085Y16109D2*
X22539D1*
X20085Y15861D2*
X22539D1*
X20085Y15612D2*
X22539D1*
X20085Y15363D2*
X22539D1*
X16553Y24259D2*
X18446D1*
Y24161D1*
X19355Y24164D1*
X19644D1*
Y24058D1*
X19937Y24062D1*
X20042Y24001D1*
X20062Y23937D1*
Y15312D1*
X22562D1*
Y16707D1*
X22507Y16899D1*
X22468Y17145D1*
X22462Y17395D1*
X22490Y17643D1*
X22551Y17885D1*
X22562Y17937D1*
Y21871D1*
X22530Y22083D1*
X22524Y22332D1*
X22552Y22581D1*
X22562Y22687D1*
Y25062D1*
X16996D1*
X16198Y24063D1*
X16425Y24062D1*
X16428Y24259D1*
X16553D1*
X6837Y25563D2*
X13289D1*
X6837Y25315D2*
X13289D1*
X6837Y25066D2*
X13289D1*
X6837Y24817D2*
X13289D1*
X6837Y24569D2*
X13289D1*
X6837Y24320D2*
X13289D1*
X6837Y24071D2*
X7574D1*
X8191D2*
X13289D1*
X8870Y23823D2*
X13289D1*
X9191Y23574D2*
X13289D1*
X9405Y23325D2*
X13289D1*
X9554Y23076D2*
X13289D1*
X9659Y22828D2*
X13289D1*
X9722Y22579D2*
X12957D1*
X9749Y22330D2*
X12957D1*
X9745Y22082D2*
X12957D1*
X9702Y21833D2*
X12957D1*
X9628Y21584D2*
X12957D1*
X9511Y21336D2*
X12957D1*
X9339Y21087D2*
X12957D1*
X9093Y20838D2*
X12957D1*
X6837Y20590D2*
X7055D1*
X8710D2*
X12957D1*
X6837Y20341D2*
X13289D1*
X6837Y20092D2*
X13289D1*
X6837Y19844D2*
X13289D1*
X6837Y19595D2*
X13289D1*
X6837Y19346D2*
X13289D1*
X6837Y19097D2*
X7058D1*
X8710D2*
X13289D1*
X9093Y18849D2*
X13289D1*
X9339Y18600D2*
X13289D1*
X9507Y18351D2*
X13289D1*
X9628Y18103D2*
X13289D1*
X9702Y17854D2*
X13289D1*
X9745Y17605D2*
X12957D1*
X9749Y17357D2*
X12957D1*
X9722Y17108D2*
X12957D1*
X9659Y16859D2*
X12957D1*
X9558Y16611D2*
X12957D1*
X9405Y16362D2*
X12957D1*
X9191Y16113D2*
X12957D1*
X8870Y15865D2*
X12957D1*
X6837Y15616D2*
X7570D1*
X8194D2*
X12957D1*
X6837Y15367D2*
X13289D1*
X6837Y15118D2*
X13289D1*
X6837Y14870D2*
X13289D1*
X6837Y14621D2*
X13289D1*
X6837Y14372D2*
X7512D1*
X8257D2*
X13289D1*
X8886Y14124D2*
X13019D1*
X9202Y13875D2*
X13019D1*
X9413Y13626D2*
X13019D1*
X9562Y13378D2*
X13019D1*
X9663Y13129D2*
X13019D1*
X9722Y12880D2*
X13019D1*
X9749Y12632D2*
X13019D1*
X9741Y12383D2*
X13019D1*
X9702Y12134D2*
X13019D1*
X9624Y11886D2*
X13019D1*
X9503Y11637D2*
X13082D1*
X9331Y11388D2*
X13082D1*
X9081Y11139D2*
X13082D1*
X6837Y10891D2*
X7078D1*
X8687D2*
X13082D1*
X6837Y10642D2*
X13082D1*
X6837Y10393D2*
X13164D1*
X9722Y22125D2*
X9689Y21877D1*
X9622Y21636D1*
X9523Y21407D1*
X9394Y21193D1*
X9237Y20998D1*
X9056Y20827D1*
X8852Y20681D1*
X8632Y20565D1*
X8397Y20479D1*
X8153Y20426D1*
X7904Y20406D1*
X7654Y20420D1*
X7409Y20468D1*
X7173Y20548D1*
X6949Y20660D1*
X6809Y20752D1*
X6812Y19812D1*
Y18941D1*
X6985Y19047D1*
X7211Y19154D1*
X7449Y19229D1*
X7695Y19271D1*
X7945Y19280D1*
X8193Y19254D1*
X8436Y19196D1*
X8669Y19105D1*
X8887Y18983D1*
X9087Y18833D1*
X9265Y18658D1*
X9417Y18460D1*
X9541Y18243D1*
X9635Y18011D1*
X9696Y17769D1*
X9725Y17521D1*
X9722Y17312D1*
X9689Y17065D1*
X9622Y16824D1*
X9523Y16594D1*
X9394Y16381D1*
X9237Y16186D1*
X9056Y16014D1*
X8852Y15869D1*
X8632Y15752D1*
X8397Y15666D1*
X8153Y15613D1*
X7904Y15593D1*
X7654Y15608D1*
X7409Y15655D1*
X7173Y15736D1*
X6949Y15847D1*
X6809Y15940D1*
X6812Y14437D1*
Y14066D1*
X6985Y14172D1*
X7211Y14279D1*
X7449Y14354D1*
X7695Y14396D1*
X7945Y14405D1*
X8193Y14379D1*
X8436Y14321D1*
X8669Y14230D1*
X8887Y14108D1*
X9087Y13958D1*
X9265Y13783D1*
X9417Y13585D1*
X9541Y13368D1*
X9635Y13136D1*
X9696Y12894D1*
X9725Y12646D1*
X9722Y12437D1*
X9689Y12190D1*
X9622Y11949D1*
X9523Y11719D1*
X9394Y11506D1*
X9237Y11311D1*
X9056Y11139D1*
X8852Y10994D1*
X8632Y10877D1*
X8397Y10791D1*
X8153Y10738D1*
X7904Y10718D1*
X7654Y10733D1*
X7409Y10780D1*
X7173Y10861D1*
X6949Y10972D1*
X6809Y11065D1*
X6812Y10312D1*
X13191D1*
X13190Y10480D1*
X13105Y10479D1*
Y11792D1*
X13043Y11791D1*
X13047Y13494D1*
X13043Y13585D1*
Y14164D1*
X13312D1*
Y15464D1*
X12980Y15460D1*
X12984Y17164D1*
X12980Y17255D1*
Y17833D1*
X13312D1*
Y20402D1*
X12980Y20398D1*
X12984Y22101D1*
X12980Y22192D1*
Y22770D1*
X13312D1*
Y25683D1*
X13067Y25704D1*
X12823Y25758D1*
X12672Y25811D1*
X6812Y25812D1*
Y23753D1*
X6985Y23860D1*
X7211Y23966D1*
X7449Y24041D1*
X7695Y24084D1*
X7945Y24092D1*
X8193Y24067D1*
X8436Y24008D1*
X8669Y23917D1*
X8887Y23796D1*
X9087Y23646D1*
X9265Y23470D1*
X9417Y23272D1*
X9541Y23055D1*
X9635Y22824D1*
X9696Y22582D1*
X9725Y22334D1*
X9722Y22125D1*
X12981Y22770D2*
D21*
X13812Y21919D1*
X12981Y21068D1*
Y17832D2*
X13812Y16981D1*
X12981Y16130D1*
X13043Y14163D2*
X13875Y13312D1*
X13043Y12461D1*
X13997Y8476D2*
D14*
X17565D1*
X13997Y8377D2*
X17565D1*
X13997Y8278D2*
X17565D1*
X13997Y8180D2*
X17565D1*
X13997Y8081D2*
X17565D1*
X13997Y7982D2*
X17565D1*
X13997Y7884D2*
X17565D1*
X13997Y7785D2*
X17565D1*
X13997Y7686D2*
X17565D1*
X17525Y8575D2*
X13987D1*
Y7675D1*
X17575D1*
Y8575D1*
X17525D1*
X21921Y27063D2*
D20*
X28289D1*
X21487Y26815D2*
X28289D1*
X21087Y26566D2*
X28289D1*
X21087Y26317D2*
X28289D1*
X21087Y26069D2*
X21808D1*
X22069D2*
X28289D1*
X22835Y25820D2*
X28289D1*
X23140Y25571D2*
X28289D1*
X23585Y25323D2*
X28289D1*
X23585Y25074D2*
X28289D1*
X23585Y24825D2*
X28289D1*
X23593Y24576D2*
X28289D1*
X23593Y24328D2*
X28289D1*
X23585Y24079D2*
X24113D1*
X24616D2*
X28289D1*
X25339Y23830D2*
X28289D1*
X25667Y23582D2*
X28289D1*
X25882Y23333D2*
X28289D1*
X26034Y23084D2*
X28289D1*
X26140Y22836D2*
X28289D1*
X26202Y22587D2*
X28289D1*
X26233Y22338D2*
X28289D1*
X26230Y22090D2*
X28289D1*
X26191Y21841D2*
X28289D1*
X26112Y21592D2*
X28289D1*
X25995Y21344D2*
X28289D1*
X25827Y21095D2*
X28289D1*
X25585Y20846D2*
X28289D1*
X25210Y20597D2*
X28289D1*
X23585Y20349D2*
X28223D1*
X23585Y20100D2*
X28152D1*
X23585Y19851D2*
X28109D1*
X23585Y19603D2*
X28098D1*
X23585Y19354D2*
X28098D1*
X23585Y19105D2*
X23851D1*
X24757D2*
X28113D1*
X25335Y18857D2*
X28160D1*
X25640Y18608D2*
X28234D1*
X25847Y18359D2*
X28289D1*
X25991Y18111D2*
X28289D1*
X26089Y17862D2*
X28289D1*
X26148Y17613D2*
X28289D1*
X26171Y17365D2*
X28289D1*
X26163Y17116D2*
X28289D1*
X26116Y16867D2*
X28289D1*
X26038Y16618D2*
X28289D1*
X25913Y16370D2*
X28289D1*
X25737Y16121D2*
X28289D1*
X25480Y15872D2*
X28289D1*
X25069Y15624D2*
X28289D1*
X23585Y15375D2*
X28289D1*
X23585Y15126D2*
X28289D1*
X23585Y14878D2*
X28289D1*
X23585Y14629D2*
X28289D1*
X23585Y14380D2*
X28289D1*
X25116Y14132D2*
X28289D1*
X25534Y13883D2*
X28289D1*
X25792Y13634D2*
X28289D1*
X25972Y13386D2*
X28289D1*
X26097Y13137D2*
X28289D1*
X26179Y12888D2*
X28289D1*
X26222Y12639D2*
X28289D1*
X26233Y12391D2*
X28289D1*
X26210Y12142D2*
X28289D1*
X26151Y11893D2*
X28289D1*
X26054Y11645D2*
X28289D1*
X25913Y11396D2*
X28289D1*
X25710Y11147D2*
X28289D1*
X25405Y10899D2*
X28289D1*
X23585Y10650D2*
X23887D1*
X24843D2*
X28289D1*
X26206Y22125D2*
X26172Y21877D1*
X26105Y21636D1*
X26006Y21407D1*
X25877Y21193D1*
X25720Y20998D1*
X25539Y20827D1*
X25336Y20681D1*
X25115Y20565D1*
X24880Y20479D1*
X24636Y20426D1*
X24387Y20406D1*
X24138Y20420D1*
X23893Y20468D1*
X23656Y20548D1*
X23560Y20592D1*
X23562Y19003D1*
X23870Y19104D1*
X24116Y19146D1*
X24366Y19155D1*
X24614Y19129D1*
X24857Y19071D1*
X25090Y18980D1*
X25308Y18858D1*
X25508Y18708D1*
X25685Y18533D1*
X25838Y18335D1*
X25962Y18118D1*
X26056Y17886D1*
X26117Y17644D1*
X26145Y17396D1*
X26143Y17187D1*
X26109Y16940D1*
X26042Y16699D1*
X25944Y16469D1*
X25815Y16256D1*
X25658Y16061D1*
X25476Y15889D1*
X25273Y15744D1*
X25052Y15627D1*
X24818Y15541D1*
X24574Y15488D1*
X24325Y15468D1*
X24075Y15483D1*
X23830Y15530D1*
X23594Y15611D1*
X23562Y15625D1*
Y14097D1*
X23812Y14195D1*
X24055Y14254D1*
X24303Y14280D1*
X24553Y14271D1*
X24799Y14229D1*
X25037Y14154D1*
X25263Y14048D1*
X25473Y13912D1*
X25662Y13748D1*
X25827Y13561D1*
X25966Y13353D1*
X26075Y13129D1*
X26153Y12891D1*
X26198Y12646D1*
X26210Y12437D1*
X26193Y12188D1*
X26142Y11943D1*
X26059Y11708D1*
X25945Y11485D1*
X25802Y11281D1*
X25633Y11097D1*
X25440Y10938D1*
X25227Y10807D1*
X24999Y10705D1*
X24759Y10636D1*
X24512Y10599D1*
X24262Y10596D1*
X24014Y10627D1*
X23773Y10691D1*
X23560Y10779D1*
X23562Y10562D1*
X28312D1*
Y18480D1*
X28212Y18758D1*
X28156Y19002D1*
X28126Y19250D1*
X28121Y19598D1*
X28123Y19697D1*
X28147Y19945D1*
X28198Y20190D1*
X28275Y20428D1*
X28312Y20518D1*
Y27312D1*
X22183D1*
X22040Y27176D1*
X21842Y27025D1*
X21628Y26895D1*
X21402Y26789D1*
X21166Y26708D1*
X21063Y26682D1*
X21062Y25816D1*
X21254Y25922D1*
X21488Y26009D1*
X21733Y26059D1*
X21982Y26071D1*
X22231Y26045D1*
X22472Y25982D1*
X22701Y25882D1*
X22912Y25749D1*
X23101Y25585D1*
X23125Y25559D1*
X23437Y25562D1*
X23542Y25501D1*
X23562Y25437D1*
X23565Y24585D1*
X23572Y24437D1*
X23562Y24187D1*
Y23910D1*
X23812Y24008D1*
X24055Y24067D1*
X24303Y24092D1*
X24553Y24084D1*
X24799Y24042D1*
X25037Y23967D1*
X25263Y23860D1*
X25473Y23724D1*
X25662Y23561D1*
X25827Y23374D1*
X25966Y23166D1*
X26075Y22941D1*
X26153Y22704D1*
X26198Y22458D1*
X26210Y22250D1*
X26206Y22125D1*
X6747Y27288D2*
D14*
X24877D1*
X6747Y27190D2*
X24877D1*
X6747Y27091D2*
X24877D1*
X6747Y26992D2*
X24877D1*
X6747Y26894D2*
X24877D1*
X6747Y26795D2*
X24877D1*
X6747Y26696D2*
X24877D1*
X6747Y26598D2*
X24877D1*
X6747Y26499D2*
X24877D1*
X6747Y26400D2*
X24877D1*
X6747Y26301D2*
X24877D1*
X6747Y26203D2*
X24877D1*
X6747Y26104D2*
X24877D1*
X6747Y26005D2*
X24877D1*
X6747Y25907D2*
X24877D1*
X6747Y25808D2*
X24877D1*
X6747Y25709D2*
X24877D1*
X6747Y25611D2*
X24877D1*
X17648Y25512D2*
X24877D1*
X6736Y25549D2*
X24889Y25487D1*
X24887Y25787D1*
Y27387D1*
X6737D1*
Y25548D1*
D22*
X18125Y9562D3*
X18794D3*
X16812Y5750D3*
X17481D3*
X18562Y10187D3*
X17893D3*
D24*
X17437Y21250D3*
Y22250D3*
D25*
Y23250D3*
D24*
X14812D3*
Y22250D3*
D25*
Y21250D3*
D24*
X17375Y16312D3*
Y17312D3*
D25*
Y18312D3*
D24*
X14812Y18437D3*
Y17437D3*
D25*
Y16437D3*
D24*
X17437Y11437D3*
Y12437D3*
D25*
Y13437D3*
D24*
X14812Y13562D3*
Y12562D3*
D25*
Y11562D3*
D23*
X13812Y21250D3*
Y21919D3*
D22*
X14812Y20375D3*
X15481D3*
X14937Y15437D3*
X14268D3*
D23*
X13937Y12000D3*
Y11330D3*
X13812Y16981D3*
Y16312D3*
X13875Y13312D3*
Y12643D3*
X16687Y22437D3*
Y23106D3*
X18812Y23312D3*
Y22643D3*
D22*
X18437Y19312D3*
X17768D3*
D23*
X18562Y17625D3*
Y18294D3*
D22*
X17687Y14312D3*
X18356D3*
D23*
X19000Y13250D3*
Y12580D3*
D22*
X16625Y5062D3*
X15955D3*
D26*
X14062Y9250D3*
X14318D3*
X14574D3*
X14830D3*
X15086D3*
X15342D3*
X15597D3*
X15853D3*
X16109D3*
X16365D3*
X16621D3*
X16877D3*
X17133D3*
X17389D3*
Y6966D3*
X17133D3*
X16877D3*
X16621D3*
X16365D3*
X16109D3*
X15853D3*
X15597D3*
X15342D3*
X15086D3*
X14830D3*
X14574D3*
X14318D3*
X14062D3*
D27*
X11812Y6375D3*
G36*
X10517Y6252D2*
Y6497D1*
X10690Y6669D1*
X10934D1*
X11107Y6497D1*
Y6252D1*
X10934Y6080D1*
X10690D1*
X10517Y6252D1*
G37*
G36*
X8517D2*
Y6497D1*
X8690Y6669D1*
X8934D1*
X9107Y6497D1*
Y6252D1*
X8934Y6080D1*
X8690D1*
X8517Y6252D1*
G37*
G36*
X9517D2*
Y6497D1*
X9690Y6669D1*
X9934D1*
X10107Y6497D1*
Y6252D1*
X9934Y6080D1*
X9690D1*
X9517Y6252D1*
G37*
G36*
X7517D2*
Y6497D1*
X7690Y6669D1*
X7934D1*
X8107Y6497D1*
Y6252D1*
X7934Y6080D1*
X7690D1*
X7517Y6252D1*
G37*
D30*
X20437Y28937D3*
X17312D3*
X14187Y28875D3*
D31*
X30437Y16437D3*
Y19500D3*
D27*
X19500Y6562D3*
G36*
X20794Y6684D2*
Y6440D1*
X20622Y6267D1*
X20377D1*
X20205Y6440D1*
Y6684D1*
X20377Y6857D1*
X20622D1*
X20794Y6684D1*
G37*
G36*
X22794D2*
Y6440D1*
X22622Y6267D1*
X22377D1*
X22205Y6440D1*
Y6684D1*
X22377Y6857D1*
X22622D1*
X22794Y6684D1*
G37*
G36*
X21794D2*
Y6440D1*
X21622Y6267D1*
X21377D1*
X21205Y6440D1*
Y6684D1*
X21377Y6857D1*
X21622D1*
X21794Y6684D1*
G37*
G36*
X23794D2*
Y6440D1*
X23622Y6267D1*
X23377D1*
X23205Y6440D1*
Y6684D1*
X23377Y6857D1*
X23622D1*
X23794Y6684D1*
G37*
G36*
X24794D2*
Y6440D1*
X24622Y6267D1*
X24377D1*
X24205Y6440D1*
Y6684D1*
X24377Y6857D1*
X24622D1*
X24794Y6684D1*
G37*
G36*
X26794D2*
Y6440D1*
X26622Y6267D1*
X26377D1*
X26205Y6440D1*
Y6684D1*
X26377Y6857D1*
X26622D1*
X26794Y6684D1*
G37*
G36*
X25794D2*
Y6440D1*
X25622Y6267D1*
X25377D1*
X25205Y6440D1*
Y6684D1*
X25377Y6857D1*
X25622D1*
X25794Y6684D1*
G37*
M02*
