G04 DipTrace 2.4.0.2*
%INTopDimension.gbr*%
%MOIN*%
%ADD13C,0.0014*%
%ADD62C,0.0062*%
%FSLAX44Y44*%
G04*
G70*
G90*
G75*
G01*
%LNTopDimension*%
%LPD*%
X59190Y20940D2*
D13*
X63137D1*
X59440Y10940D2*
X63137D1*
X62940Y15940D2*
Y20546D1*
G36*
Y20940D2*
X63019Y20546D1*
X62861D1*
X62940Y20940D1*
G37*
Y15940D2*
D13*
Y11334D1*
G36*
Y10940D2*
X62861Y11334D1*
X63019D1*
X62940Y10940D1*
G37*
X9190Y20940D2*
D13*
Y36512D1*
X59190Y20940D2*
Y36512D1*
X34190Y36315D2*
X9584D1*
G36*
X9190D2*
X9584Y36394D1*
Y36236D1*
X9190Y36315D1*
G37*
X34190D2*
D13*
X58796D1*
G36*
X59190D2*
X58796Y36236D1*
Y36394D1*
X59190Y36315D1*
G37*
X9440Y10940D2*
D13*
Y993D1*
X59440Y10940D2*
Y993D1*
X34440Y1190D2*
X9834D1*
G36*
X9440D2*
X9834Y1269D1*
Y1111D1*
X9440Y1190D1*
G37*
X34440D2*
D13*
X59046D1*
G36*
X59440D2*
X59046Y1111D1*
Y1269D1*
X59440Y1190D1*
G37*
X5528Y20589D2*
D13*
X3618D1*
X5528Y19801D2*
X3618D1*
X3815Y20589D2*
Y19801D1*
Y21179D2*
Y20982D1*
G36*
Y20589D2*
X3736Y20982D1*
X3894D1*
X3815Y20589D1*
G37*
Y19211D2*
D13*
Y19408D1*
G36*
Y19801D2*
X3894Y19408D1*
X3736D1*
X3815Y19801D1*
G37*
Y22568D2*
D13*
Y20589D1*
X9190Y20940D2*
X868D1*
X9440Y10940D2*
X868D1*
X1065Y15940D2*
Y20546D1*
G36*
Y20940D2*
X1144Y20546D1*
X986D1*
X1065Y20940D1*
G37*
Y15940D2*
D13*
Y11334D1*
G36*
Y10940D2*
X986Y11334D1*
X1144D1*
X1065Y10940D1*
G37*
X9440D2*
D13*
X70262D1*
X59440D2*
X70262D1*
X70065D2*
D3*
Y11531D2*
Y11334D1*
G36*
Y10940D2*
X69986Y11334D1*
X70144D1*
X70065Y10940D1*
G37*
Y10349D2*
D13*
Y10546D1*
G36*
Y10940D2*
X70144Y10546D1*
X69986D1*
X70065Y10940D1*
G37*
Y10278D2*
D13*
Y10940D1*
X9190Y20940D2*
X69762D1*
X59190D2*
X69762D1*
X69565D2*
D3*
Y21531D2*
Y21334D1*
G36*
Y20940D2*
X69486Y21334D1*
X69644D1*
X69565Y20940D1*
G37*
Y20349D2*
D13*
Y20546D1*
G36*
Y20940D2*
X69644Y20546D1*
X69486D1*
X69565Y20940D1*
G37*
Y20278D2*
D13*
Y20940D1*
X32690Y27190D2*
X82887D1*
X32815Y3940D2*
X82887D1*
X82690Y15565D2*
Y26796D1*
G36*
Y27190D2*
X82769Y26796D1*
X82611D1*
X82690Y27190D1*
G37*
Y15565D2*
D13*
Y4334D1*
G36*
Y3940D2*
X82611Y4334D1*
X82769D1*
X82690Y3940D1*
G37*
X61065Y19815D2*
D13*
Y-2007D1*
X3940Y22315D2*
Y-2007D1*
X32502Y-1810D2*
X60671D1*
G36*
X61065D2*
X60671Y-1889D1*
Y-1731D1*
X61065Y-1810D1*
G37*
X32502D2*
D13*
X4334D1*
G36*
X3940D2*
X4334Y-1731D1*
Y-1889D1*
X3940Y-1810D1*
G37*
X63387Y15957D2*
D62*
X63407Y15919D1*
X63464Y15861D1*
X63062D1*
X34316Y36839D2*
X34125D1*
X34106Y36667D1*
X34125Y36686D1*
X34183Y36705D1*
X34240D1*
X34297Y36686D1*
X34336Y36648D1*
X34355Y36590D1*
Y36552D1*
X34336Y36495D1*
X34297Y36456D1*
X34240Y36437D1*
X34183D1*
X34125Y36456D1*
X34106Y36476D1*
X34087Y36514D1*
X34566Y1714D2*
X34375D1*
X34356Y1542D1*
X34375Y1561D1*
X34433Y1580D1*
X34490D1*
X34547Y1561D1*
X34586Y1523D1*
X34605Y1465D1*
Y1427D1*
X34586Y1370D1*
X34547Y1331D1*
X34490Y1312D1*
X34433D1*
X34375Y1331D1*
X34356Y1351D1*
X34337Y1389D1*
X3291Y21190D2*
X3310Y21132D1*
X3368Y21094D1*
X3463Y21075D1*
X3521D1*
X3616Y21094D1*
X3674Y21132D1*
X3693Y21190D1*
Y21228D1*
X3674Y21285D1*
X3616Y21323D1*
X3521Y21343D1*
X3463D1*
X3368Y21323D1*
X3310Y21285D1*
X3291Y21228D1*
Y21190D1*
X3368Y21323D2*
X3616Y21094D1*
X3654Y21485D2*
X3674Y21466D1*
X3693Y21485D1*
X3674Y21505D1*
X3654Y21485D1*
X3291Y21743D2*
X3310Y21686D1*
X3368Y21647D1*
X3463Y21628D1*
X3521D1*
X3616Y21647D1*
X3674Y21686D1*
X3693Y21743D1*
Y21781D1*
X3674Y21839D1*
X3616Y21877D1*
X3521Y21896D1*
X3463D1*
X3368Y21877D1*
X3310Y21839D1*
X3291Y21781D1*
Y21743D1*
X3368Y21877D2*
X3616Y21647D1*
X3693Y22096D2*
X3291Y22288D1*
Y22020D1*
X3425Y22660D2*
X3482Y22641D1*
X3521Y22603D1*
X3540Y22545D1*
Y22526D1*
X3521Y22469D1*
X3482Y22431D1*
X3425Y22411D1*
X3406D1*
X3348Y22431D1*
X3310Y22469D1*
X3291Y22526D1*
Y22545D1*
X3310Y22603D1*
X3348Y22641D1*
X3425Y22660D1*
X3521D1*
X3616Y22641D1*
X3674Y22603D1*
X3693Y22545D1*
Y22507D1*
X3674Y22450D1*
X3635Y22431D1*
X618Y15923D2*
X598Y15961D1*
X541Y16019D1*
X943D1*
X70589Y10339D2*
X70570Y10396D1*
X70512Y10435D1*
X70417Y10454D1*
X70359D1*
X70264Y10435D1*
X70206Y10396D1*
X70187Y10339D1*
Y10301D1*
X70206Y10243D1*
X70264Y10205D1*
X70359Y10186D1*
X70417D1*
X70512Y10205D1*
X70570Y10243D1*
X70589Y10301D1*
Y10339D1*
X70512Y10205D2*
X70264Y10435D1*
X70089Y20339D2*
X70070Y20396D1*
X70012Y20435D1*
X69917Y20454D1*
X69859D1*
X69764Y20435D1*
X69706Y20396D1*
X69687Y20339D1*
Y20301D1*
X69706Y20243D1*
X69764Y20205D1*
X69859Y20186D1*
X69917D1*
X70012Y20205D1*
X70070Y20243D1*
X70089Y20301D1*
Y20339D1*
X70012Y20205D2*
X69764Y20435D1*
X83118Y16317D2*
X83137D1*
X83176Y16298D1*
X83195Y16279D1*
X83214Y16240D1*
Y16164D1*
X83195Y16126D1*
X83176Y16107D1*
X83137Y16087D1*
X83099D1*
X83061Y16107D1*
X83004Y16145D1*
X82812Y16336D1*
Y16068D1*
X82851Y15926D2*
X82831Y15945D1*
X82812Y15926D1*
X82831Y15906D1*
X82851Y15926D1*
X83214Y15744D2*
Y15534D1*
X83061Y15649D1*
Y15591D1*
X83042Y15553D1*
X83023Y15534D1*
X82965Y15515D1*
X82927D1*
X82870Y15534D1*
X82831Y15572D1*
X82812Y15630D1*
Y15687D1*
X82831Y15744D1*
X82851Y15763D1*
X82889Y15783D1*
X83118Y15372D2*
X83137D1*
X83176Y15353D1*
X83195Y15334D1*
X83214Y15295D1*
Y15219D1*
X83195Y15181D1*
X83176Y15162D1*
X83137Y15142D1*
X83099D1*
X83061Y15162D1*
X83004Y15200D1*
X82812Y15391D1*
Y15123D1*
X83214Y14770D2*
Y14961D1*
X83042Y14980D1*
X83061Y14961D1*
X83080Y14904D1*
Y14847D1*
X83061Y14789D1*
X83023Y14751D1*
X82965Y14732D1*
X82927D1*
X82870Y14751D1*
X82831Y14789D1*
X82812Y14847D1*
Y14904D1*
X82831Y14961D1*
X82851Y14980D1*
X82889Y15000D1*
X32047Y-1286D2*
X31856D1*
X31837Y-1458D1*
X31856Y-1439D1*
X31913Y-1420D1*
X31970D1*
X32028Y-1439D1*
X32066Y-1477D1*
X32085Y-1535D1*
Y-1573D1*
X32066Y-1630D1*
X32028Y-1669D1*
X31970Y-1688D1*
X31913D1*
X31856Y-1669D1*
X31837Y-1649D1*
X31817Y-1611D1*
X32228Y-1649D2*
X32209Y-1669D1*
X32228Y-1688D1*
X32247Y-1669D1*
X32228Y-1649D1*
X32447Y-1688D2*
X32639Y-1286D1*
X32371D1*
X32762Y-1363D2*
X32801Y-1343D1*
X32858Y-1286D1*
Y-1688D1*
X33020Y-1286D2*
X33230D1*
X33116Y-1439D1*
X33173D1*
X33211Y-1458D1*
X33230Y-1477D1*
X33250Y-1535D1*
Y-1573D1*
X33230Y-1630D1*
X33192Y-1669D1*
X33135Y-1688D1*
X33077D1*
X33020Y-1669D1*
X33001Y-1649D1*
X32982Y-1611D1*
M02*
