%TF.GenerationSoftware,Novarm,DipTrace,3.0.0.2*%
%TF.CreationDate,2017-03-29T22:38:35-08:00*%
%FSLAX26Y26*%
%MOIN*%
%TF.FileFunction,Profile*%
%TF.Part,Single*%
%ADD11C,0.005512*%
G75*
G01*
%LPD*%
X3119000Y3819000D2*
D11*
X3019000Y3919000D1*
X494000D1*
X394000Y3819000D1*
Y494000D1*
X494000Y394000D1*
X3019000D1*
X3119000Y494000D1*
Y3819000D1*
M02*
