%TF.GenerationSoftware,Novarm,DipTrace,3.0.0.2*%
%TF.CreationDate,2017-01-12T11:09:45-08:00*%
%FSLAX26Y26*%
%MOIN*%
%TF.FileFunction,Copper,L3,Inr*%
%TF.Part,Single*%
%AMOUTLINE0*5,1,8,0,0,0.063779,-67.500206*%
%TA.AperFunction,Conductor*%
%ADD14C,0.01*%
%ADD15C,0.005906*%
%TA.AperFunction,CopperBalancing*%
%ADD16C,0.025*%
%TA.AperFunction,ComponentPad*%
%ADD19R,0.059055X0.059055*%
%ADD20C,0.059055*%
%ADD22C,0.098425*%
%ADD23R,0.11811X0.255906*%
%ADD24C,0.059055*%
%ADD25C,0.07874*%
%TA.AperFunction,ViaPad*%
%ADD38C,0.04*%
%TA.AperFunction,ComponentPad*%
%ADD90OUTLINE0*%
G75*
G01*
%LPD*%
X1100266Y712766D2*
D14*
X1081516D1*
X1062765Y731516D1*
Y819016D1*
X984718Y897064D1*
X937765Y944016D1*
Y1050266D1*
X2112765Y1475266D2*
Y1500266D1*
X2275265Y1662766D1*
X1500266Y1056516D2*
X1406514D1*
X1400265Y1062766D1*
X984718Y897064D2*
X931671Y844016D1*
X556516D1*
X519016Y881516D1*
Y1000266D1*
X644016Y1125266D1*
Y1437766D1*
X556516Y1525266D1*
Y1762766D1*
X656516Y1862766D1*
X675266D1*
X1169014Y819016D2*
D15*
X1156514D1*
X1125265Y850266D1*
Y1037766D1*
X1044016Y1119015D1*
X906514D1*
X837765Y1050266D1*
Y1094015D1*
X900265Y1156515D1*
X1669016D1*
X1694016Y1131515D1*
X1231514Y756515D2*
X1225266D1*
X1194016Y787766D1*
X1156517D1*
X1112766Y831516D1*
Y1019015D1*
X1031516Y1100266D1*
X919016D1*
X887766Y1069016D1*
Y1037767D1*
X819016Y969016D1*
X806516D1*
X787765Y950266D1*
Y1187766D1*
X1169016Y1569016D1*
X1281514D1*
X1525265Y1325266D1*
X2275265Y1362766D2*
D14*
X2087765Y1175266D1*
X1169016D1*
X1137765Y1206516D1*
Y1487764D1*
X1181517Y1531516D1*
X1250265D1*
X1331514Y1450267D1*
Y1437764D1*
X1231514Y819016D2*
D15*
Y831518D1*
X1212766Y850266D1*
X1156516D1*
X1137765Y869016D1*
Y900266D1*
X1156516Y919016D1*
X1194017D1*
X1212766Y937766D1*
X1644016D1*
X1662766Y956516D1*
X2181517D1*
X2319016Y1094015D1*
Y1319015D1*
X2275265Y1362766D1*
Y1462767D2*
D14*
X2012764Y1200266D1*
X1181516D1*
X1162765Y1219016D1*
Y1462764D1*
X1194016Y1494015D1*
X1169014Y881515D2*
D15*
X1187765D1*
X1219016Y912766D1*
X1650266D1*
X1669016Y931515D1*
X2194014D1*
X2337765Y1075266D1*
Y1400267D1*
X2275265Y1462767D1*
X1231514Y881515D2*
X1650265D1*
X1681516Y912766D1*
X2219016D1*
X2356516Y1050266D1*
Y1481516D1*
X2275265Y1562767D1*
X1200265Y1237766D2*
X2012766D1*
X2219016Y1444015D1*
Y1506518D1*
X2275265Y1562767D1*
D38*
X925265Y1787766D3*
X1100266Y712766D3*
X2112765Y1475266D3*
X1500266Y1056516D3*
X675266Y1862766D3*
X1694016Y1131515D3*
X650265Y1725266D3*
X1525265Y1325266D3*
X1325265Y2494015D3*
X1025319D3*
X1325266Y1919016D3*
X1025319D3*
X1325265Y1369016D3*
X1700265Y2744016D3*
X2000265D3*
X1700265Y2175266D3*
X2000265D3*
X1700265D3*
X1987765Y1625266D3*
X1687765D3*
X1987765D3*
X2112765Y1408337D3*
X1104696Y779695D3*
X817196Y1831516D3*
D3*
X1331514Y1437764D3*
X1194016Y1494015D3*
X1200265Y1237766D3*
X1644014Y1125266D3*
X1782942D3*
X1950265Y1069016D3*
X1887766Y987766D3*
X1812765D3*
X1644016D3*
X1731298Y985993D3*
X1562731Y987766D3*
X1969016Y1325266D3*
X1169016Y694016D3*
X1656514Y819016D3*
Y756516D3*
Y694015D3*
Y631516D3*
Y569016D3*
Y506515D3*
X1719014Y881515D3*
Y819016D3*
Y756515D3*
Y694016D3*
Y631516D3*
Y569015D3*
Y506515D3*
X1169014Y881515D3*
Y819016D3*
Y756516D3*
Y631516D3*
Y506516D3*
X1231514Y881515D3*
Y819016D3*
Y756515D3*
Y631516D3*
Y569016D3*
Y506516D3*
X604791Y2875397D2*
D16*
X626256D1*
X736774D2*
X1928648D1*
X2268806D2*
X2297790D1*
X739703Y2850528D2*
X1925134D1*
X2271638D2*
X2297790D1*
X612067Y2825659D2*
X632262D1*
X730768D2*
X1487731D1*
X1650299D2*
X1928503D1*
X2267535D2*
X2297790D1*
X605084Y2800791D2*
X1474547D1*
X1663531D2*
X1939684D1*
X2255427D2*
X2297790D1*
X588776Y2775922D2*
X1474255D1*
X1736579D2*
X1963415D1*
X2074615D2*
X2125866D1*
X2229694D2*
X2297790D1*
X465265Y2751053D2*
X487731D1*
X550299D2*
X1486706D1*
X1748736D2*
X1951794D1*
X2048736D2*
X2297790D1*
X465265Y2726184D2*
X1474596D1*
X1745710D2*
X1954820D1*
X2045710D2*
X2149694D1*
X465265Y2701316D2*
X1474156D1*
X1663874D2*
X1679332D1*
X1721198D2*
X1979332D1*
X2021198D2*
X2149694D1*
X465265Y2676447D2*
X1486364D1*
X1651667D2*
X1801794D1*
X1948736D2*
X2149694D1*
X465265Y2651578D2*
X1474694D1*
X1663336D2*
X1782946D1*
X1967584D2*
X2149694D1*
X613336Y2626709D2*
X698228D1*
X789802D2*
X1474108D1*
X1663923D2*
X1779430D1*
X1971100D2*
X2149694D1*
X613336Y2601841D2*
X675622D1*
X812408D2*
X1486022D1*
X1652008D2*
X1787731D1*
X1962799D2*
X2149694D1*
X613336Y2576972D2*
X666832D1*
X821198D2*
X1822448D1*
X1853083D2*
X1897448D1*
X1928083D2*
X2149694D1*
X613336Y2552103D2*
X666832D1*
X821198D2*
X2149694D1*
X613336Y2527234D2*
X675671D1*
X812360D2*
X990270D1*
X1060358D2*
X1290222D1*
X1360308D2*
X2149694D1*
X613336Y2502365D2*
X698375D1*
X789655D2*
X977087D1*
X1073542D2*
X1277038D1*
X1373492D2*
X2149694D1*
X613336Y2477497D2*
X979332D1*
X1071295D2*
X1279283D1*
X1371247D2*
X2149694D1*
X613336Y2452628D2*
X1001598D1*
X1049030D2*
X1301550D1*
X1348980D2*
X2149694D1*
X613336Y2427759D2*
X2149694D1*
X613336Y2402890D2*
X2149694D1*
X613336Y2378022D2*
X2149694D1*
X613336Y2353153D2*
X2149694D1*
X613336Y2328284D2*
X2149694D1*
X613336Y2303415D2*
X2149694D1*
X613336Y2278547D2*
X1517955D1*
X1557575D2*
X1592955D1*
X1632575D2*
X2149694D1*
X613336Y2253678D2*
X1486999D1*
X1663531D2*
X2149694D1*
X613336Y2228809D2*
X1479332D1*
X1671198D2*
X2149694D1*
X613336Y2203940D2*
X719420D1*
X768610D2*
X1483434D1*
X1739362D2*
X1961168D1*
X2039362D2*
X2149694D1*
X613336Y2179072D2*
X682604D1*
X805427D2*
X1487194D1*
X1749127D2*
X1951403D1*
X2049127D2*
X2149694D1*
X613336Y2154203D2*
X669274D1*
X818756D2*
X1479382D1*
X1744244D2*
X1956286D1*
X2044244D2*
X2149694D1*
X613336Y2129334D2*
X665856D1*
X822175D2*
X1483287D1*
X1667243D2*
X1690514D1*
X1709980D2*
X1990514D1*
X2009980D2*
X2149694D1*
X613336Y2104465D2*
X670787D1*
X817243D2*
X1487438D1*
X1663092D2*
X1791882D1*
X1958648D2*
X2149694D1*
X613336Y2079596D2*
X686412D1*
X801618D2*
X1479430D1*
X1671148D2*
X1780260D1*
X1970270D2*
X2149694D1*
X613336Y2054728D2*
X1483140D1*
X1667390D2*
X1781091D1*
X1969440D2*
X2149694D1*
X613336Y2029859D2*
X1502428D1*
X1648102D2*
X1795202D1*
X1955328D2*
X2149694D1*
X465265Y2004990D2*
X2149694D1*
X465265Y1980121D2*
X2149694D1*
X465265Y1955253D2*
X993688D1*
X1056940D2*
X1293639D1*
X1356891D2*
X2149694D1*
X465265Y1930384D2*
X977722D1*
X1072907D2*
X1277672D1*
X1372858D2*
X2149694D1*
X465265Y1905515D2*
X978307D1*
X1072320D2*
X1278259D1*
X1372272D2*
X2149694D1*
X465265Y1880646D2*
X996568D1*
X1054108D2*
X1296520D1*
X1354010D2*
X2149694D1*
X465265Y1855778D2*
X775035D1*
X859382D2*
X2149694D1*
X465265Y1830909D2*
X768199D1*
X866168D2*
X905407D1*
X945123D2*
X2149694D1*
X465265Y1806040D2*
X775816D1*
X858600D2*
X880016D1*
X970514D2*
X2149694D1*
X465265Y1781171D2*
X876744D1*
X973786D2*
X2297790D1*
X465265Y1756302D2*
X613122D1*
X687408D2*
X888512D1*
X962018D2*
X2297790D1*
X465265Y1731434D2*
X601696D1*
X698835D2*
X2297790D1*
X465265Y1706565D2*
X605211D1*
X695319D2*
X1494079D1*
X1643951D2*
X2297790D1*
X465265Y1681696D2*
X631530D1*
X669000D2*
X1476306D1*
X1661774D2*
X2297790D1*
X465265Y1656827D2*
X1473327D1*
X1724420D2*
X1951110D1*
X2024420D2*
X2297790D1*
X465265Y1631959D2*
X1482214D1*
X1736286D2*
X1939244D1*
X2036286D2*
X2297790D1*
X465265Y1607090D2*
X622984D1*
X740046D2*
X1476403D1*
X1733063D2*
X1942467D1*
X2033063D2*
X2237975D1*
X465265Y1582221D2*
X622984D1*
X740046D2*
X1138072D1*
X1312458D2*
X1473278D1*
X1707867D2*
X1967663D1*
X2007867D2*
X2217808D1*
X465265Y1557352D2*
X622984D1*
X740046D2*
X1113219D1*
X1337311D2*
X1481970D1*
X1656060D2*
X1794420D1*
X1956110D2*
X2216832D1*
X465265Y1532484D2*
X622984D1*
X740046D2*
X1088366D1*
X1362164D2*
X1476598D1*
X1661480D2*
X1780895D1*
X1969635D2*
X2200866D1*
X465265Y1507615D2*
X622984D1*
X740046D2*
X1063463D1*
X1387067D2*
X1473228D1*
X1664802D2*
X1780407D1*
X1970123D2*
X2187096D1*
X465265Y1482746D2*
X1038610D1*
X1411920D2*
X1481724D1*
X1656306D2*
X1792564D1*
X1957966D2*
X2187096D1*
X465265Y1457877D2*
X1013756D1*
X1225787D2*
X1276891D1*
X1436774D2*
X1517760D1*
X1545270D2*
X1592760D1*
X1620270D2*
X2187096D1*
X465265Y1433009D2*
X988854D1*
X1196735D2*
X1282751D1*
X1461676D2*
X2070836D1*
X465265Y1408140D2*
X964000D1*
X1196735D2*
X1293151D1*
X1369879D2*
X1398278D1*
X1486530D2*
X2063756D1*
X465265Y1383271D2*
X939147D1*
X1196735D2*
X1278503D1*
X1372028D2*
X1423131D1*
X1511383D2*
X2071080D1*
X465265Y1358402D2*
X914244D1*
X1196735D2*
X1277476D1*
X1373054D2*
X1447984D1*
X1560407D2*
X1933874D1*
X2004156D2*
X2089244D1*
X465265Y1333533D2*
X889391D1*
X1196735D2*
X1292711D1*
X1357819D2*
X1472887D1*
X1573542D2*
X1920739D1*
X2017291D2*
X2064391D1*
X465265Y1308665D2*
X864538D1*
X1196735D2*
X1479332D1*
X1571198D2*
X1923083D1*
X2014948D2*
X2039538D1*
X465265Y1283796D2*
X478551D1*
X591999D2*
X839684D1*
X1209382D2*
X1501744D1*
X1548786D2*
X1945495D1*
X1992535D2*
X2014684D1*
X615094Y1258927D2*
X814782D1*
X625983Y1234058D2*
X789928D1*
X2193610D2*
X2222594D1*
X629108Y1209190D2*
X765075D1*
X2168707D2*
X2249596D1*
X625348Y1184321D2*
X755846D1*
X2143854D2*
X2287096D1*
X613678Y1159452D2*
X755846D1*
X2119000D2*
X2287096D1*
X465265Y1134583D2*
X481530D1*
X588971D2*
X755846D1*
X1831012D2*
X2287096D1*
X465265Y1109715D2*
X755846D1*
X1097467D2*
X1167175D1*
X1233356D2*
X1267175D1*
X1333356D2*
X1597692D1*
X1829255D2*
X1925280D1*
X1975251D2*
X2287096D1*
X465265Y1084846D2*
X591198D1*
X1122320D2*
X1146276D1*
X1354255D2*
X1618542D1*
X1669488D2*
X1757458D1*
X1808454D2*
X1904039D1*
X2208795D2*
X2265710D1*
X465265Y1059977D2*
X580064D1*
X922858D2*
X1027672D1*
X1358747D2*
X1902135D1*
X2208795D2*
X2240856D1*
X465265Y1035108D2*
X581335D1*
X919587D2*
X1052526D1*
X1351471D2*
X1915954D1*
X465265Y1010240D2*
X596080D1*
X904352D2*
X1077428D1*
X1157184D2*
X1178259D1*
X1222272D2*
X1278259D1*
X1322272D2*
X1519518D1*
X1930963D2*
X2008580D1*
X465265Y985371D2*
X541588D1*
X933942D2*
X1080846D1*
X1157184D2*
X1513806D1*
X465265Y960502D2*
X530163D1*
X945367D2*
X1080846D1*
X1157184D2*
X1191588D1*
X465265Y935633D2*
X531188D1*
X944343D2*
X1080846D1*
X2219303Y1563064D2*
X2219630Y1579116D1*
X2221320Y1585112D1*
X2224365Y1590547D1*
X2227064Y1593709D1*
X2247486Y1613667D1*
X2252920Y1616712D1*
X2258916Y1618402D1*
X2263062Y1618729D1*
X2291614Y1618402D1*
X2297610Y1616712D1*
X2299861Y1615638D1*
X2300265Y1637766D1*
Y1795822D1*
X2152210Y1795813D1*
Y2104719D1*
X2300306D1*
X2298320Y2106837D1*
X2152210D1*
Y2415742D1*
X2300306D1*
X2298320Y2417860D1*
X2152210D1*
Y2726766D1*
X2300306D1*
X2300265Y2900266D1*
X2255881D1*
X2262192Y2887741D1*
X2266622Y2874106D1*
X2268865Y2859944D1*
Y2845606D1*
X2266622Y2831444D1*
X2262192Y2817809D1*
X2255682Y2805033D1*
X2247255Y2793434D1*
X2237117Y2783296D1*
X2225517Y2774868D1*
X2212741Y2768359D1*
X2199106Y2763928D1*
X2184945Y2761686D1*
X2170606D1*
X2156445Y2763928D1*
X2142810Y2768359D1*
X2130034Y2774868D1*
X2118434Y2783296D1*
X2108297Y2793434D1*
X2099869Y2805033D1*
X2099143Y2806330D1*
X2092937Y2796558D1*
X2083625Y2785657D1*
X2072723Y2776344D1*
X2060497Y2768854D1*
X2047251Y2763367D1*
X2043071Y2762187D1*
X2045480Y2754872D1*
X2046622Y2747665D1*
Y2740368D1*
X2045480Y2733161D1*
X2043226Y2726221D1*
X2039913Y2719720D1*
X2035623Y2713817D1*
X2030465Y2708658D1*
X2024562Y2704368D1*
X2018060Y2701056D1*
X2011121Y2698801D1*
X2003913Y2697659D1*
X1996617D1*
X1989409Y2698801D1*
X1982470Y2701056D1*
X1975969Y2704368D1*
X1970066Y2708658D1*
X1964907Y2713817D1*
X1960617Y2719720D1*
X1957304Y2726221D1*
X1955050Y2733161D1*
X1953908Y2740368D1*
Y2747665D1*
X1955050Y2754872D1*
X1957304Y2761812D1*
X1960617Y2768313D1*
X1964907Y2774216D1*
X1966252Y2775671D1*
X1959675Y2780787D1*
X1949537Y2790925D1*
X1941109Y2802524D1*
X1934600Y2815300D1*
X1930169Y2828935D1*
X1927927Y2843096D1*
Y2857435D1*
X1930169Y2871596D1*
X1934600Y2885232D1*
X1941109Y2898007D1*
X1942619Y2900267D1*
X716525Y2900266D1*
X724119Y2892904D1*
X729287Y2885791D1*
X733278Y2877957D1*
X735995Y2869595D1*
X737370Y2860913D1*
Y2852120D1*
X735995Y2843438D1*
X733278Y2835075D1*
X729287Y2827242D1*
X724119Y2820129D1*
X717903Y2813913D1*
X710790Y2808745D1*
X702957Y2804754D1*
X694594Y2802037D1*
X685912Y2800662D1*
X677119D1*
X668437Y2802037D1*
X660075Y2804754D1*
X652241Y2808745D1*
X645129Y2813913D1*
X638912Y2820129D1*
X633744Y2827242D1*
X629753Y2835075D1*
X627037Y2843438D1*
X625661Y2852120D1*
Y2860913D1*
X627037Y2869595D1*
X629753Y2877957D1*
X633744Y2885791D1*
X638912Y2892904D1*
X645129Y2899120D1*
X646600Y2900280D1*
X585665Y2900266D1*
X592937Y2891473D1*
X600428Y2879247D1*
X605915Y2866001D1*
X609262Y2852060D1*
X610387Y2837766D1*
X609262Y2823472D1*
X605915Y2809531D1*
X600428Y2796284D1*
X592937Y2784058D1*
X583625Y2773157D1*
X572723Y2763844D1*
X560497Y2756354D1*
X547251Y2750867D1*
X533310Y2747519D1*
X519016Y2746394D1*
X504722Y2747519D1*
X490781Y2750867D1*
X477534Y2756354D1*
X465308Y2763844D1*
X462734Y2765875D1*
X462765Y2640745D1*
X610820Y2640742D1*
Y2331837D1*
X462724D1*
X464710Y2329719D1*
X610820D1*
Y2020813D1*
X462724D1*
X462765Y1265842D1*
X470647Y1274864D1*
X481549Y1284177D1*
X493774Y1291667D1*
X507021Y1297154D1*
X520962Y1300502D1*
X535256Y1301627D1*
X549550Y1300502D1*
X563491Y1297154D1*
X576738Y1291667D1*
X588963Y1284177D1*
X599865Y1274864D1*
X609177Y1263963D1*
X616668Y1251737D1*
X622155Y1238490D1*
X625503Y1224549D1*
X626627Y1210255D1*
X625503Y1195961D1*
X622155Y1182020D1*
X616668Y1168774D1*
X609177Y1156548D1*
X599865Y1145646D1*
X588963Y1136334D1*
X576738Y1128843D1*
X563491Y1123356D1*
X549550Y1120009D1*
X535256Y1118884D1*
X520962Y1120009D1*
X507021Y1123356D1*
X493774Y1128843D1*
X481549Y1136334D1*
X470647Y1145646D1*
X462740Y1154766D1*
X462765Y925266D1*
X537618D1*
X534480Y932952D1*
X532428Y941501D1*
X531738Y950266D1*
X532428Y959031D1*
X534480Y967579D1*
X537844Y975701D1*
X542438Y983198D1*
X548147Y989884D1*
X554833Y995593D1*
X562329Y1000187D1*
X570451Y1003551D1*
X579000Y1005603D1*
X587765Y1006293D1*
X596530Y1005603D1*
X605079Y1003551D1*
X608491Y1002494D1*
X601378Y1007662D1*
X595161Y1013879D1*
X589993Y1020991D1*
X586003Y1028825D1*
X583286Y1037187D1*
X581911Y1045869D1*
Y1054662D1*
X583286Y1063344D1*
X586003Y1071707D1*
X589993Y1079540D1*
X595161Y1086653D1*
X601378Y1092869D1*
X608491Y1098037D1*
X616324Y1102028D1*
X624686Y1104745D1*
X633369Y1106120D1*
X642161D1*
X650844Y1104745D1*
X659206Y1102028D1*
X667039Y1098037D1*
X674152Y1092869D1*
X680369Y1086653D1*
X685537Y1079540D1*
X687844Y1075701D1*
X692438Y1083198D1*
X698147Y1089884D1*
X704833Y1095593D1*
X712329Y1100187D1*
X720451Y1103551D1*
X729000Y1105603D1*
X737765Y1106293D1*
X746530Y1105603D1*
X755079Y1103551D1*
X758319Y1102355D1*
X758403Y1190077D1*
X759753Y1196867D1*
X762652Y1203154D1*
X766938Y1208593D1*
X767184Y1208820D1*
X1149887Y1591413D1*
X1155644Y1595259D1*
X1162140Y1597656D1*
X1169016Y1598469D1*
X1169350Y1598456D1*
X1283825Y1598379D1*
X1290615Y1597028D1*
X1296903Y1594129D1*
X1302341Y1589843D1*
X1302568Y1589598D1*
X1520654Y1371531D1*
X1528913Y1371623D1*
X1536121Y1370481D1*
X1543060Y1368226D1*
X1549562Y1364914D1*
X1555465Y1360624D1*
X1560623Y1355465D1*
X1564913Y1349562D1*
X1568226Y1343061D1*
X1570480Y1336121D1*
X1571622Y1328914D1*
Y1321617D1*
X1570480Y1314410D1*
X1568226Y1307470D1*
X1564913Y1300969D1*
X1560623Y1295066D1*
X1555465Y1289907D1*
X1549562Y1285617D1*
X1543060Y1282305D1*
X1536121Y1280051D1*
X1528913Y1278909D1*
X1521617D1*
X1514409Y1280051D1*
X1507470Y1282305D1*
X1500969Y1285617D1*
X1495066Y1289907D1*
X1489907Y1295066D1*
X1485617Y1300969D1*
X1482304Y1307470D1*
X1480050Y1314410D1*
X1478908Y1321617D1*
X1479021Y1329863D1*
X1377552Y1431325D1*
X1375739Y1423396D1*
X1372946Y1416654D1*
X1369134Y1410432D1*
X1364395Y1404884D1*
X1359395Y1400578D1*
X1364913Y1393313D1*
X1368226Y1386812D1*
X1370480Y1379872D1*
X1371622Y1372665D1*
Y1365368D1*
X1370480Y1358161D1*
X1368226Y1351221D1*
X1364913Y1344720D1*
X1360623Y1338817D1*
X1355465Y1333658D1*
X1349562Y1329368D1*
X1343060Y1326056D1*
X1336121Y1323801D1*
X1328913Y1322659D1*
X1321617D1*
X1314409Y1323801D1*
X1307470Y1326056D1*
X1300969Y1329368D1*
X1295066Y1333658D1*
X1289907Y1338817D1*
X1285617Y1344720D1*
X1282304Y1351221D1*
X1280050Y1358161D1*
X1278908Y1365368D1*
Y1372665D1*
X1280050Y1379872D1*
X1282304Y1386812D1*
X1285617Y1393313D1*
X1289907Y1399216D1*
X1295066Y1404375D1*
X1297385Y1406203D1*
X1291866Y1413468D1*
X1288554Y1419969D1*
X1286299Y1426909D1*
X1285157Y1434116D1*
Y1441413D1*
X1286299Y1448620D1*
X1286814Y1450446D1*
X1240429Y1496805D1*
X1240373Y1490367D1*
X1239231Y1483159D1*
X1236976Y1476220D1*
X1233664Y1469719D1*
X1229374Y1463816D1*
X1224215Y1458657D1*
X1218312Y1454367D1*
X1211811Y1451054D1*
X1204871Y1448800D1*
X1197664Y1447658D1*
X1194259Y1447524D1*
X1194265Y1283907D1*
X1203913Y1284123D1*
X1211121Y1282981D1*
X1218060Y1280726D1*
X1224562Y1277414D1*
X1230465Y1273124D1*
X1236215Y1267215D1*
X2000780Y1267431D1*
X2097696Y1364347D1*
X2091655Y1366905D1*
X2085433Y1370717D1*
X2079885Y1375456D1*
X2075146Y1381005D1*
X2071333Y1387226D1*
X2068541Y1393968D1*
X2066837Y1401062D1*
X2066265Y1408337D1*
X2066837Y1415611D1*
X2068541Y1422705D1*
X2071333Y1429447D1*
X2075146Y1435669D1*
X2079885Y1441217D1*
X2085433Y1445956D1*
X2091655Y1449768D1*
X2098396Y1452561D1*
X2105491Y1454264D1*
X2112765Y1454837D1*
X2120039Y1454264D1*
X2127134Y1452561D1*
X2133875Y1449768D1*
X2140097Y1445956D1*
X2145646Y1441217D1*
X2150385Y1435669D1*
X2154197Y1429447D1*
X2156738Y1423388D1*
X2189563Y1456515D1*
X2189654Y1508829D1*
X2191004Y1515619D1*
X2193903Y1521906D1*
X2198189Y1527344D1*
X2198434Y1527572D1*
X2219424Y1548578D1*
X2219303Y1563064D1*
X2274969Y1206805D2*
X2258916Y1207132D1*
X2252920Y1208822D1*
X2247486Y1211865D1*
X2244323Y1214566D1*
X2224364Y1234988D1*
X2221320Y1240422D1*
X2219630Y1246418D1*
X2219303Y1250564D1*
X2219316Y1261066D1*
X2217990Y1260943D1*
X2108223Y1151313D1*
X2102066Y1147199D1*
X2095118Y1144636D1*
X2087765Y1143766D1*
X2087428Y1143779D1*
X1825606Y1143766D1*
X1828157Y1136121D1*
X1829299Y1128914D1*
Y1121617D1*
X1828157Y1114410D1*
X1825903Y1107470D1*
X1822591Y1100969D1*
X1818301Y1095066D1*
X1813142Y1089907D1*
X1807239Y1085617D1*
X1800738Y1082305D1*
X1793798Y1080051D1*
X1786591Y1078909D1*
X1779294D1*
X1772087Y1080051D1*
X1765147Y1082305D1*
X1758646Y1085617D1*
X1752743Y1089907D1*
X1747584Y1095066D1*
X1743294Y1100969D1*
X1739982Y1107470D1*
X1737568Y1115208D1*
X1733664Y1107219D1*
X1729374Y1101316D1*
X1724215Y1096157D1*
X1718312Y1091867D1*
X1711811Y1088554D1*
X1704871Y1086300D1*
X1697664Y1085158D1*
X1690367D1*
X1683160Y1086300D1*
X1676220Y1088554D1*
X1673877Y1089636D1*
X1668311Y1085617D1*
X1661810Y1082305D1*
X1654870Y1080051D1*
X1647663Y1078909D1*
X1640366D1*
X1633159Y1080051D1*
X1626219Y1082305D1*
X1619718Y1085617D1*
X1613815Y1089907D1*
X1608656Y1095066D1*
X1604366Y1100969D1*
X1601054Y1107470D1*
X1598799Y1114410D1*
X1597657Y1121617D1*
X1597585Y1127075D1*
X1077560Y1127062D1*
X1144287Y1060396D1*
X1144411Y1067162D1*
X1145786Y1075844D1*
X1148503Y1084207D1*
X1152493Y1092040D1*
X1157661Y1099153D1*
X1163878Y1105369D1*
X1170991Y1110537D1*
X1178824Y1114528D1*
X1187186Y1117245D1*
X1195869Y1118620D1*
X1204661D1*
X1213344Y1117245D1*
X1221706Y1114528D1*
X1229539Y1110537D1*
X1236652Y1105369D1*
X1242869Y1099153D1*
X1248037Y1092040D1*
X1250344Y1088201D1*
X1254938Y1095698D1*
X1260647Y1102384D1*
X1267333Y1108093D1*
X1274829Y1112687D1*
X1282951Y1116051D1*
X1291500Y1118103D1*
X1300265Y1118793D1*
X1309030Y1118103D1*
X1317579Y1116051D1*
X1325701Y1112687D1*
X1333197Y1108093D1*
X1339883Y1102384D1*
X1345592Y1095698D1*
X1350186Y1088201D1*
X1353550Y1080079D1*
X1355602Y1071531D1*
X1356293Y1062766D1*
X1355602Y1054001D1*
X1353550Y1045452D1*
X1350186Y1037330D1*
X1345592Y1029834D1*
X1339883Y1023148D1*
X1333197Y1017439D1*
X1325701Y1012844D1*
X1317579Y1009481D1*
X1309030Y1007428D1*
X1300265Y1006738D1*
X1291500Y1007428D1*
X1282951Y1009481D1*
X1274829Y1012844D1*
X1267333Y1017439D1*
X1260647Y1023148D1*
X1254938Y1029834D1*
X1250265Y1037502D1*
X1245592Y1029834D1*
X1239883Y1023148D1*
X1233197Y1017439D1*
X1225701Y1012844D1*
X1217579Y1009481D1*
X1209030Y1007428D1*
X1200265Y1006738D1*
X1191500Y1007428D1*
X1182951Y1009481D1*
X1174829Y1012844D1*
X1167333Y1017439D1*
X1160647Y1023148D1*
X1154699Y1030191D1*
X1154718Y948362D1*
X1181857Y948469D1*
X1193638Y960162D1*
X1199395Y964009D1*
X1205891Y966405D1*
X1212766Y967219D1*
X1213100Y967205D1*
X1521018Y967219D1*
X1518507Y973397D1*
X1516803Y980491D1*
X1516231Y987766D1*
X1516803Y995040D1*
X1518507Y1002135D1*
X1521299Y1008876D1*
X1525112Y1015098D1*
X1529850Y1020646D1*
X1535399Y1025385D1*
X1541621Y1029198D1*
X1548362Y1031990D1*
X1555457Y1033694D1*
X1562731Y1034266D1*
X1570005Y1033694D1*
X1577100Y1031990D1*
X1583841Y1029198D1*
X1590063Y1025385D1*
X1595612Y1020646D1*
X1600350Y1015098D1*
X1603348Y1010333D1*
X1608657Y1017965D1*
X1613816Y1023124D1*
X1619719Y1027414D1*
X1626220Y1030726D1*
X1633160Y1032981D1*
X1640367Y1034123D1*
X1647664D1*
X1654871Y1032981D1*
X1661811Y1030726D1*
X1668312Y1027414D1*
X1674215Y1023124D1*
X1679374Y1017965D1*
X1683664Y1012062D1*
X1686976Y1005561D1*
X1687969Y1002871D1*
X1691650Y1010289D1*
X1695940Y1016192D1*
X1701098Y1021351D1*
X1707001Y1025641D1*
X1713503Y1028953D1*
X1720442Y1031208D1*
X1727650Y1032350D1*
X1734946D1*
X1742154Y1031208D1*
X1749093Y1028953D1*
X1755594Y1025641D1*
X1761497Y1021351D1*
X1766656Y1016192D1*
X1771524Y1009257D1*
X1775146Y1015098D1*
X1779885Y1020646D1*
X1785433Y1025385D1*
X1791655Y1029198D1*
X1798396Y1031990D1*
X1805491Y1033694D1*
X1812765Y1034266D1*
X1820039Y1033694D1*
X1827134Y1031990D1*
X1833875Y1029198D1*
X1840097Y1025385D1*
X1845646Y1020646D1*
X1850269Y1015243D1*
X1854886Y1020646D1*
X1860434Y1025385D1*
X1866656Y1029198D1*
X1873398Y1031990D1*
X1880492Y1033694D1*
X1887766Y1034266D1*
X1895041Y1033694D1*
X1902135Y1031990D1*
X1908877Y1029198D1*
X1915098Y1025385D1*
X1920647Y1020646D1*
X1925386Y1015098D1*
X1929198Y1008876D1*
X1931991Y1002135D1*
X1933694Y995040D1*
X1934266Y987766D1*
X1934196Y985956D1*
X2169530Y986182D1*
X2177575Y994226D1*
X2094238Y994238D1*
Y1015575D1*
X2089883Y1010648D1*
X2083197Y1004939D1*
X2075701Y1000344D1*
X2067579Y996981D1*
X2059030Y994928D1*
X2050265Y994238D1*
X2041500Y994928D1*
X2032951Y996981D1*
X2024829Y1000344D1*
X2017333Y1004939D1*
X2010647Y1010648D1*
X2004938Y1017334D1*
X2000344Y1024830D1*
X1996980Y1032952D1*
X1994928Y1041501D1*
X1994238Y1050266D1*
X1994399Y1054369D1*
X1991697Y1047906D1*
X1987885Y1041684D1*
X1983146Y1036136D1*
X1977597Y1031397D1*
X1971375Y1027585D1*
X1964634Y1024792D1*
X1957539Y1023089D1*
X1950265Y1022516D1*
X1942991Y1023089D1*
X1935896Y1024792D1*
X1929155Y1027585D1*
X1922933Y1031397D1*
X1917385Y1036136D1*
X1912646Y1041684D1*
X1908833Y1047906D1*
X1906041Y1054648D1*
X1904337Y1061742D1*
X1903765Y1069016D1*
X1904337Y1076291D1*
X1906041Y1083385D1*
X1908833Y1090127D1*
X1912646Y1096348D1*
X1917385Y1101897D1*
X1922933Y1106636D1*
X1929155Y1110448D1*
X1935896Y1113241D1*
X1942991Y1114944D1*
X1950265Y1115516D1*
X1957539Y1114944D1*
X1964634Y1113241D1*
X1971375Y1110448D1*
X1977597Y1106636D1*
X1983146Y1101897D1*
X1987885Y1096348D1*
X1991697Y1090127D1*
X1994490Y1083385D1*
X1996193Y1076291D1*
X1996765Y1069016D1*
X1996671Y1066608D1*
X2000344Y1075701D1*
X2004938Y1083198D1*
X2010647Y1089884D1*
X2017333Y1095593D1*
X2024829Y1100187D1*
X2032951Y1103551D1*
X2041500Y1105603D1*
X2050265Y1106293D1*
X2059030Y1105603D1*
X2067579Y1103551D1*
X2075701Y1100187D1*
X2083197Y1095593D1*
X2089883Y1089884D1*
X2094241Y1084911D1*
X2094238Y1106293D1*
X2206293D1*
Y1022944D1*
X2289563Y1106515D1*
X2289547Y1206886D1*
X2274969Y1206805D1*
X943619Y945869D2*
X942244Y937187D1*
X939528Y928825D1*
X937881Y925251D1*
X1083322Y925266D1*
X1083101Y1007028D1*
X1019016Y1070813D1*
X931003Y1070600D1*
X917219Y1056516D1*
X917129Y1035456D1*
X915778Y1028666D1*
X912879Y1022379D1*
X908593Y1016940D1*
X908348Y1016713D1*
X897164Y1005512D1*
X905079Y1003551D1*
X913201Y1000187D1*
X920697Y995593D1*
X927383Y989884D1*
X933092Y983198D1*
X937686Y975701D1*
X941050Y967579D1*
X943102Y959031D1*
X943793Y950266D1*
X943619Y945869D1*
X637988Y1612544D2*
X737543D1*
Y1500489D1*
X625488D1*
Y1612544D1*
X637988D1*
X819495Y2125575D2*
X817636Y2113842D1*
X813965Y2102543D1*
X808571Y2091956D1*
X801588Y2082344D1*
X793188Y2073944D1*
X783576Y2066961D1*
X772990Y2061568D1*
X761690Y2057896D1*
X749957Y2056037D1*
X738075D1*
X726341Y2057896D1*
X715042Y2061568D1*
X704455Y2066961D1*
X694844Y2073944D1*
X686444Y2082344D1*
X679461Y2091956D1*
X674067Y2102543D1*
X670395Y2113842D1*
X668537Y2125575D1*
Y2137457D1*
X670395Y2149191D1*
X674067Y2160490D1*
X679461Y2171077D1*
X686444Y2180688D1*
X694844Y2189089D1*
X704455Y2196072D1*
X715042Y2201465D1*
X726341Y2205137D1*
X738075Y2206995D1*
X749957D1*
X761690Y2205137D1*
X772990Y2201465D1*
X783576Y2196072D1*
X793188Y2189089D1*
X801588Y2180688D1*
X808571Y2171077D1*
X813965Y2160490D1*
X817636Y2149191D1*
X819495Y2137457D1*
Y2125575D1*
Y2558646D2*
X817636Y2546913D1*
X813965Y2535614D1*
X808571Y2525027D1*
X801588Y2515415D1*
X793188Y2507015D1*
X783576Y2500032D1*
X772990Y2494638D1*
X761690Y2490967D1*
X749957Y2489108D1*
X738075D1*
X726341Y2490967D1*
X715042Y2494638D1*
X704455Y2500032D1*
X694844Y2507015D1*
X686444Y2515415D1*
X679461Y2525027D1*
X674067Y2535614D1*
X670395Y2546913D1*
X668537Y2558646D1*
Y2570528D1*
X670395Y2582262D1*
X674067Y2593561D1*
X679461Y2604148D1*
X686444Y2613759D1*
X694844Y2622159D1*
X704455Y2629142D1*
X715042Y2634536D1*
X726341Y2638208D1*
X738075Y2640066D1*
X749957D1*
X761690Y2638208D1*
X772990Y2634536D1*
X783576Y2629142D1*
X793188Y2622159D1*
X801588Y2613759D1*
X808571Y2604148D1*
X813965Y2593561D1*
X817636Y2582262D1*
X819495Y2570528D1*
Y2558646D1*
X1489904Y2750306D2*
X1486189Y2754834D1*
X1481594Y2762330D1*
X1478231Y2770452D1*
X1476178Y2779001D1*
X1475488Y2787766D1*
X1476178Y2796531D1*
X1478231Y2805079D1*
X1481594Y2813201D1*
X1486189Y2820698D1*
X1491898Y2827384D1*
X1498584Y2833093D1*
X1506080Y2837687D1*
X1514202Y2841051D1*
X1522751Y2843103D1*
X1531516Y2843793D1*
X1540281Y2843103D1*
X1548829Y2841051D1*
X1556951Y2837687D1*
X1564448Y2833093D1*
X1568975Y2829377D1*
X1577241Y2835537D1*
X1585075Y2839528D1*
X1593437Y2842245D1*
X1602119Y2843620D1*
X1610912D1*
X1619594Y2842245D1*
X1627957Y2839528D1*
X1635790Y2835537D1*
X1642903Y2830369D1*
X1649119Y2824153D1*
X1654287Y2817040D1*
X1658278Y2809207D1*
X1660995Y2800844D1*
X1662370Y2792162D1*
Y2783369D1*
X1660995Y2774687D1*
X1658278Y2766325D1*
X1654287Y2758491D1*
X1649119Y2751379D1*
X1648127Y2750306D1*
X1653781Y2742797D1*
X1654337Y2751291D1*
X1656041Y2758385D1*
X1658833Y2765127D1*
X1662646Y2771348D1*
X1667385Y2776897D1*
X1672933Y2781636D1*
X1679155Y2785448D1*
X1685896Y2788241D1*
X1692991Y2789944D1*
X1700265Y2790516D1*
X1707539Y2789944D1*
X1714634Y2788241D1*
X1721375Y2785448D1*
X1727597Y2781636D1*
X1733146Y2776897D1*
X1737885Y2771348D1*
X1741697Y2765127D1*
X1744490Y2758385D1*
X1746193Y2751291D1*
X1746765Y2744016D1*
X1746193Y2736742D1*
X1744490Y2729648D1*
X1741697Y2722906D1*
X1737885Y2716684D1*
X1733146Y2711136D1*
X1727597Y2706397D1*
X1721375Y2702585D1*
X1714634Y2699792D1*
X1707539Y2698089D1*
X1700265Y2697516D1*
X1692991Y2698089D1*
X1685896Y2699792D1*
X1679155Y2702585D1*
X1672933Y2706397D1*
X1667385Y2711136D1*
X1662369Y2717099D1*
X1662370Y2708369D1*
X1660995Y2699687D1*
X1658278Y2691325D1*
X1654287Y2683491D1*
X1649119Y2676379D1*
X1648127Y2675306D1*
X1654287Y2667040D1*
X1658278Y2659207D1*
X1660995Y2650844D1*
X1662370Y2642162D1*
Y2633369D1*
X1660995Y2624687D1*
X1658278Y2616325D1*
X1654287Y2608491D1*
X1649119Y2601379D1*
X1642903Y2595162D1*
X1635790Y2589994D1*
X1627957Y2586003D1*
X1619594Y2583287D1*
X1610912Y2581911D1*
X1602119D1*
X1593437Y2583287D1*
X1585075Y2586003D1*
X1577241Y2589994D1*
X1570129Y2595162D1*
X1569056Y2596154D1*
X1560790Y2589994D1*
X1552957Y2586003D1*
X1544594Y2583287D1*
X1535912Y2581911D1*
X1527119D1*
X1518437Y2583287D1*
X1510075Y2586003D1*
X1502241Y2589994D1*
X1495129Y2595162D1*
X1488912Y2601379D1*
X1483744Y2608491D1*
X1479753Y2616325D1*
X1477037Y2624687D1*
X1475661Y2633369D1*
Y2642162D1*
X1477037Y2650844D1*
X1479753Y2659207D1*
X1483744Y2667040D1*
X1488912Y2674153D1*
X1489904Y2675225D1*
X1483743Y2683491D1*
X1479752Y2691325D1*
X1477035Y2699687D1*
X1475660Y2708369D1*
Y2717162D1*
X1477035Y2725844D1*
X1479752Y2734207D1*
X1483743Y2742040D1*
X1488911Y2749153D1*
X1489903Y2750225D1*
X1496155Y2187806D2*
X1492440Y2192334D1*
X1487845Y2199830D1*
X1484482Y2207952D1*
X1482429Y2216501D1*
X1481739Y2225266D1*
X1482429Y2234031D1*
X1484482Y2242579D1*
X1487845Y2250701D1*
X1492440Y2258198D1*
X1498148Y2264884D1*
X1504835Y2270593D1*
X1512331Y2275187D1*
X1520453Y2278551D1*
X1529001Y2280603D1*
X1537766Y2281293D1*
X1546531Y2280603D1*
X1555080Y2278551D1*
X1563202Y2275187D1*
X1570698Y2270593D1*
X1575226Y2266877D1*
X1583492Y2273037D1*
X1591325Y2277028D1*
X1599688Y2279745D1*
X1608370Y2281120D1*
X1617163D1*
X1625845Y2279745D1*
X1634207Y2277028D1*
X1642041Y2273037D1*
X1649154Y2267869D1*
X1655370Y2261653D1*
X1660538Y2254540D1*
X1664529Y2246707D1*
X1667245Y2238344D1*
X1668621Y2229662D1*
Y2220869D1*
X1667245Y2212187D1*
X1665308Y2205936D1*
X1670066Y2210624D1*
X1675969Y2214914D1*
X1682470Y2218226D1*
X1689409Y2220481D1*
X1696617Y2221623D1*
X1703913D1*
X1711121Y2220481D1*
X1718060Y2218226D1*
X1724562Y2214914D1*
X1730465Y2210624D1*
X1735623Y2205465D1*
X1739913Y2199562D1*
X1743226Y2193061D1*
X1745480Y2186121D1*
X1746622Y2178914D1*
Y2171617D1*
X1745480Y2164410D1*
X1743226Y2157470D1*
X1739913Y2150969D1*
X1735623Y2145066D1*
X1730465Y2139907D1*
X1724562Y2135617D1*
X1718060Y2132305D1*
X1711121Y2130051D1*
X1703913Y2128909D1*
X1696617D1*
X1689409Y2130051D1*
X1682470Y2132305D1*
X1675969Y2135617D1*
X1670066Y2139907D1*
X1668104Y2141501D1*
X1666051Y2132952D1*
X1662688Y2124830D1*
X1658093Y2117334D1*
X1654378Y2112806D1*
X1660538Y2104540D1*
X1664529Y2096707D1*
X1667245Y2088344D1*
X1668621Y2079662D1*
Y2070869D1*
X1667245Y2062187D1*
X1664529Y2053825D1*
X1660538Y2045991D1*
X1655370Y2038879D1*
X1649154Y2032662D1*
X1642041Y2027494D1*
X1634207Y2023503D1*
X1625845Y2020787D1*
X1617163Y2019411D1*
X1608370D1*
X1599688Y2020787D1*
X1591325Y2023503D1*
X1583492Y2027494D1*
X1576379Y2032662D1*
X1575307Y2033654D1*
X1567041Y2027494D1*
X1559207Y2023503D1*
X1550845Y2020787D1*
X1542163Y2019411D1*
X1533370D1*
X1524688Y2020787D1*
X1516325Y2023503D1*
X1508492Y2027494D1*
X1501379Y2032662D1*
X1495163Y2038879D1*
X1489995Y2045991D1*
X1486004Y2053825D1*
X1483287Y2062187D1*
X1481912Y2070869D1*
Y2079662D1*
X1483287Y2088344D1*
X1486004Y2096707D1*
X1489995Y2104540D1*
X1495163Y2111653D1*
X1496155Y2112725D1*
X1489993Y2120991D1*
X1486003Y2128825D1*
X1483286Y2137187D1*
X1481911Y2145869D1*
Y2154662D1*
X1483286Y2163344D1*
X1486003Y2171707D1*
X1489993Y2179540D1*
X1495161Y2186653D1*
X1496154Y2187725D1*
X1489906Y1625306D2*
X1486190Y1629834D1*
X1481596Y1637330D1*
X1478232Y1645452D1*
X1476180Y1654001D1*
X1475490Y1662766D1*
X1476180Y1671531D1*
X1478232Y1680079D1*
X1481596Y1688201D1*
X1486190Y1695698D1*
X1491899Y1702384D1*
X1498585Y1708093D1*
X1506081Y1712687D1*
X1514203Y1716051D1*
X1522752Y1718103D1*
X1531517Y1718793D1*
X1540282Y1718103D1*
X1548831Y1716051D1*
X1556953Y1712687D1*
X1564449Y1708093D1*
X1568976Y1704377D1*
X1577243Y1710537D1*
X1585076Y1714528D1*
X1593438Y1717245D1*
X1602121Y1718620D1*
X1610913D1*
X1619596Y1717245D1*
X1627958Y1714528D1*
X1635791Y1710537D1*
X1642904Y1705369D1*
X1649121Y1699153D1*
X1654289Y1692040D1*
X1658280Y1684207D1*
X1660996Y1675844D1*
X1662371Y1667162D1*
X1662484Y1664295D1*
X1669970Y1668226D1*
X1676909Y1670481D1*
X1684117Y1671623D1*
X1691413D1*
X1698621Y1670481D1*
X1705560Y1668226D1*
X1712062Y1664914D1*
X1717965Y1660624D1*
X1723123Y1655465D1*
X1727413Y1649562D1*
X1730726Y1643061D1*
X1732980Y1636121D1*
X1734122Y1628914D1*
Y1621617D1*
X1732980Y1614410D1*
X1730726Y1607470D1*
X1727413Y1600969D1*
X1723123Y1595066D1*
X1717965Y1589907D1*
X1712062Y1585617D1*
X1705560Y1582305D1*
X1698621Y1580051D1*
X1691413Y1578909D1*
X1684117D1*
X1676909Y1580051D1*
X1669970Y1582305D1*
X1662531Y1586243D1*
X1661854Y1579001D1*
X1659802Y1570452D1*
X1656438Y1562330D1*
X1651844Y1554834D1*
X1648129Y1550306D1*
X1654289Y1542040D1*
X1658280Y1534207D1*
X1660996Y1525844D1*
X1662371Y1517162D1*
Y1508369D1*
X1660996Y1499687D1*
X1658280Y1491325D1*
X1654289Y1483491D1*
X1649121Y1476379D1*
X1642904Y1470162D1*
X1635791Y1464994D1*
X1627958Y1461003D1*
X1619596Y1458287D1*
X1610913Y1456911D1*
X1602121D1*
X1593438Y1458287D1*
X1585076Y1461003D1*
X1577243Y1464994D1*
X1570130Y1470162D1*
X1569058Y1471154D1*
X1560791Y1464994D1*
X1552958Y1461003D1*
X1544596Y1458287D1*
X1535913Y1456911D1*
X1527121D1*
X1518438Y1458287D1*
X1510076Y1461003D1*
X1502243Y1464994D1*
X1495130Y1470162D1*
X1488913Y1476379D1*
X1483745Y1483491D1*
X1479755Y1491325D1*
X1477038Y1499687D1*
X1475663Y1508369D1*
Y1517162D1*
X1477038Y1525844D1*
X1479755Y1534207D1*
X1483745Y1542040D1*
X1488913Y1549153D1*
X1489906Y1550225D1*
X1483744Y1558491D1*
X1479753Y1566325D1*
X1477037Y1574687D1*
X1475661Y1583369D1*
Y1592162D1*
X1477037Y1600844D1*
X1479753Y1609207D1*
X1483744Y1617040D1*
X1488912Y1624153D1*
X1489904Y1625225D1*
X1875224Y2589905D2*
X1870697Y2586190D1*
X1863201Y2581595D1*
X1855079Y2578232D1*
X1846530Y2576179D1*
X1837765Y2575489D1*
X1829000Y2576179D1*
X1820451Y2578232D1*
X1812329Y2581595D1*
X1804833Y2586190D1*
X1798147Y2591898D1*
X1792438Y2598585D1*
X1787844Y2606081D1*
X1784480Y2614203D1*
X1782428Y2622751D1*
X1781738Y2631516D1*
X1782428Y2640281D1*
X1784480Y2648830D1*
X1787844Y2656952D1*
X1792438Y2664448D1*
X1798147Y2671135D1*
X1804833Y2676843D1*
X1812329Y2681438D1*
X1820451Y2684801D1*
X1829000Y2686854D1*
X1837765Y2687544D1*
X1846530Y2686854D1*
X1855079Y2684801D1*
X1863201Y2681438D1*
X1870697Y2676843D1*
X1875224Y2673128D1*
X1883491Y2679288D1*
X1891324Y2683279D1*
X1899686Y2685995D1*
X1908369Y2687371D1*
X1917161D1*
X1925844Y2685995D1*
X1934206Y2683279D1*
X1942039Y2679288D1*
X1949152Y2674120D1*
X1955369Y2667904D1*
X1960537Y2660791D1*
X1964528Y2652957D1*
X1967244Y2644595D1*
X1968619Y2635913D1*
Y2627120D1*
X1967244Y2618438D1*
X1964528Y2610075D1*
X1960537Y2602242D1*
X1955369Y2595129D1*
X1949152Y2588913D1*
X1942039Y2583745D1*
X1934206Y2579754D1*
X1925844Y2577037D1*
X1917161Y2575662D1*
X1908369D1*
X1899686Y2577037D1*
X1891324Y2579754D1*
X1883491Y2583745D1*
X1876378Y2588913D1*
X1875306Y2589905D1*
X1875224Y2027405D2*
X1870697Y2023690D1*
X1863201Y2019095D1*
X1855079Y2015732D1*
X1846530Y2013679D1*
X1837765Y2012989D1*
X1829000Y2013679D1*
X1820451Y2015732D1*
X1812329Y2019095D1*
X1804833Y2023690D1*
X1798147Y2029398D1*
X1792438Y2036085D1*
X1787844Y2043581D1*
X1784480Y2051703D1*
X1782428Y2060251D1*
X1781738Y2069016D1*
X1782428Y2077781D1*
X1784480Y2086330D1*
X1787844Y2094452D1*
X1792438Y2101948D1*
X1798147Y2108635D1*
X1804833Y2114343D1*
X1812329Y2118938D1*
X1820451Y2122301D1*
X1829000Y2124354D1*
X1837765Y2125044D1*
X1846530Y2124354D1*
X1855079Y2122301D1*
X1863201Y2118938D1*
X1870697Y2114343D1*
X1875224Y2110628D1*
X1883491Y2116788D1*
X1891324Y2120779D1*
X1899686Y2123495D1*
X1908369Y2124871D1*
X1917161D1*
X1925844Y2123495D1*
X1934206Y2120779D1*
X1942039Y2116788D1*
X1949152Y2111620D1*
X1955369Y2105404D1*
X1960537Y2098291D1*
X1964528Y2090457D1*
X1967244Y2082095D1*
X1968619Y2073413D1*
Y2064620D1*
X1967244Y2055938D1*
X1964528Y2047575D1*
X1960537Y2039742D1*
X1955369Y2032629D1*
X1949152Y2026413D1*
X1942039Y2021245D1*
X1934206Y2017254D1*
X1925844Y2014537D1*
X1917161Y2013162D1*
X1908369D1*
X1899686Y2014537D1*
X1891324Y2017254D1*
X1883491Y2021245D1*
X1876378Y2026413D1*
X1875306Y2027405D1*
X1875224Y1477404D2*
X1870697Y1473688D1*
X1863201Y1469094D1*
X1855079Y1465730D1*
X1846530Y1463678D1*
X1837765Y1462988D1*
X1829000Y1463678D1*
X1820451Y1465730D1*
X1812329Y1469094D1*
X1804833Y1473688D1*
X1798147Y1479397D1*
X1792438Y1486083D1*
X1787844Y1493579D1*
X1784480Y1501701D1*
X1782428Y1510250D1*
X1781738Y1519015D1*
X1782428Y1527780D1*
X1784480Y1536329D1*
X1787844Y1544451D1*
X1792438Y1551947D1*
X1798147Y1558633D1*
X1804833Y1564342D1*
X1812329Y1568936D1*
X1820451Y1572300D1*
X1829000Y1574352D1*
X1837765Y1575043D1*
X1846530Y1574352D1*
X1855079Y1572300D1*
X1863201Y1568936D1*
X1870697Y1564342D1*
X1875224Y1560627D1*
X1883491Y1566787D1*
X1891324Y1570778D1*
X1899686Y1573494D1*
X1908369Y1574869D1*
X1917161D1*
X1925844Y1573494D1*
X1934206Y1570778D1*
X1942039Y1566787D1*
X1949152Y1561619D1*
X1955369Y1555402D1*
X1960537Y1548289D1*
X1964528Y1540456D1*
X1967244Y1532094D1*
X1968619Y1523411D1*
Y1514619D1*
X1967244Y1505936D1*
X1964528Y1497574D1*
X1960537Y1489741D1*
X1955369Y1482628D1*
X1949152Y1476411D1*
X1942039Y1471243D1*
X1934206Y1467253D1*
X1925844Y1464536D1*
X1917161Y1463161D1*
X1908369D1*
X1899686Y1464536D1*
X1891324Y1467253D1*
X1883491Y1471243D1*
X1876378Y1476411D1*
X1875306Y1477404D1*
X971622Y1784117D2*
X970480Y1776910D1*
X968226Y1769970D1*
X964913Y1763469D1*
X960623Y1757566D1*
X955465Y1752407D1*
X949562Y1748117D1*
X943060Y1744805D1*
X936121Y1742551D1*
X928913Y1741409D1*
X921617D1*
X914409Y1742551D1*
X907470Y1744805D1*
X900969Y1748117D1*
X895066Y1752407D1*
X889907Y1757566D1*
X885617Y1763469D1*
X882304Y1769970D1*
X880050Y1776910D1*
X878908Y1784117D1*
Y1791414D1*
X880050Y1798621D1*
X882304Y1805561D1*
X885617Y1812062D1*
X889907Y1817965D1*
X895066Y1823124D1*
X900969Y1827414D1*
X907470Y1830726D1*
X914409Y1832981D1*
X921617Y1834123D1*
X928913D1*
X936121Y1832981D1*
X943060Y1830726D1*
X949562Y1827414D1*
X955465Y1823124D1*
X960623Y1817965D1*
X964913Y1812062D1*
X968226Y1805561D1*
X970480Y1798621D1*
X971622Y1791414D1*
Y1784117D1*
X696622Y1721617D2*
X695480Y1714410D1*
X693226Y1707470D1*
X689913Y1700969D1*
X685623Y1695066D1*
X680465Y1689907D1*
X674562Y1685617D1*
X668060Y1682305D1*
X661121Y1680051D1*
X653913Y1678909D1*
X646617D1*
X639409Y1680051D1*
X632470Y1682305D1*
X625969Y1685617D1*
X620066Y1689907D1*
X614907Y1695066D1*
X610617Y1700969D1*
X607304Y1707470D1*
X605050Y1714410D1*
X603908Y1721617D1*
Y1728914D1*
X605050Y1736121D1*
X607304Y1743061D1*
X610617Y1749562D1*
X614907Y1755465D1*
X620066Y1760624D1*
X625969Y1764914D1*
X632470Y1768226D1*
X639409Y1770481D1*
X646617Y1771623D1*
X653913D1*
X661121Y1770481D1*
X668060Y1768226D1*
X674562Y1764914D1*
X680465Y1760624D1*
X685623Y1755465D1*
X689913Y1749562D1*
X693226Y1743061D1*
X695480Y1736121D1*
X696622Y1728914D1*
Y1721617D1*
X1371622Y2490367D2*
X1370480Y2483159D1*
X1368226Y2476220D1*
X1364913Y2469719D1*
X1360623Y2463816D1*
X1355465Y2458657D1*
X1349562Y2454367D1*
X1343060Y2451054D1*
X1336121Y2448800D1*
X1328913Y2447658D1*
X1321617D1*
X1314409Y2448800D1*
X1307470Y2451054D1*
X1300969Y2454367D1*
X1295066Y2458657D1*
X1289907Y2463816D1*
X1285617Y2469719D1*
X1282304Y2476220D1*
X1280050Y2483159D1*
X1278908Y2490367D1*
Y2497663D1*
X1280050Y2504871D1*
X1282304Y2511810D1*
X1285617Y2518312D1*
X1289907Y2524215D1*
X1295066Y2529373D1*
X1300969Y2533663D1*
X1307470Y2536976D1*
X1314409Y2539230D1*
X1321617Y2540372D1*
X1328913D1*
X1336121Y2539230D1*
X1343060Y2536976D1*
X1349562Y2533663D1*
X1355465Y2529373D1*
X1360623Y2524215D1*
X1364913Y2518312D1*
X1368226Y2511810D1*
X1370480Y2504871D1*
X1371622Y2497663D1*
Y2490367D1*
X1071676D2*
X1070534Y2483159D1*
X1068280Y2476220D1*
X1064967Y2469719D1*
X1060677Y2463816D1*
X1055518Y2458657D1*
X1049615Y2454367D1*
X1043114Y2451054D1*
X1036175Y2448800D1*
X1028967Y2447658D1*
X1021671D1*
X1014463Y2448800D1*
X1007524Y2451054D1*
X1001022Y2454367D1*
X995119Y2458657D1*
X989961Y2463816D1*
X985671Y2469719D1*
X982358Y2476220D1*
X980104Y2483159D1*
X978962Y2490367D1*
Y2497663D1*
X980104Y2504871D1*
X982358Y2511810D1*
X985671Y2518312D1*
X989961Y2524215D1*
X995119Y2529373D1*
X1001022Y2533663D1*
X1007524Y2536976D1*
X1014463Y2539230D1*
X1021671Y2540372D1*
X1028967D1*
X1036175Y2539230D1*
X1043114Y2536976D1*
X1049615Y2533663D1*
X1055518Y2529373D1*
X1060677Y2524215D1*
X1064967Y2518312D1*
X1068280Y2511810D1*
X1070534Y2504871D1*
X1071676Y2497663D1*
Y2490367D1*
X1371623Y1915368D2*
X1370482Y1908161D1*
X1368227Y1901221D1*
X1364915Y1894720D1*
X1360625Y1888817D1*
X1355466Y1883658D1*
X1349563Y1879368D1*
X1343062Y1876056D1*
X1336122Y1873801D1*
X1328915Y1872659D1*
X1321618D1*
X1314411Y1873801D1*
X1307471Y1876056D1*
X1300970Y1879368D1*
X1295067Y1883658D1*
X1289908Y1888817D1*
X1285618Y1894720D1*
X1282306Y1901221D1*
X1280051Y1908161D1*
X1278909Y1915368D1*
Y1922665D1*
X1280051Y1929872D1*
X1282306Y1936812D1*
X1285618Y1943313D1*
X1289908Y1949216D1*
X1295067Y1954375D1*
X1300970Y1958665D1*
X1307471Y1961977D1*
X1314411Y1964232D1*
X1321618Y1965373D1*
X1328915D1*
X1336122Y1964232D1*
X1343062Y1961977D1*
X1349563Y1958665D1*
X1355466Y1954375D1*
X1360625Y1949216D1*
X1364915Y1943313D1*
X1368227Y1936812D1*
X1370482Y1929872D1*
X1371623Y1922665D1*
Y1915368D1*
X1071676D2*
X1070534Y1908161D1*
X1068280Y1901221D1*
X1064967Y1894720D1*
X1060677Y1888817D1*
X1055518Y1883658D1*
X1049615Y1879368D1*
X1043114Y1876056D1*
X1036175Y1873801D1*
X1028967Y1872659D1*
X1021671D1*
X1014463Y1873801D1*
X1007524Y1876056D1*
X1001022Y1879368D1*
X995119Y1883658D1*
X989961Y1888817D1*
X985671Y1894720D1*
X982358Y1901221D1*
X980104Y1908161D1*
X978962Y1915368D1*
Y1922665D1*
X980104Y1929872D1*
X982358Y1936812D1*
X985671Y1943313D1*
X989961Y1949216D1*
X995119Y1954375D1*
X1001022Y1958665D1*
X1007524Y1961977D1*
X1014463Y1964232D1*
X1021671Y1965373D1*
X1028967D1*
X1036175Y1964232D1*
X1043114Y1961977D1*
X1049615Y1958665D1*
X1055518Y1954375D1*
X1060677Y1949216D1*
X1064967Y1943313D1*
X1068280Y1936812D1*
X1070534Y1929872D1*
X1071676Y1922665D1*
Y1915368D1*
X2046622Y2171617D2*
X2045480Y2164410D1*
X2043226Y2157470D1*
X2039913Y2150969D1*
X2035623Y2145066D1*
X2030465Y2139907D1*
X2024562Y2135617D1*
X2018060Y2132305D1*
X2011121Y2130051D1*
X2003913Y2128909D1*
X1996617D1*
X1989409Y2130051D1*
X1982470Y2132305D1*
X1975969Y2135617D1*
X1970066Y2139907D1*
X1964907Y2145066D1*
X1960617Y2150969D1*
X1957304Y2157470D1*
X1955050Y2164410D1*
X1953908Y2171617D1*
Y2178914D1*
X1955050Y2186121D1*
X1957304Y2193061D1*
X1960617Y2199562D1*
X1964907Y2205465D1*
X1970066Y2210624D1*
X1975969Y2214914D1*
X1982470Y2218226D1*
X1989409Y2220481D1*
X1996617Y2221623D1*
X2003913D1*
X2011121Y2220481D1*
X2018060Y2218226D1*
X2024562Y2214914D1*
X2030465Y2210624D1*
X2035623Y2205465D1*
X2039913Y2199562D1*
X2043226Y2193061D1*
X2045480Y2186121D1*
X2046622Y2178914D1*
Y2171617D1*
X1665361Y2205957D2*
X1670066Y2210624D1*
X1675969Y2214914D1*
X1682470Y2218226D1*
X1689409Y2220481D1*
X1696617Y2221623D1*
X1703913D1*
X1711121Y2220481D1*
X1718060Y2218226D1*
X1724562Y2214914D1*
X1730465Y2210624D1*
X1735623Y2205465D1*
X1739913Y2199562D1*
X1743226Y2193061D1*
X1745480Y2186121D1*
X1746622Y2178914D1*
Y2171617D1*
X1745480Y2164410D1*
X1743226Y2157470D1*
X1739913Y2150969D1*
X1735623Y2145066D1*
X1730465Y2139907D1*
X1724562Y2135617D1*
X1718060Y2132305D1*
X1711121Y2130051D1*
X1703913Y2128909D1*
X1696617D1*
X1689409Y2130051D1*
X1682470Y2132305D1*
X1675969Y2135617D1*
X1670066Y2139907D1*
X1668129Y2141698D1*
X2034122Y1621617D2*
X2032980Y1614410D1*
X2030726Y1607470D1*
X2027413Y1600969D1*
X2023123Y1595066D1*
X2017965Y1589907D1*
X2012062Y1585617D1*
X2005560Y1582305D1*
X1998621Y1580051D1*
X1991413Y1578909D1*
X1984117D1*
X1976909Y1580051D1*
X1969970Y1582305D1*
X1963469Y1585617D1*
X1957566Y1589907D1*
X1952407Y1595066D1*
X1948117Y1600969D1*
X1944804Y1607470D1*
X1942550Y1614410D1*
X1941408Y1621617D1*
Y1628914D1*
X1942550Y1636121D1*
X1944804Y1643061D1*
X1948117Y1649562D1*
X1952407Y1655465D1*
X1957566Y1660624D1*
X1963469Y1664914D1*
X1969970Y1668226D1*
X1976909Y1670481D1*
X1984117Y1671623D1*
X1991413D1*
X1998621Y1670481D1*
X2005560Y1668226D1*
X2012062Y1664914D1*
X2017965Y1660624D1*
X2023123Y1655465D1*
X2027413Y1649562D1*
X2030726Y1643061D1*
X2032980Y1636121D1*
X2034122Y1628914D1*
Y1621617D1*
X2032980Y1614410D1*
X2030726Y1607470D1*
X2027413Y1600969D1*
X2023123Y1595066D1*
X2017965Y1589907D1*
X2012062Y1585617D1*
X2005560Y1582305D1*
X1998621Y1580051D1*
X1991413Y1578909D1*
X1984117D1*
X1976909Y1580051D1*
X1969970Y1582305D1*
X1963469Y1585617D1*
X1957566Y1589907D1*
X1952407Y1595066D1*
X1948117Y1600969D1*
X1944804Y1607470D1*
X1942550Y1614410D1*
X1941408Y1621617D1*
Y1628914D1*
X1942550Y1636121D1*
X1944804Y1643061D1*
X1948117Y1649562D1*
X1952407Y1655465D1*
X1957566Y1660624D1*
X1963469Y1664914D1*
X1969970Y1668226D1*
X1976909Y1670481D1*
X1984117Y1671623D1*
X1991413D1*
X1998621Y1670481D1*
X2005560Y1668226D1*
X2012062Y1664914D1*
X2017965Y1660624D1*
X2023123Y1655465D1*
X2027413Y1649562D1*
X2030726Y1643061D1*
X2032980Y1636121D1*
X2034122Y1628914D1*
Y1621617D1*
X863552Y1827868D2*
X862411Y1820661D1*
X860156Y1813721D1*
X856844Y1807220D1*
X852554Y1801317D1*
X847395Y1796158D1*
X841492Y1791868D1*
X834991Y1788556D1*
X828051Y1786301D1*
X820844Y1785159D1*
X813547D1*
X806340Y1786301D1*
X799400Y1788556D1*
X792899Y1791868D1*
X786996Y1796158D1*
X781837Y1801317D1*
X777547Y1807220D1*
X774235Y1813721D1*
X771980Y1820661D1*
X770839Y1827868D1*
Y1835165D1*
X771980Y1842372D1*
X774235Y1849312D1*
X777547Y1855813D1*
X781837Y1861716D1*
X786996Y1866875D1*
X792899Y1871165D1*
X799400Y1874477D1*
X806340Y1876732D1*
X813547Y1877873D1*
X820844D1*
X828051Y1876732D1*
X834991Y1874477D1*
X841492Y1871165D1*
X847395Y1866875D1*
X852554Y1861716D1*
X856844Y1855813D1*
X860156Y1849312D1*
X862411Y1842372D1*
X863552Y1835165D1*
Y1827868D1*
X862411Y1820661D1*
X860156Y1813721D1*
X856844Y1807220D1*
X852554Y1801317D1*
X847395Y1796158D1*
X841492Y1791868D1*
X834991Y1788556D1*
X828051Y1786301D1*
X820844Y1785159D1*
X813547D1*
X806340Y1786301D1*
X799400Y1788556D1*
X792899Y1791868D1*
X786996Y1796158D1*
X781837Y1801317D1*
X777547Y1807220D1*
X774235Y1813721D1*
X771980Y1820661D1*
X770839Y1827868D1*
Y1835165D1*
X771980Y1842372D1*
X774235Y1849312D1*
X777547Y1855813D1*
X781837Y1861716D1*
X786996Y1866875D1*
X792899Y1871165D1*
X799400Y1874477D1*
X806340Y1876732D1*
X813547Y1877873D1*
X820844D1*
X828051Y1876732D1*
X834991Y1874477D1*
X841492Y1871165D1*
X847395Y1866875D1*
X852554Y1861716D1*
X856844Y1855813D1*
X860156Y1849312D1*
X862411Y1842372D1*
X863552Y1835165D1*
Y1827868D1*
X2015373Y1321617D2*
X2014231Y1314410D1*
X2011976Y1307470D1*
X2008664Y1300969D1*
X2004374Y1295066D1*
X1999215Y1289907D1*
X1993312Y1285617D1*
X1986811Y1282305D1*
X1979871Y1280051D1*
X1972664Y1278909D1*
X1965367D1*
X1958160Y1280051D1*
X1951220Y1282305D1*
X1944719Y1285617D1*
X1938816Y1289907D1*
X1933657Y1295066D1*
X1929367Y1300969D1*
X1926055Y1307470D1*
X1923801Y1314410D1*
X1922659Y1321617D1*
Y1328914D1*
X1923801Y1336121D1*
X1926055Y1343061D1*
X1929367Y1349562D1*
X1933657Y1355465D1*
X1938816Y1360624D1*
X1944719Y1364914D1*
X1951220Y1368226D1*
X1958160Y1370481D1*
X1965367Y1371623D1*
X1972664D1*
X1979871Y1370481D1*
X1986811Y1368226D1*
X1993312Y1364914D1*
X1999215Y1360624D1*
X2004374Y1355465D1*
X2008664Y1349562D1*
X2011976Y1343061D1*
X2014231Y1336121D1*
X2015373Y1328914D1*
Y1321617D1*
D19*
X681516Y1556516D3*
D20*
Y2856516D3*
D22*
X744016Y2131516D3*
Y2564587D3*
D19*
X1400265Y1062766D3*
D20*
X1300265D3*
X1200265D3*
D23*
X525265Y2175266D3*
Y2486289D3*
X2237765Y1950266D3*
Y2261289D3*
Y2572313D3*
D19*
X2275265Y1662766D3*
D90*
Y1562767D3*
Y1462767D3*
Y1362766D3*
Y1262767D3*
D24*
X587765Y950266D3*
X637765Y1050266D3*
X687765Y950266D3*
X737765Y1050266D3*
X787765Y950266D3*
X837765Y1050266D3*
X887765Y950266D3*
X937765Y1050266D3*
D25*
X1450265Y687766D3*
Y625266D3*
Y756515D3*
D24*
X1531516Y2787766D3*
X1606516D3*
X1531514Y2712766D3*
X1606516D3*
X1531516Y2637766D3*
X1606516D3*
X1537766Y2225266D3*
X1612766D3*
X1537765Y2150266D3*
X1612766D3*
X1537766Y2075266D3*
X1612766D3*
X1531517Y1662766D3*
X1606517D3*
X1531516Y1587766D3*
X1606517D3*
X1531517Y1512766D3*
X1606517D3*
X1837765Y2631516D3*
X1912765D3*
X1837765Y2069016D3*
X1912765D3*
X1837765Y1519015D3*
X1912765D3*
D19*
X2150265Y1050266D3*
D20*
X2050265D3*
M02*
