%TF.GenerationSoftware,Novarm,DipTrace,3.0.0.2*%
%TF.CreationDate,2017-01-12T11:09:45-08:00*%
%FSLAX26Y26*%
%MOIN*%
%TF.FileFunction,Paste,Top*%
%TF.Part,Single*%
%ADD53R,0.070709X0.015591*%
%ADD61R,0.210472X0.234094*%
%ADD63R,0.031339X0.100236*%
%ADD77R,0.051024X0.04315*%
%ADD83R,0.035276X0.031339*%
%ADD85R,0.031339X0.035276*%
G75*
G01*
%LPD*%
D83*
X750266Y1831516D3*
X817196D3*
D77*
X1562731Y1062569D3*
Y987766D3*
X1643990Y1062569D3*
Y987766D3*
X1731298Y1060796D3*
Y985993D3*
X1812757Y1062569D3*
Y987766D3*
X1887765Y1062569D3*
Y987766D3*
D63*
X962765Y2450266D3*
X1142293D3*
D61*
X1052529Y2714045D3*
D63*
X1262765Y2450266D3*
X1442293D3*
D61*
X1352529Y2714045D3*
D63*
X2062765Y2700266D3*
X1883238D3*
D61*
X1973001Y2436486D3*
D63*
X1762765Y2700266D3*
X1583238D3*
D61*
X1673001Y2436486D3*
D63*
X962765Y1887766D3*
X1142293D3*
D61*
X1052529Y2151545D3*
D63*
X1262765Y1887766D3*
X1442293D3*
D61*
X1352529Y2151545D3*
D63*
X1762765Y2137766D3*
X1583238D3*
D61*
X1673001Y1873986D3*
D63*
X2062765Y2137766D3*
X1883238D3*
D61*
X1973001Y1873986D3*
D63*
X962765Y1337766D3*
X1142293D3*
D61*
X1052529Y1601545D3*
D63*
X1262765Y1337766D3*
X1442293D3*
D61*
X1352529Y1601545D3*
D63*
X1762765Y1587766D3*
X1583238D3*
D61*
X1673001Y1323986D3*
D63*
X2062765Y1587766D3*
X1883238D3*
D61*
X1973001Y1323986D3*
D85*
X1025265Y2425266D3*
Y2492195D3*
X1325265Y2425266D3*
Y2492195D3*
X2000265Y2742195D3*
Y2675266D3*
X1700265Y2742195D3*
Y2675266D3*
X1025265Y1850266D3*
Y1917195D3*
X1325265Y1850266D3*
Y1917195D3*
X1700265Y2175266D3*
Y2108337D3*
X2000265Y2175266D3*
Y2108337D3*
X1025265Y1300266D3*
Y1367195D3*
X1325265Y1300266D3*
Y1367195D3*
X1687765Y1625266D3*
Y1558337D3*
X1987765Y1625266D3*
Y1558337D3*
D53*
X537765Y1775266D3*
Y1725266D3*
Y1675266D3*
Y1625266D3*
X750364D3*
Y1675266D3*
Y1725266D3*
Y1775266D3*
M02*
